Division,WeightClassKg,Place,Name,Team,BodyweightKg,Best3SquatKg,Best3BenchKg,Best3DeadliftKg,TotalKg,Equipment,Event,Sex
Boys,51.71,1,Elijah Simental,Hurst Bell,51.44,90.72,45.36,117.93,254.01,Single-ply,SBD,M
Boys,51.71,2,Lucas Moore,Celina,51.71,90.72,43.09,106.59,240.4,Single-ply,SBD,M
Boys,51.71,3,Donovan Carter #3,Carrollton Ranchview,44.04,56.7,47.63,77.11,181.44,Single-ply,SBD,M
Boys,51.71,DQ,Chris Bradley,Mexia,51.71,,,,,Single-ply,SBD,M
Boys,55.79,1,Collin Kittleson,Dallas Jesuit,54.2,111.13,52.16,117.93,281.23,Single-ply,SBD,M
Boys,55.79,2,Jeremiah Williams,Bishop Lynch,55.38,99.79,54.43,120.2,274.42,Single-ply,SBD,M
Boys,55.79,3,Zion Tidwell,Hurst Bell,54.3,97.52,52.16,117.93,267.62,Single-ply,SBD,M
Boys,55.79,4,Jaylon James,Cedar Hill,55.79,83.91,54.43,117.93,256.28,Single-ply,SBD,M
Boys,55.79,5,Patricio Chapa,Dallas Jesuit,55.11,90.72,47.63,102.06,240.4,Single-ply,SBD,M
Boys,55.79,DQ,Ariel Pimienta,Mexia,55.79,,,,,Single-ply,SBD,M
Boys,55.79,DQ,Zaki Farooqui,Oakridge School,54.93,,,,,Single-ply,SBD,M
Boys,55.79,DQ,Dan O'Brien #4,Dallas Jesuit,55.43,102.06,,,,Single-ply,SBD,M
Boys,59.87,1,Ernest Edwards,Cedar Hill,58.79,167.83,86.18,163.29,417.3,Single-ply,SBD,M
Boys,59.87,2,Will Nickols,Dallas Jesuit,59.33,154.22,88.45,151.95,394.63,Single-ply,SBD,M
Boys,59.87,3,Nic Schnitzius,Dallas Jesuit,58.01,165.56,65.77,158.76,390.09,Single-ply,SBD,M
Boys,59.87,4,Mason Vinson,Sanger,58.74,142.88,72.57,149.69,365.14,Single-ply,SBD,M
Boys,59.87,5,Cole Lenzen,Dallas Jesuit,59.47,124.74,61.23,158.76,344.73,Single-ply,SBD,M
Boys,59.87,6,James Washington,Carrollton Ranchview,56.43,111.13,58.97,136.08,306.17,Single-ply,SBD,M
Boys,59.87,7,Kenneth Ashley,Cedar Hill,58.11,104.33,68.04,124.74,297.1,Single-ply,SBD,M
Boys,59.87,8,Jeremiah Dawkins,Mexia,58.65,99.79,56.7,113.4,269.89,Single-ply,SBD,M
Boys,59.87,DQ,Creed Carter,Sanger,58.74,174.63,,,,Single-ply,SBD,M
Boys,67.13,1,Uchenna Hall,Cedar Hill,63.59,183.7,92.99,167.83,444.52,Single-ply,SBD,M
Boys,67.13,2,Isaac Stewart,Celina,64.59,181.44,79.38,158.76,419.57,Single-ply,SBD,M
Boys,67.13,3,Zack Carter,Sanger,64.36,161.03,90.72,163.29,415.04,Single-ply,SBD,M
Boys,67.13,4,Wyatt Thomas,Midlothian Heritage,64.05,147.42,102.06,158.76,408.23,Single-ply,SBD,M
Boys,67.13,5,Jalil Wright,Mexia,63.46,133.81,83.91,188.24,405.97,Single-ply,SBD,M
Boys,67.13,6,Edison Torres,Celina,66.54,158.76,79.38,165.56,403.7,Single-ply,SBD,M
Boys,67.13,7,Cameron Smith #7,Hurst Bell,65.82,136.08,81.65,167.83,385.55,Single-ply,SBD,M
Boys,67.13,8,Dillon Pepper,Euless Trinity,66.54,154.22,72.57,158.76,385.55,Single-ply,SBD,M
Boys,67.13,9,Erick Torres,Venus,64.82,122.47,72.57,145.15,340.19,Single-ply,SBD,M
Boys,67.13,10,Avery Walker,Sanger,66,127.01,65.77,124.74,317.51,Single-ply,SBD,M
Boys,67.13,11,Jaibin Matthew,Dallas Jesuit,65.77,92.99,47.63,92.99,233.6,Single-ply,SBD,M
Boys,67.13,12,Gabe Leal,Venus,61.69,115.67,104.33,,219.99,Single-ply,SB,M
Boys,74.84,1,Parker Holman,Celina,74.8,190.51,113.4,195.04,498.95,Single-ply,SBD,M
Boys,74.84,2,Emmet Halm,Dallas Jesuit,68.86,174.63,111.13,192.78,478.54,Single-ply,SBD,M
Boys,74.84,3,Jackson Taylor,Celina,73.8,181.44,108.86,188.24,478.54,Single-ply,SBD,M
Boys,74.84,4,Isaac Sandoval,Mexia,74.21,183.7,99.79,192.78,476.27,Single-ply,SBD,M
Boys,74.84,5,Tj Bellah,Oakridge School,70.08,183.7,92.99,197.31,474,Single-ply,SBD,M
Boys,74.84,6,Santos Hernandez,Sanger,74.21,181.44,102.06,188.24,471.74,Single-ply,SBD,M
Boys,74.84,7,William Courtney,Dallas Jesuit,72.94,170.1,97.52,199.58,467.2,Single-ply,SBD,M
Boys,74.84,8,Grant Delanoy,Dallas Jesuit,69.35,172.37,74.84,210.92,458.13,Single-ply,SBD,M
Boys,74.84,9,Desmond Thomas,Hurst Bell,74.48,165.56,90.72,192.78,449.06,Single-ply,SBD,M
Boys,74.84,10,Romy Galdamez,Hurst Bell,73.98,161.03,90.72,167.83,419.57,Single-ply,SBD,M
Boys,74.84,11,Kadyn Putty,Venus,73.26,131.54,95.25,188.24,415.04,Single-ply,SBD,M
Boys,74.84,12,Cameron Johnson,Hurst Bell,74.07,142.88,95.25,172.37,410.5,Single-ply,SBD,M
Boys,74.84,13,Colin Dykes,Hurst Bell,74.21,149.69,92.99,167.83,410.5,Single-ply,SBD,M
Boys,74.84,14,Jj Tellez,Dallas Jesuit,74.16,163.29,72.57,163.29,399.16,Single-ply,SBD,M
Boys,74.84,15,Gabriel DeConto,Dallas Jesuit,73.75,161.03,65.77,156.49,383.29,Single-ply,SBD,M
Boys,74.84,16,John Hoffman,Venus,67.9,120.2,83.91,129.27,333.39,Single-ply,SBD,M
Boys,74.84,17,Luis Lopez #5,Dallas Jesuit,72.48,102.06,54.43,142.88,299.37,Single-ply,SBD,M
Boys,74.84,18,Gerardo Chairez,Venus,71.12,102.06,68.04,127.01,297.1,Single-ply,SBD,M
Boys,74.84,19,Ricky Ponte,Dallas Jesuit,67.99,97.52,61.23,111.13,269.89,Single-ply,SBD,M
Boys,74.84,DQ,Dedryc Hutchins,Cedar Hill,73.62,74.84,,,,Single-ply,SBD,M
Boys,82.1,1,Kevin Young,Cedar Hill,75.84,190.51,113.4,204.12,508.02,Single-ply,SBD,M
Boys,82.1,2,Nikko Solis,Hurst Bell,77.75,204.12,106.59,176.9,487.61,Single-ply,SBD,M
Boys,82.1,3,David Ritter #1,Dallas Jesuit,81.33,156.49,83.91,192.78,433.18,Single-ply,SBD,M
Boys,82.1,4,Gino Lara,Venus,81.19,176.9,86.18,165.56,428.64,Single-ply,SBD,M
Boys,82.1,5,Sione Leveni,Hurst Bell,79.02,136.08,83.91,158.76,378.75,Single-ply,SBD,M
Boys,82.1,6,Luke Sullivan,Dallas Jesuit,79.29,142.88,72.57,154.22,369.68,Single-ply,SBD,M
Boys,82.1,7,Jaxon Olson,Sanger,80.33,136.08,90.72,142.88,369.68,Single-ply,SBD,M
Boys,82.1,8,Isaiah Morales,Venus,77.61,115.67,77.11,145.15,337.93,Single-ply,SBD,M
Boys,82.1,DQ,Enrique Garcia,Venus,80.47,,83.91,154.22,,Single-ply,SBD,M
Boys,82.1,DQ,Syler Saenz,Sanger,79.97,208.65,,217.72,,Single-ply,SBD,M
Boys,82.1,DQ,Jose Dominguez,Inspired Vision,81.15,204.12,113.4,,,Single-ply,SBD,M
Boys,82.1,DQ,Gavin Wright,Mexia,78.2,183.7,,,,Single-ply,SBD,M
Boys,89.81,1,Cheyenne Ayers,Hurst Bell,88.27,226.8,124.74,208.65,560.19,Single-ply,SBD,M
Boys,89.81,2,Brett Carter,Sanger,87.27,215.46,140.61,201.85,557.92,Single-ply,SBD,M
Boys,89.81,3,Anthony Lu,Oakridge School,84.32,197.31,111.13,217.72,526.17,Single-ply,SBD,M
Boys,89.81,4,Ricardo Valentin,Hurst Bell,87.72,204.12,113.4,181.44,498.95,Single-ply,SBD,M
Boys,89.81,5,Jackson Daniel,Dallas Jesuit,84.19,183.7,92.99,217.72,494.42,Single-ply,SBD,M
Boys,89.81,6,Tyler Schott,Venus,86.36,181.44,79.38,201.85,462.66,Single-ply,SBD,M
Boys,89.81,DQ,Holt Chavez,Bishop Lynch,86.95,,,,,Single-ply,SBD,M
Boys,99.79,1,Erick Varela,Inspired Vision,98.29,265.35,142.88,183.7,591.94,Single-ply,SBD,M
Boys,99.79,2,Jason Pruitt,Cedar Hill,92.71,195.04,111.13,217.72,523.9,Single-ply,SBD,M
Boys,99.79,3,Bryan Luna,Mexia,97.66,215.46,120.2,183.7,519.36,Single-ply,SBD,M
Boys,99.79,4,Peter Lilomaiava,Hurst Bell,99.16,188.24,113.4,181.44,483.08,Single-ply,SBD,M
Boys,99.79,5,Chase Bunnel,Celina,93.67,183.7,106.59,174.63,464.93,Single-ply,SBD,M
Boys,99.79,6,Nathan Paik,Carrollton Ranchview,97.11,174.63,97.52,181.44,453.59,Single-ply,SBD,M
Boys,99.79,7,Devin Yeboah,Hurst Bell,95.98,170.1,95.25,183.7,449.06,Single-ply,SBD,M
Boys,99.79,8,Ben Eskins,Midlothian Heritage,90.22,163.29,95.25,158.76,417.3,Single-ply,SBD,M
Boys,99.79,9,Timothy Anglemyer,Midlothian Heritage,99.74,145.15,102.06,140.61,387.82,Single-ply,SBD,M
Boys,99.79,DQ,Matthew Aribisala,Cedar Hill,99.2,210.92,,,,Single-ply,SBD,M
Boys,109.77,1,Issac Chavez,Bishop Lynch,106.41,231.33,158.76,213.19,603.28,Single-ply,SBD,M
Boys,109.77,2,Joe Shore,Bishop Lynch,109.27,224.53,124.74,206.38,555.65,Single-ply,SBD,M
Boys,109.77,3,Gabe Morales,Dallas Jesuit,108.27,226.8,124.74,190.51,542.04,Single-ply,SBD,M
Boys,109.77,4,Quaylynn Burkes,Sanger,109.72,215.46,140.61,185.97,542.04,Single-ply,SBD,M
Boys,109.77,5,Ryan Jenkins,Cedar Hill,102.6,195.04,113.4,199.58,508.02,Single-ply,SBD,M
Boys,109.77,6,Logan Monroe,Bishop Lynch,104.83,215.46,97.52,195.04,508.02,Single-ply,SBD,M
Boys,109.77,7,Amari Mapp,Euless Trinity,108.73,197.31,111.13,197.31,505.76,Single-ply,SBD,M
Boys,109.77,8,Michael Reemts,Celina,102.78,206.38,97.52,192.78,496.68,Single-ply,SBD,M
Boys,109.77,9,Kevini MacDonald,Euless Trinity,106.5,158.76,120.2,210.92,489.88,Single-ply,SBD,M
Boys,109.77,10,Tofa Sanft,Euless Trinity,101.47,188.24,108.86,172.37,469.47,Single-ply,SBD,M
Boys,109.77,11,Tristyn White,Euless Trinity,108.54,183.7,136.08,142.88,462.66,Single-ply,SBD,M
Boys,109.77,12,Carlos Ruiz,Venus,101.06,129.27,61.23,142.88,333.39,Single-ply,SBD,M
Boys,109.77,13,Fred Carr,Mexia,108.91,61.23,49.9,68.04,179.17,Single-ply,SBD,M
Boys,109.77,DQ,Jaime Gonzales,Venus,102.92,127.01,86.18,,,Single-ply,SBD,M
Boys,124.74,1,Brandon Tran,Hurst Bell,123.74,276.69,154.22,256.28,687.19,Single-ply,SBD,M
Boys,124.74,2,Branson Hickman,Dallas Jesuit,118.66,233.6,156.49,226.8,616.89,Single-ply,SBD,M
Boys,124.74,3,Taderriek Dunn,Cedar Hill,114.99,240.4,131.54,201.85,573.79,Single-ply,SBD,M
Boys,124.74,4,Bavly BeBawy,Hurst Bell,121.65,215.46,120.2,192.78,528.44,Single-ply,SBD,M
Boys,124.74,5,Poukesi Vakauta,Euless Trinity,117.44,201.85,120.2,201.85,523.9,Single-ply,SBD,M
Boys,124.74,6,Alexis Monreal,Inspired Vision,118.66,183.7,92.99,151.95,428.64,Single-ply,SBD,M
Boys,124.74,DQ,David Aleamotua,Euless Trinity,124.28,226.8,142.88,,,Single-ply,SBD,M
Boys,124.74+,1,Sau Saafi,Euless Trinity,139.57,272.16,142.88,204.12,619.15,Single-ply,SBD,M
Boys,124.74+,2,David Morales,Dallas Jesuit,129.05,226.8,140.61,226.8,594.21,Single-ply,SBD,M
Boys,124.74+,3,Arik Medlock,Mexia,152,238.14,120.2,204.12,562.45,Single-ply,SBD,M
Boys,124.74+,4,Malakai Katoa,Euless Trinity,196,195.04,136.08,197.31,528.44,Single-ply,SBD,M
Boys,124.74+,5,Mina Hannah,Euless Trinity,135.44,206.38,136.08,183.7,526.17,Single-ply,SBD,M
Boys,124.74+,6,Jacob Adams,Mexia,125.69,179.17,83.91,183.7,446.79,Single-ply,SBD,M
Boys,124.74+,DQ,Lotu Asaeli,Euless Trinity,131.31,233.6,127.01,,,Single-ply,SBD,M
Boys,124.74+,DQ,Allek Llanes,Carrollton Ranchview,141.57,145.15,70.31,,,Single-ply,SBD,M
Boys,,NS,Mateo Dominguez,Venus,,,,,,Single-ply,SBD,M
Boys,,NS,Nicolas Reyes,Venus,,,,,,Single-ply,SBD,M
Boys,,NS,Joaquin Zamora,Venus,,,,,,Single-ply,SBD,M
Boys,,NS,Landon Grazer,Dallas Jesuit,,,,,,Single-ply,SBD,M
Boys,,NS,Bryan Gonzales,Inspired Vision,,,,,,Single-ply,SBD,M
Boys,,NS,Mason Holzer,Sanger,,,,,,Single-ply,SBD,M
Boys,,NS,Brody Greeson,Midlothian Heritage,,,,,,Single-ply,SBD,M
Boys,,NS,Ethan Pack,Midlothian Heritage,,,,,,Single-ply,SBD,M
Boys,,NS,Latray Miller,Midlothian Heritage,,,,,,Single-ply,SBD,M
Boys,,NS,Jacob Womack,Midlothian Heritage,,,,,,Single-ply,SBD,M
Boys,,NS,Ryan Pack,Midlothian Heritage,,,,,,Single-ply,SBD,M
Boys,,NS,Morgan Iroha,Euless Trinity,,,,,,Single-ply,SBD,M
