Division,WeightClassKg,Place,Name,Team,BodyweightKg,Best3SquatKg,Best3BenchKg,Best3DeadliftKg,TotalKg,Equipment,Event,Sex,BirthDate
Boys,51.71,1,Joe Gaytan,Donna,50.89,163.29,95.25,163.29,421.84,Single-ply,SBD,M,
Boys,51.71,2,Tristan Villarreal,Donna North,51.26,140.61,83.91,154.22,378.75,Single-ply,SBD,M,
Boys,51.71,3,Aaron Morin,Edinburg North,50.98,129.27,77.11,154.22,360.61,Single-ply,SBD,M,
Boys,51.71,4,Tyler Martinez #2,Edcouch-Elsa,49.08,97.52,63.5,108.86,269.89,Single-ply,SBD,M,
Boys,51.71,5,Adolfo Segura,Pharr Valley View,49.03,102.06,52.16,106.59,260.82,Single-ply,SBD,M,
Boys,55.79,1,Luis Cavazos,Donna North,55.7,181.44,106.59,174.63,462.66,Single-ply,SBD,M,
Boys,55.79,2,Zuriell Garia,Pharr Valley View,54.39,120.2,97.52,142.88,360.61,Single-ply,SBD,M,
Boys,59.87,1,Fernando Martinez #2,Weslaco,59.78,192.78,115.67,190.51,498.95,Single-ply,SBD,M,
Boys,59.87,2,Mario Perez,Weslaco,59.51,204.12,106.59,179.17,489.88,Single-ply,SBD,M,
Boys,59.87,3,San Juan Rodriguez,Edcouch-Elsa,59.78,181.44,102.06,183.7,467.2,Single-ply,SBD,M,
Boys,59.87,4,Jose Garcia #9,Edinburg North,59.1,138.35,102.06,165.56,405.97,Single-ply,SBD,M,
Boys,59.87,5,George Flores,Edinburg Economedes,59.24,140.61,92.99,145.15,378.75,Single-ply,SBD,M,
Boys,59.87,6,Nathan Lazo,Weslaco,58.51,122.47,86.18,149.69,358.34,Single-ply,SBD,M,
Boys,59.87,DQ,Eric Gonzalez,Weslaco,59.15,131.54,,,,Single-ply,SBD,M,
Boys,67.13,1,Tony Lopez,Donna North,66.72,208.65,111.13,208.65,528.44,Single-ply,SBD,M,
Boys,67.13,2,Alan Olvera,Edinburg Economedes,66.18,201.85,124.74,192.78,519.36,Single-ply,SBD,M,
Boys,67.13,3,Jonathon Castillo,Edcouch-Elsa,67.13,183.7,111.13,192.78,487.61,Single-ply,SBD,M,
Boys,67.13,4,Julian Villanueva,Donna North,66.72,183.7,102.06,199.58,485.34,Single-ply,SBD,M,
Boys,67.13,5,Raven Figueroa,Weslaco East,65.59,170.1,108.86,197.31,476.27,Single-ply,SBD,M,
Boys,67.13,6,Marcus Saenz,Weslaco,65.32,188.24,97.52,158.76,444.52,Single-ply,SBD,M,
Boys,67.13,7,Isai Del Rosal,Edinburg North,65.68,163.29,102.06,156.49,421.84,Single-ply,SBD,M,
Boys,67.13,8,Harley Rios,Weslaco,63.5,167.83,95.25,154.22,417.3,Single-ply,SBD,M,
Boys,67.13,9,Sam Gracia,Weslaco,63.96,167.83,97.52,142.88,408.23,Single-ply,SBD,M,
Boys,67.13,10,Albert Gonzalez,Pharr Valley View,65,142.88,102.06,151.95,396.89,Single-ply,SBD,M,
Boys,67.13,DQ,Joseph Navarro,Edinburg Vela,67.13,,,,,Single-ply,SBD,M,
Boys,67.13,DQ,David Vidaurrl,Edinburg Vela,63.78,102.06,70.31,,,Single-ply,SBD,M,
Boys,67.13,DQ,Carlos Guzman,Edinburg Vela,67.13,151.95,102.06,,,Single-ply,SBD,M,
Boys,74.84,1,Joshua Sanchez,Edinburg Economedes,74.25,229.06,131.54,229.06,589.67,Single-ply,SBD,M,
Boys,74.84,2,Miguel Castillo,Edinburg Vela,73.3,231.33,131.54,210.92,573.79,Single-ply,SBD,M,
Boys,74.84,3,Alex Benavides,Donna North,74.57,219.99,138.35,201.85,560.19,Single-ply,SBD,M,
Boys,74.84,4,Sergio Lerma,Weslaco,74.75,213.19,102.06,204.12,519.36,Single-ply,SBD,M,
Boys,74.84,5,Mauricio Trejo,Weslaco East,72.89,190.51,122.47,174.63,487.61,Single-ply,SBD,M,
Boys,74.84,6,Jacob Gomez,Weslaco East,74.03,183.7,95.25,183.7,462.66,Single-ply,SBD,M,
Boys,74.84,7,Chris Delatorre,Pharr Valley View,74.84,163.29,104.33,172.37,439.98,Single-ply,SBD,M,
Boys,74.84,8,Robert Minjares,Pharr Valley View,70.13,154.22,99.79,165.56,419.57,Single-ply,SBD,M,
Boys,74.84,9,Armando Santos,Weslaco East,69.31,145.15,95.25,176.9,417.3,Single-ply,SBD,M,
Boys,74.84,DQ,Juan Cano,Edinburg Vela,74.75,127.01,,,,Single-ply,SBD,M,
Boys,74.84,DQ,Michael Garcia #12,Edinburg Vela,73.35,,,,,Single-ply,SBD,M,
Boys,82.1,1,Jacob Perez #4,Edcouch-Elsa,79.11,235.87,124.74,254.01,614.62,Single-ply,SBD,M,
Boys,82.1,2,Christian Cortina,Donna North,81.78,242.67,133.81,233.6,610.08,Single-ply,SBD,M,
Boys,82.1,3,Jesus Sepulveda,Edinburg Economedes,78.79,235.87,151.95,199.58,587.4,Single-ply,SBD,M,
Boys,82.1,4,Alejandro Cortez,Edinburg North,78.34,224.53,124.74,226.8,576.06,Single-ply,SBD,M,
Boys,82.1,5,Jesse Contreras,Edcouch-Elsa,81.51,217.72,120.2,224.53,562.45,Single-ply,SBD,M,
Boys,82.1,6,Irwin Morin,Weslaco East,80.88,190.51,127.01,204.12,521.63,Single-ply,SBD,M,
Boys,82.1,7,Carlos Olivo,Edinburg North,82.1,192.78,124.74,204.12,521.63,Single-ply,SBD,M,
Boys,82.1,8,Jesse Leal,Edinburg Economedes,76.2,172.37,113.4,208.65,494.42,Single-ply,SBD,M,
Boys,82.1,9,Teddie Lozano,Edinburg North,77.29,158.76,106.59,195.04,460.4,Single-ply,SBD,M,
Boys,82.1,10,Evan Sanchez,La Feria,79.02,174.63,90.72,167.83,433.18,Single-ply,SBD,M,
Boys,82.1,11,Joel Ramirez,Donna,80.88,165.56,102.06,142.88,410.5,Single-ply,SBD,M,
Boys,82.1,12,Miguel Coronado,Donna,77.34,158.76,92.99,154.22,405.97,Single-ply,SBD,M,
Boys,82.1,13,Anthony Villareal,Pharr Valley View,80.1,154.22,86.18,151.95,392.36,Single-ply,SBD,M,
Boys,82.1,14,Luis Esquivel,Weslaco,80.29,147.42,83.91,138.35,369.68,Single-ply,SBD,M,
Boys,89.81,1,Larry Strickland,Weslaco,88.95,274.42,140.61,260.82,675.85,Single-ply,SBD,M,
Boys,89.81,2,Irvin Castro,La Feria,89.04,219.99,127.01,195.04,542.04,Single-ply,SBD,M,
Boys,89.81,3,Erick Rangel,La Feria,89.18,201.85,122.47,197.31,521.63,Single-ply,SBD,M,
Boys,89.81,4,Reymando Luevano,Edinburg North,88.68,183.7,145.15,185.97,514.83,Single-ply,SBD,M,
Boys,89.81,5,Victor Guerrero,Edcouch-Elsa,87.59,183.7,115.67,204.12,503.49,Single-ply,SBD,M,
Boys,89.81,6,Luis Bautista,Pharr Valley View,88.27,167.83,129.27,199.58,496.68,Single-ply,SBD,M,
Boys,89.81,7,Brandon Gomez,Edinburg North,88.36,183.7,108.86,197.31,489.88,Single-ply,SBD,M,
Boys,89.81,8,Aldo Villarreal,Edinburg North,88.68,181.44,117.93,167.83,467.2,Single-ply,SBD,M,
Boys,89.81,9,Enrique Garcia,Pharr Valley View,83.91,161.03,102.06,185.97,449.06,Single-ply,SBD,M,
Boys,89.81,DQ,Mariano Martinez,Pharr Valley View,89.36,190.51,115.67,,,Single-ply,SBD,M,
Boys,89.81,DQ,Angel Vasquez,Edinburg Vela,82.92,240.4,149.69,,,Single-ply,SBD,M,
Boys,89.81,DQ,John Bustos,Donna North,84.46,226.8,,,,Single-ply,SBD,M,
Boys,89.81,DQ,Robert Sumbillo,Edcouch-Elsa,89.81,,,,,Single-ply,SBD,M,
Boys,99.79,1,Tony Gandaria,Donna North,99.79,258.55,163.29,233.6,655.44,Single-ply,SBD,M,
Boys,99.79,2,Justin Valdez,Edinburg Vela,99.43,260.82,145.15,233.6,639.57,Single-ply,SBD,M,
Boys,99.79,3,Dylan De La Garza,Edinburg Vela,96.98,224.53,136.08,244.94,605.55,Single-ply,SBD,M,
Boys,99.79,4,Erasmo Garces,Weslaco,99.65,219.99,145.15,217.72,582.87,Single-ply,SBD,M,
Boys,99.79,5,Jose Lugo,La Feria,98.16,219.99,124.74,197.31,542.04,Single-ply,SBD,M,
Boys,99.79,6,Aric Singleterry,Donna,98.38,213.19,142.88,170.1,526.17,Single-ply,SBD,M,
Boys,99.79,7,Rudy De Leon,La Feria,96.03,192.78,117.93,199.58,510.29,Single-ply,SBD,M,
Boys,109.77,1,Gabriel Salinas,Donna,108.54,303.91,181.44,249.48,734.82,Single-ply,SBD,M,
Boys,109.77,2,Valentin Sanchez,Donna North,103.6,249.48,151.95,217.72,619.15,Single-ply,SBD,M,
Boys,109.77,3,Ricky Rangel,Donna North,103.19,235.87,156.49,219.99,612.35,Single-ply,SBD,M,
Boys,109.77,4,Joseph Guerra,Edinburg Economedes,107.5,229.06,165.56,217.72,612.35,Single-ply,SBD,M,
Boys,109.77,5,Nick Rojas,Donna,109.23,258.55,158.76,190.51,607.81,Single-ply,SBD,M,
Boys,109.77,6,Pablo Rodriguez,Edinburg North,106.59,219.99,151.95,226.8,598.74,Single-ply,SBD,M,
Boys,109.77,7,Justyn Esquivel,Edcouch-Elsa,105.14,226.8,145.15,210.92,582.87,Single-ply,SBD,M,
Boys,109.77,8,Josue Moralez,Weslaco East,104.78,215.46,147.42,213.19,576.06,Single-ply,SBD,M,
Boys,109.77,9,Tony Marroquin,La Feria,106.14,224.53,138.35,210.92,573.79,Single-ply,SBD,M,
Boys,109.77,10,Andrew Reyes,Weslaco,105.82,213.19,124.74,199.58,537.51,Single-ply,SBD,M,
Boys,109.77,DQ,Eric Davila,Weslaco,105.23,163.29,,,,Single-ply,SBD,M,
Boys,109.77,DQ,Hector Narvaez,Pharr Valley View,105.37,,,,,Single-ply,SBD,M,
Boys,124.74,1,Imanol Rodriguez,Edcouch-Elsa,123.1,317.51,215.46,254.01,786.98,Single-ply,SBD,M,
Boys,124.74,2,Rolando Morales,Weslaco,120.38,263.08,174.63,235.87,673.58,Single-ply,SBD,M,
Boys,124.74,3,Darian Castillo,Donna,122.02,249.48,158.76,204.12,612.35,Single-ply,SBD,M,
Boys,124.74,4,Thomas Santillan,Weslaco,124.47,256.28,131.54,204.12,591.94,Single-ply,SBD,M,
Boys,124.74,5,Carlos Torres,Donna,118.25,210.92,120.2,199.58,530.7,Single-ply,SBD,M,
Boys,124.74,6,Robert Torres #1,Weslaco East,113.08,192.78,127.01,181.44,501.22,Single-ply,SBD,M,
Boys,124.74,7,Daniel Robledo,Weslaco,114.31,183.7,104.33,161.03,449.06,Single-ply,SBD,M,
Boys,124.74,DQ,David Garcia #16,Weslaco,123.38,,,,,Single-ply,SBD,M,
Boys,124.74,DQ,Jose Zavala,Weslaco East,110.59,201.85,113.4,,,Single-ply,SBD,M,
Boys,124.74+,1,Raul Martinez,Weslaco,128.37,292.57,183.7,217.72,694,Single-ply,SBD,M,
Boys,124.74+,2,Carlos Pineda,Donna,162.2,285.76,154.22,247.21,687.19,Single-ply,SBD,M,
Boys,124.74+,3,Jason Vasquez,Edcouch-Elsa,128.73,254.01,142.88,226.8,623.69,Single-ply,SBD,M,
Boys,124.74+,4,Triston Rosales,La Feria,132.63,274.42,154.22,195.04,623.69,Single-ply,SBD,M,
Boys,124.74+,5,Jose Resendes,Donna North,128,238.14,129.27,208.65,576.06,Single-ply,SBD,M,
Boys,124.74+,6,Juan Barrera,Edcouch-Elsa,135.58,249.48,115.67,183.7,548.85,Single-ply,SBD,M,
Boys,124.74+,7,Omar Olvera,Weslaco East,135.71,197.31,122.47,192.78,512.56,Single-ply,SBD,M,
Boys,124.74+,8,Devon Mata,Weslaco East,128.14,170.1,133.81,142.88,446.79,Single-ply,SBD,M,
