Division,WeightClassKg,Place,Name,Team,BodyweightKg,Best3SquatKg,Best3BenchKg,Best3DeadliftKg,TotalKg,Equipment,Event,Sex
Boys,51.71,1,Isaac Moreno,Castroville Medina Valley,51.48,151.95,88.45,151.95,392.36,Single-ply,SBD,M
Boys,51.71,2,Erik Lopez,Castroville Medina Valley,51.71,142.88,70.31,161.03,374.21,Single-ply,SBD,M
Boys,51.71,3,Edward Fonseca,San Antonio Memorial,51.26,140.61,81.65,145.15,367.41,Single-ply,SBD,M
Boys,51.71,4,Fabian Young,Blanco,48.85,99.79,52.16,124.74,276.69,Single-ply,SBD,M
Boys,51.71,5,Gavin Gutierrez,Runge,51.66,97.52,58.97,120.2,276.69,Single-ply,SBD,M
Boys,51.71,6,Christopher Reyes,San Antonio Brooks Academy,50.67,92.99,58.97,102.06,254.01,Single-ply,SBD,M
Boys,51.71,7,Mason Tise,Wimberley,43.09,72.57,31.75,79.38,183.7,Single-ply,SBD,M
Boys,55.79,1,Jacob Forster,Center Point,54.2,136.08,65.77,136.08,337.93,Single-ply,SBD,M
Boys,55.79,2,Joe Fraga,Runge,53.75,122.47,65.77,145.15,333.39,Single-ply,SBD,M
Boys,55.79,3,Christian Salazar,San Antonio Kennedy,53.93,124.74,56.7,138.35,319.78,Single-ply,SBD,M
Boys,55.79,4,Eric Perez,San Antonio Brooks Academy,55.29,61.23,43.09,97.52,201.85,Single-ply,SBD,M
Boys,59.87,1,Josh Bazan,Castroville Medina Valley,59.87,176.9,106.59,190.51,474,Single-ply,SBD,M
Boys,59.87,2,Diego Morales,Castroville Medina Valley,59.78,179.17,108.86,183.7,471.74,Single-ply,SBD,M
Boys,59.87,3,Dedrick Querner,Jourdanton,58.24,158.76,92.99,183.7,435.45,Single-ply,SBD,M
Boys,59.87,4,Jay Guajardo,San Antonio Southside,58.74,136.08,70.31,140.61,347,Single-ply,SBD,M
Boys,59.87,5,Fernando Estrada,San Antonio Brooks Academy,59.28,124.74,68.04,136.08,328.85,Single-ply,SBD,M
Boys,59.87,6,Gabriel Cansino,San Antonio Southside,58.92,111.13,70.31,142.88,324.32,Single-ply,SBD,M
Boys,59.87,7,Michael Horton,Center Point,58.65,92.99,63.5,142.88,299.37,Single-ply,SBD,M
Boys,59.87,DQ,Quen Syma,Lytle,59.69,,,,,Single-ply,SBD,M
Boys,67.13,1,Joel Huerta,San Antonio East Central,65.86,226.8,131.54,199.58,557.92,Single-ply,SBD,M
Boys,67.13,2,Chris Velasquez,Geronimo Navarro,66.18,224.53,131.54,199.58,555.65,Single-ply,SBD,M
Boys,67.13,3,Garett McDonald,Jourdanton,66.81,244.94,124.74,183.7,553.38,Single-ply,SBD,M
Boys,67.13,4,Josh Valenzuela,Castroville Medina Valley,67.13,210.92,136.08,204.12,551.11,Single-ply,SBD,M
Boys,67.13,5,Taylor Weber,Jourdanton,66.9,204.12,127.01,183.7,514.83,Single-ply,SBD,M
Boys,67.13,6,Dean Jimenez,San Antonio East Central,65.41,206.38,115.67,172.37,494.42,Single-ply,SBD,M
Boys,67.13,7,Jose Valdez,Castroville Medina Valley,65.41,185.97,108.86,195.04,489.88,Single-ply,SBD,M
Boys,67.13,8,Hayden Johnson,Center Point,63.19,190.51,102.06,185.97,478.54,Single-ply,SBD,M
Boys,67.13,9,Tyler Bouquet,Geronimo Navarro,66.45,167.83,115.67,170.1,453.59,Single-ply,SBD,M
Boys,67.13,10,Jose Ramirez #13,San Antonio Southside,64.86,172.37,90.72,183.7,446.79,Single-ply,SBD,M
Boys,67.13,11,Sam Bustamante,Center Point,66.09,165.56,102.06,170.1,437.72,Single-ply,SBD,M
Boys,67.13,12,Roman Garza,San Antonio Holy Cross,61.69,165.56,102.06,158.76,426.38,Single-ply,SBD,M
Boys,67.13,13,Marc Western,Wimberley,64.77,156.49,88.45,176.9,421.84,Single-ply,SBD,M
Boys,67.13,14,Dawson J McCulley,Castroville Medina Valley,65.09,147.42,95.25,174.63,417.3,Single-ply,SBD,M
Boys,67.13,15,Ethan Bierschwale,San Antonio East Central,63.59,170.1,83.91,158.76,412.77,Single-ply,SBD,M
Boys,67.13,16,Joseph Trevino,San Antonio Holy Cross,64.46,165.56,90.72,156.49,412.77,Single-ply,SBD,M
Boys,67.13,17,Ismael Perez,San Antonio Kennedy,64.18,138.35,74.84,188.24,401.43,Single-ply,SBD,M
Boys,67.13,18,Richard Ruiz #2,San Antonio Southside,64.23,149.69,95.25,149.69,394.63,Single-ply,SBD,M
Boys,67.13,19,Rene Jimenez,San Antonio Memorial,60.87,142.88,79.38,170.1,392.36,Single-ply,SBD,M
Boys,67.13,20,Chase Hafer,San Antonio Cole,63.87,115.67,83.91,167.83,367.41,Single-ply,SBD,M
Boys,67.13,21,Cecil Olivarri,Lytle,66.86,129.27,70.31,145.15,344.73,Single-ply,SBD,M
Boys,67.13,22,Camron Castillo,San Antonio Holy Cross,61.05,147.42,74.84,120.2,342.46,Single-ply,SBD,M
Boys,67.13,23,Ramon Gutierrez,Center Point,61.51,111.13,68.04,145.15,324.32,Single-ply,SBD,M
Boys,67.13,24,Johan Gutierrez,Center Point,64.05,106.59,70.31,138.35,315.25,Single-ply,SBD,M
Boys,67.13,25,Avery Fiedler,Center Point,61.19,108.86,54.43,124.74,288.03,Single-ply,SBD,M
Boys,67.13,DQ,Remy Wade,Wimberley,66.81,,,,,Single-ply,SBD,M
Boys,67.13,DQ,Derrick Rodriguez,San Antonio East Central,66.5,204.12,129.27,,,Single-ply,SBD,M
Boys,67.13,DQ,Austin Navejas,Comfort,60.06,,,,,Single-ply,SBD,M
Boys,74.84,1,Kevin Valdez,Castroville Medina Valley,71.3,204.12,136.08,233.6,573.79,Single-ply,SBD,M
Boys,74.84,2,Marco Burkman-Flaig,San Antonio Cole,71.71,197.31,113.4,188.24,498.95,Single-ply,SBD,M
Boys,74.84,3,John Gamez,San Antonio Brooks Academy,67.63,176.9,111.13,190.51,478.54,Single-ply,SBD,M
Boys,74.84,4,Seth Bullard,Castroville Medina Valley,74.71,183.7,108.86,179.17,471.74,Single-ply,SBD,M
Boys,74.84,5,Alex Villarreal,San Antonio Memorial,71.76,167.83,106.59,172.37,446.79,Single-ply,SBD,M
Boys,74.84,6,Hayden Harris,Jourdanton,73.03,151.95,92.99,170.1,415.04,Single-ply,SBD,M
Boys,74.84,7,Justiin Guerrero,San Antonio Southside,73.16,147.42,81.65,151.95,381.02,Single-ply,SBD,M
Boys,74.84,8,Rafael Arroyo,Wimberley,74.48,131.54,74.84,145.15,351.53,Single-ply,SBD,M
Boys,74.84,9,Xavier Cardenas,San Antonio Brooks Academy,69.94,127.01,68.04,142.88,337.93,Single-ply,SBD,M
Boys,74.84,10,Austin Lyman,Center Point,71.44,111.13,70.31,142.88,324.32,Single-ply,SBD,M
Boys,74.84,11,Alvaro Bustamante,Center Point,70.03,102.06,61.23,158.76,322.05,Single-ply,SBD,M
Boys,74.84,12,Lars Nielson,San Antonio Brooks Academy,72.17,106.59,52.16,129.27,288.03,Single-ply,SBD,M
Boys,74.84,DQ,Rylan Wagner,Lytle,73.48,,,,,Single-ply,SBD,M
Boys,74.84,DQ,Noah Rios,Runge,73.75,,,,,Single-ply,SBD,M
Boys,82.1,1,Garrett Ralph,Lytle,82.05,226.8,158.76,226.8,612.35,Single-ply,SBD,M
Boys,82.1,2,Ahron Arroyo,Wimberley,79.88,233.6,102.06,213.19,548.85,Single-ply,SBD,M
Boys,82.1,3,Ethan Thomas,Geronimo Navarro,81.33,204.12,138.35,204.12,546.58,Single-ply,SBD,M
Boys,82.1,4,Gibby Salas,San Antonio Holy Cross,81.01,222.26,111.13,204.12,537.51,Single-ply,SBD,M
Boys,82.1,5,Matthew Gilliam,Geronimo Navarro,80.78,215.46,120.2,199.58,535.24,Single-ply,SBD,M
Boys,82.1,6,Frank Ramsey,Wimberley,81.33,197.31,102.06,231.33,530.7,Single-ply,SBD,M
Boys,82.1,7,Carlos Verdin,Jourdanton,81.19,219.99,117.93,183.7,521.63,Single-ply,SBD,M
Boys,82.1,8,Maunel Ortiz,San Antonio Kennedy,81.83,176.9,106.59,226.8,510.29,Single-ply,SBD,M
Boys,82.1,9,Tyler Felux,San Antonio Brooks Academy,78.38,183.7,111.13,183.7,478.54,Single-ply,SBD,M
Boys,82.1,10,Abron Ortiz,Geronimo Navarro,81.19,190.51,120.2,163.29,474,Single-ply,SBD,M
Boys,82.1,11,Roman Mendoza,San Antonio Southside,81.33,190.51,111.13,170.1,471.74,Single-ply,SBD,M
Boys,82.1,12,Joan Herrera,San Antonio Southside,77.56,151.95,102.06,188.24,442.25,Single-ply,SBD,M
Boys,82.1,13,Angel Esparza,San Antonio Kennedy,79.42,149.69,90.72,197.31,437.72,Single-ply,SBD,M
Boys,82.1,14,Eddie Guerrero,San Antonio Holy Cross,79.11,158.76,90.72,183.7,433.18,Single-ply,SBD,M
Boys,82.1,15,Erick Palma,San Antonio Kennedy,77.07,149.69,88.45,183.7,421.84,Single-ply,SBD,M
Boys,82.1,16,Jesus Santiago,Wimberley,82.1,151.95,88.45,174.63,415.04,Single-ply,SBD,M
Boys,82.1,17,Ammon Jones,San Antonio Cole,78.56,147.42,83.91,179.17,410.5,Single-ply,SBD,M
Boys,82.1,18,Christopher Martinez,San Antonio Southside,82.1,158.76,90.72,158.76,408.23,Single-ply,SBD,M
Boys,82.1,19,Alan Hernandez #8,San Antonio Memorial,75.84,167.83,77.11,142.88,387.82,Single-ply,SBD,M
Boys,82.1,20,Haiden Hass,Center Point,82.01,129.27,79.38,163.29,371.95,Single-ply,SBD,M
Boys,82.1,DQ,Andrew Quinjano,San Antonio Southside,79.11,185.97,106.59,,,Single-ply,SBD,M
Boys,89.81,1,Euler de Leon,Geronimo Navarro,86.91,256.28,161.03,263.08,680.39,Single-ply,SBD,M
Boys,89.81,2,Edward Zaragoza,San Antonio Memorial,88.81,251.74,165.56,244.94,662.24,Single-ply,SBD,M
Boys,89.81,3,Joseph Perez,Lytle,86.55,272.16,113.4,231.33,616.89,Single-ply,SBD,M
Boys,89.81,4,David Guajardo,San Antonio East Central,88.09,226.8,142.88,242.67,612.35,Single-ply,SBD,M
Boys,89.81,5,Isaac Santos,Castroville Medina Valley,89.04,222.26,136.08,229.06,587.4,Single-ply,SBD,M
Boys,89.81,6,Marshall Clark,San Antonio East Central,88.27,213.19,115.67,188.24,517.1,Single-ply,SBD,M
Boys,89.81,7,Ricky Rodriguez,San Antonio East Central,89.13,195.04,113.4,190.51,498.95,Single-ply,SBD,M
Boys,89.81,8,Austin Montanez,San Antonio Cole,87.86,190.51,90.72,183.7,464.93,Single-ply,SBD,M
Boys,89.81,9,Matthew Villanueva,San Antonio Brooks Academy,88.18,176.9,92.99,195.04,464.93,Single-ply,SBD,M
Boys,89.81,10,Felix Delgado,Jourdanton,82.28,147.42,111.13,204.12,462.66,Single-ply,SBD,M
Boys,89.81,11,Abel Bustamante,Center Point,86.14,190.51,79.38,183.7,453.59,Single-ply,SBD,M
Boys,89.81,12,Jared Sandoval,San Antonio Memorial,85,124.74,83.91,158.76,367.41,Single-ply,SBD,M
Boys,89.81,13,Chris Bray,Jourdanton,89.58,111.13,74.84,165.56,351.53,Single-ply,SBD,M
Boys,89.81,DQ,Jacob Olivares,San Antonio Holy Cross,84.87,199.58,,,,Single-ply,SBD,M
Boys,99.79,1,David Reyna,Geronimo Navarro,99.79,249.48,172.37,192.78,614.62,Single-ply,SBD,M
Boys,99.79,2,Issac Paredes,Jourdanton,97.66,226.8,140.61,215.46,582.87,Single-ply,SBD,M
Boys,99.79,3,Cole Booker,Geronimo Navarro,96.48,192.78,122.47,217.72,532.97,Single-ply,SBD,M
Boys,99.79,4,Xethan Teague,Jourdanton,93.67,183.7,104.33,204.12,492.15,Single-ply,SBD,M
Boys,99.79,5,Jake Laque,Center Point,95.07,183.7,102.06,176.9,462.66,Single-ply,SBD,M
Boys,99.79,6,Kevin Ceniceros,Center Point,95.07,183.7,92.99,163.29,439.98,Single-ply,SBD,M
Boys,99.79,7,Hector Herrera,Wimberley,92.9,167.83,83.91,181.44,433.18,Single-ply,SBD,M
Boys,99.79,8,Miguel Torres,San Antonio Kennedy,97.66,129.27,117.93,172.37,419.57,Single-ply,SBD,M
Boys,99.79,DQ,Corey Hunter,San Antonio Cole,94.3,133.81,,,,Single-ply,SBD,M
Boys,109.77,1,Spencer Payne,Castroville Medina Valley,109.13,272.16,170.1,238.14,680.39,Single-ply,SBD,M
Boys,109.77,2,Cameron Coburn,Wimberley,107.27,226.8,145.15,206.38,578.33,Single-ply,SBD,M
Boys,109.77,3,Genero Hernandez,Comfort,105.87,208.65,127.01,208.65,544.31,Single-ply,SBD,M
Boys,109.77,4,Timothy Gomez,San Antonio Memorial,109.72,204.12,156.49,183.7,544.31,Single-ply,SBD,M
Boys,109.77,5,Erik Diaz,San Antonio Southside,105.82,192.78,127.01,188.24,508.02,Single-ply,SBD,M
Boys,109.77,6,Jose Aleman,San Antonio Southside,108.41,192.78,120.2,183.7,496.68,Single-ply,SBD,M
Boys,109.77,7,Manuel Belmarez,San Antonio Memorial,109.54,142.88,90.72,172.37,405.97,Single-ply,SBD,M
Boys,124.74,1,Dylan Hatfield,Geronimo Navarro,123.79,317.51,192.78,249.48,759.77,Single-ply,SBD,M
Boys,124.74,2,Nathan Palacio,San Antonio Memorial,110.27,258.55,140.61,240.4,639.57,Single-ply,SBD,M
Boys,124.74,3,Nathan Cavazos,San Antonio Holy Cross,114.58,276.69,124.74,226.8,628.23,Single-ply,SBD,M
Boys,124.74,4,Angel Banderas,San Antonio Memorial,109.95,217.72,122.47,226.8,566.99,Single-ply,SBD,M
Boys,124.74,5,Gabriel Heimer,San Antonio Brooks Academy,116.39,199.58,136.08,170.1,505.76,Single-ply,SBD,M
Boys,124.74,6,Marco DeLeon,Jourdanton,120.66,192.78,111.13,192.78,496.68,Single-ply,SBD,M
Boys,124.74,7,Ivan Garcia #1,San Antonio Memorial,115.76,183.7,102.06,172.37,458.13,Single-ply,SBD,M
Boys,124.74,8,Andrew Hernandez,Lytle,110.9,174.63,88.45,174.63,437.72,Single-ply,SBD,M
Boys,124.74,DQ,Andrew Romero,San Antonio Kennedy,124.51,278.96,183.7,,,Single-ply,SBD,M
Boys,124.74+,1,Sergio Hernandez,Geronimo Navarro,156.58,272.16,213.19,256.28,741.62,Single-ply,SBD,M
Boys,124.74+,2,Carter Holtkamp,Geronimo Navarro,135.03,235.87,176.9,210.92,623.69,Single-ply,SBD,M
Boys,124.74+,3,Jose Vasquez,San Antonio Memorial,125.46,258.55,133.81,188.24,580.6,Single-ply,SBD,M
Boys,124.74+,4,Roy Cantu,San Antonio Memorial,132.36,226.8,127.01,197.31,551.11,Single-ply,SBD,M
Boys,124.74+,5,Marcos Coronado,San Antonio Holy Cross,174.91,188.24,102.06,208.65,498.95,Single-ply,SBD,M
Boys,124.74+,6,David Casias,San Antonio Brooks Academy,158.08,163.29,74.84,174.63,412.77,Single-ply,SBD,M
Boys,124.74+,DQ,Carson Minnix,Wimberley,127.1,,,,,Single-ply,SBD,M
Boys,124.74+,DQ,Jesus Borroel,San Antonio Memorial,132.95,,,,,Single-ply,SBD,M
