Division,WeightClassKg,Place,Name,Team,BodyweightKg,Best3SquatKg,Best3BenchKg,Best3DeadliftKg,TotalKg,Equipment,Event,Sex
Boys,51.71,1,Richard Lowrie,Kemp,50.8,115.67,65.77,113.4,294.84,Single-ply,SBD,M
Boys,51.71,2,Osvaldo Palacias,Palestine,51.07,104.33,56.7,95.25,256.28,Single-ply,SBD,M
Boys,59.87,1,Jesus Perez,Kemp,55.97,124.74,90.72,133.81,349.27,Single-ply,SBD,M
Boys,55.79,2,Brodie Cantu,Dawson,53.07,124.74,77.11,129.27,331.12,Single-ply,SBD,M
Boys,59.87,3,Jonathan Hernandez,Malakoff,55.97,127.01,65.77,136.08,328.85,Single-ply,SBD,M
Boys,55.79,4,Omar Hernandez #3,Athens,54.16,113.4,68.04,136.08,317.51,Single-ply,SBD,M
Boys,55.79,5,Chase Kirby,Dawson,55.79,111.13,68.04,136.08,315.25,Single-ply,SBD,M
Boys,55.79,6,Chris Saria,Buffalo,55.07,102.06,58.97,122.47,283.5,Single-ply,SBD,M
Boys,55.79,7,Marcos Dominguez,Buffalo,52.98,115.67,61.23,102.06,278.96,Single-ply,SBD,M
Boys,55.79,8,Bobby Jackson,Jacksonville,55.07,106.59,56.7,113.4,276.69,Single-ply,SBD,M
Boys,55.79,9,Haydin Larkin,Eustace,54.7,106.59,56.7,111.13,274.42,Single-ply,SBD,M
Boys,55.79,10,James Landry,Frankston,54.52,102.06,56.7,113.4,272.16,Single-ply,SBD,M
Boys,59.87,1,Jose Rodriguez #2,Athens,58.06,188.24,127.01,165.56,480.81,Single-ply,SBD,M
Boys,59.87,2,Jimmy Kimbrell,Kemp,59.51,142.88,77.11,158.76,378.75,Single-ply,SBD,M
Boys,59.87,3,David McAlpine,Buffalo,59.42,136.08,70.31,140.61,347,Single-ply,SBD,M
Boys,59.87,4,Brice Ivey,Malakoff,57.7,136.08,61.23,131.54,328.85,Single-ply,SBD,M
Boys,59.87,5,Robert Thompson,Palestine,58.88,115.67,79.38,129.27,324.32,Single-ply,SBD,M
Boys,67.13,6,Dillon Beshears,Buffalo,60.06,129.27,68.04,117.93,315.25,Single-ply,SBD,M
Boys,59.87,7,Joseph Stegall,Malakoff,59.65,120.2,54.43,117.93,292.57,Single-ply,SBD,M
Boys,59.87,8,Jacoby Fortson,Groesbeck,58.06,104.33,72.57,108.86,285.76,Single-ply,SBD,M
Boys,59.87,9,Cody McQueen,Fairfield,57.15,97.52,52.16,113.4,263.08,Single-ply,SBD,M
Boys,59.87,10,Brayden Bauer,Jacksonville,57.88,95.25,61.23,97.52,254.01,Single-ply,SBD,M
Boys,67.13,1,Kacie Crossland,Kemp,66.68,183.7,97.52,197.31,478.54,Single-ply,SBD,M
Boys,67.13,2,Daniel Camarillo,Blooming Grove,66.59,154.22,106.59,183.7,444.52,Single-ply,SBD,M
Boys,74.84,3,Brant Hamilton,Malakoff,67.22,167.83,86.18,183.7,437.72,Single-ply,SBD,M
Boys,67.13,4,Calbert Hukill,Kemp,65.95,165.56,90.72,172.37,428.64,Single-ply,SBD,M
Boys,67.13,5,Zach Morrow #3,Palestine Westwood,63.5,165.56,77.11,149.69,392.36,Single-ply,SBD,M
Boys,67.13,6,Clay Hinkle,Eustace,64.41,142.88,79.38,156.49,378.75,Single-ply,SBD,M
Boys,67.13,7,Shawn Caudle,Rice,61.69,127.01,86.18,158.76,371.95,Single-ply,SBD,M
Boys,67.13,8,Ulisis Ramirez,Fairfield,60.78,158.76,68.04,142.88,369.68,Single-ply,SBD,M
Boys,67.13,9,Noah Mireles,Fairfield,65.32,158.76,83.91,124.74,367.41,Single-ply,SBD,M
Boys,67.13,10,Wait Mahmoud,Athens,61.69,142.88,79.38,142.88,365.14,Single-ply,SBD,M
Boys,67.13,11,Ulices Guerrero,Buffalo,63.05,136.08,79.38,136.08,351.53,Single-ply,SBD,M
Boys,67.13,12,David Dilbeck,Blooming Grove,64.5,108.86,86.18,145.15,340.19,Single-ply,SBD,M
Boys,67.13,13,Nick Snodgrass,Blooming Grove,65.77,115.67,70.31,154.22,340.19,Single-ply,SBD,M
Boys,67.13,14,Elder Arellano,Rice,60.6,111.13,70.31,138.35,319.78,Single-ply,SBD,M
Boys,67.13,15,Hunter Norris,Eustace,63.87,111.13,65.77,140.61,317.51,Single-ply,SBD,M
Boys,67.13,16,Noah Marble,Frankston,66.68,104.33,70.31,129.27,303.91,Single-ply,SBD,M
Boys,67.13,17,Traetin Turrubiarte,Groesbeck,61.78,104.33,61.23,111.13,276.69,Single-ply,SBD,M
Boys,67.13,18,Kolton Flood,Jacksonville,61.6,95.25,52.16,99.79,247.21,Single-ply,SBD,M
Boys,67.13,DQ,Jalen Burns,Palestine Westwood,64.68,183.7,,,,Single-ply,SBD,M
Boys,67.13,DQ,Will Ferlet,Dawson,65.77,117.93,,,,Single-ply,SBD,M
Boys,67.13,DQ,Jj Hughes,Eustace,65.05,124.74,,,,Single-ply,SBD,M
Boys,74.84,1,Chris Box,Elkhart,71.76,231.33,136.08,199.58,566.99,Single-ply,SBD,M
Boys,74.84,2,Rowdy Upchurch,Elkhart,72.94,199.58,127.01,199.58,526.17,Single-ply,SBD,M
Boys,74.84,3,Alan Quezada,Kemp,74.75,204.12,117.93,183.7,505.76,Single-ply,SBD,M
Boys,74.84,4,Justin Griffin,Eustace,70.76,206.38,111.13,176.9,494.42,Single-ply,SBD,M
Boys,74.84,5,Quentin Parks,Eustace,73.94,195.04,106.59,188.24,489.88,Single-ply,SBD,M
Boys,74.84,6,Dylan Grim,Malakoff,73.26,174.63,122.47,179.17,476.27,Single-ply,SBD,M
Boys,74.84,7,Michael Jones #11,Elkhart,70.94,172.37,99.79,185.97,458.13,Single-ply,SBD,M
Boys,74.84,8,Poochie Weaver,Palestine,69.85,174.63,117.93,161.03,453.59,Single-ply,SBD,M
Boys,74.84,9,Dj Hicks,Palestine Westwood,68.22,165.56,92.99,181.44,439.98,Single-ply,SBD,M
Boys,74.84,10,Cameron Rogers,Eustace,73.12,179.17,88.45,170.1,437.72,Single-ply,SBD,M
Boys,74.84,11,Nate Bell,Elkhart,69.04,176.9,92.99,163.29,433.18,Single-ply,SBD,M
Boys,74.84,12,Cameron Varner,Buffalo,69.76,188.24,70.31,158.76,417.3,Single-ply,SBD,M
Boys,74.84,13,Sammy Cervantes,Buffalo,72.12,142.88,81.65,176.9,401.43,Single-ply,SBD,M
Boys,74.84,14,Jacob Moore,Athens,73.48,149.69,77.11,170.1,396.89,Single-ply,SBD,M
Boys,82.1,15,Tremel Preston,Frankston,75.02,127.01,88.45,170.1,385.55,Single-ply,SBD,M
Boys,74.84,16,William Wheat,Palestine,74.75,142.88,79.38,158.76,381.02,Single-ply,SBD,M
Boys,74.84,17,Emilio Meza,Jacksonville,73.39,133.81,92.99,133.81,360.61,Single-ply,SBD,M
Boys,74.84,18,Wade Horn,Malakoff,70.31,120.2,77.11,147.42,344.73,Single-ply,SBD,M
Boys,74.84,19,Josh Dollarhide,Frankston,71.4,127.01,74.84,142.88,344.73,Single-ply,SBD,M
Boys,82.1,1,Tavion Hall,Kerens,81.56,254.01,147.42,251.74,653.17,Single-ply,SBD,M
Boys,82.1,2,Zack Gray,Elkhart,81.19,231.33,129.27,231.33,591.94,Single-ply,SBD,M
Boys,82.1,3,Garrett Flanagan,Elkhart,80.1,226.8,131.54,231.33,589.67,Single-ply,SBD,M
Boys,82.1,4,Orlando Gonzales,Palestine Westwood,81.01,199.58,111.13,185.97,496.68,Single-ply,SBD,M
Boys,82.1,5,Chris Jump,Malakoff,79.56,181.44,122.47,188.24,492.15,Single-ply,SBD,M
Boys,82.1,6,Sergio Rodriguez #3,Fairfield,77.02,158.76,92.99,174.63,426.38,Single-ply,SBD,M
Boys,82.1,7,Brandon Brazier,Rice,81.92,154.22,113.4,151.95,419.57,Single-ply,SBD,M
Boys,82.1,8,Brandon Branton,Jacksonville,76.02,147.42,74.84,151.95,374.21,Single-ply,SBD,M
Boys,82.1,9,Larry Coker,Malakoff,78.56,140.61,83.91,149.69,374.21,Single-ply,SBD,M
Boys,82.1,10,Tyler Garrett,Kemp,81.19,127.01,95.25,140.61,362.87,Single-ply,SBD,M
Boys,82.1,11,Kareem Caro,Fairfield,76.2,138.35,86.18,124.74,349.27,Single-ply,SBD,M
Boys,82.1,12,Dusty Roberts,Groesbeck,78.93,131.54,70.31,142.88,344.73,Single-ply,SBD,M
Boys,82.1,13,AJ Harris,Rice,80.29,117.93,68.04,151.95,337.93,Single-ply,SBD,M
Boys,82.1,DQ,Juan Garcia,Eustace,82.01,170.1,88.45,,,Single-ply,SBD,M
Boys,89.81,1,Andre Agan,Elkhart,88.9,215.46,149.69,217.72,582.87,Single-ply,SBD,M
Boys,89.81,2,Maverick McDowell,Kemp,88.45,210.92,115.67,192.78,519.36,Single-ply,SBD,M
Boys,89.81,3,Gavin DeFore,Elkhart,89.36,167.83,124.74,190.51,483.08,Single-ply,SBD,M
Boys,89.81,4,Keenan Hargest,Eustace,84.37,179.17,102.06,188.24,469.47,Single-ply,SBD,M
Boys,89.81,5,Ceasar Mecales,Jacksonville,88.18,174.63,99.79,188.24,462.66,Single-ply,SBD,M
Boys,89.81,6,Myles McGruder,Groesbeck,83.01,181.44,83.91,190.51,455.86,Single-ply,SBD,M
Boys,89.81,7,Mike Roch,Eustace,83.91,145.15,106.59,183.7,435.45,Single-ply,SBD,M
Boys,89.81,8,Armando Vinaja,Palestine Westwood,87.91,165.56,111.13,147.42,424.11,Single-ply,SBD,M
Boys,89.81,9,Shemar Willis,Athens,89.36,133.81,81.65,149.69,365.14,Single-ply,SBD,M
Boys,89.81,10,Spencer Grisham,Malakoff,85.41,142.88,74.84,142.88,360.61,Single-ply,SBD,M
Boys,89.81,11,Juan Quezada,Fairfield,82.55,117.93,90.72,120.2,328.85,Single-ply,SBD,M
Boys,89.81,DQ,Blake Nesmith,Dawson,88,,,,,Single-ply,SBD,M
Boys,89.81,DQ,Johnathen Pearson,Neches,88.99,,,,,Single-ply,SBD,M
Boys,89.81,DQ,Wally Shrout,Malakoff,83.46,179.17,113.4,,,Single-ply,SBD,M
Boys,99.79,1,Cole Beddingfield,Fairfield,98.07,251.74,151.95,206.38,610.08,Single-ply,SBD,M
Boys,99.79,2,Zachary Hughes,Eustace,97.34,201.85,158.76,233.6,594.21,Single-ply,SBD,M
Boys,99.79,3,Logan Fuller,Athens,93.89,235.87,147.42,208.65,591.94,Single-ply,SBD,M
Boys,99.79,4,David Delgado,Kemp,98.43,215.46,142.88,185.97,544.31,Single-ply,SBD,M
Boys,99.79,5,Noah Bush,Athens,95.25,204.12,131.54,204.12,539.77,Single-ply,SBD,M
Boys,99.79,6,Eli Crawford,Kerens,95.62,199.58,113.4,217.72,530.7,Single-ply,SBD,M
Boys,99.79,7,TJ Jones,Elkhart,97.25,208.65,99.79,199.58,508.02,Single-ply,SBD,M
Boys,99.79,8,Henry Hernandez #2,Jacksonville,97.16,190.51,111.13,195.04,496.68,Single-ply,SBD,M
Boys,99.79,9,Barrett Schnychy,Athens,90.72,183.7,127.01,174.63,485.34,Single-ply,SBD,M
Boys,99.79,10,Seth Folsom,Buffalo,99.25,185.97,104.33,181.44,471.74,Single-ply,SBD,M
Boys,99.79,11,Josh Wiggins,Blooming Grove,97.34,174.63,106.59,181.44,462.66,Single-ply,SBD,M
Boys,99.79,12,Grant Hirsch,Athens,94.8,165.56,124.74,163.29,453.59,Single-ply,SBD,M
Boys,99.79,13,Flavio Hernandez,Jacksonville,94.35,165.56,111.13,174.63,451.32,Single-ply,SBD,M
Boys,99.79,14,Josiah Jones,Athens,92.53,170.1,88.45,163.29,421.84,Single-ply,SBD,M
Boys,99.79,15,Spencer Lammons,Groesbeck,99.06,165.56,86.18,149.69,401.43,Single-ply,SBD,M
Boys,99.79,16,Xavier Cole,Blooming Grove,96.8,170.1,77.11,149.69,396.89,Single-ply,SBD,M
Boys,99.79,DQ,Payton Lowrie,Malakoff,97.2,188.24,124.74,,,Single-ply,SBD,M
Boys,109.77,1,Joey Maltos,Buffalo,109.59,247.21,124.74,213.19,585.13,Single-ply,SBD,M
Boys,109.77,2,Ty Swindle,Palestine,101.6,208.65,120.2,229.06,557.92,Single-ply,SBD,M
Boys,109.77,3,Nelson Ochoa,Malakoff,108.95,215.46,131.54,208.65,555.65,Single-ply,SBD,M
Boys,109.77,4,Will Dehart,Elkhart,103.78,217.72,124.74,192.78,535.24,Single-ply,SBD,M
Boys,109.77,5,Zach Sanders,Malakoff,104.55,215.46,106.59,208.65,530.7,Single-ply,SBD,M
Boys,109.77,6,Tre Siimpson,Fairfield,109.77,208.65,104.33,204.12,517.1,Single-ply,SBD,M
Boys,109.77,7,Josh Porter,Frankston,103.6,183.7,108.86,201.85,494.42,Single-ply,SBD,M
Boys,109.77,8,Elliot Lopez,Kemp,107.05,185.97,111.13,183.7,480.81,Single-ply,SBD,M
Boys,109.77,9,Emmitt Eckler,Jacksonville,104.87,165.56,129.27,174.63,469.47,Single-ply,SBD,M
Boys,109.77,10,Clint Guyton,Buffalo,105.05,176.9,108.86,176.9,462.66,Single-ply,SBD,M
Boys,109.77,11,Ricky Linton,Blooming Grove,106.23,181.44,108.86,163.29,453.59,Single-ply,SBD,M
Boys,109.77,12,Alfredo Miranda,Athens,101.15,170.1,97.52,158.76,426.38,Single-ply,SBD,M
Boys,109.77,13,Gabriel Gonzales,Palestine Westwood,104.96,172.37,79.38,165.56,417.3,Single-ply,SBD,M
Boys,109.77,14,Anthony Regino,Rice,109.59,142.88,97.52,161.03,401.43,Single-ply,SBD,M
Boys,109.77,15,Keevon Jackson,Palestine Westwood,109.77,156.49,79.38,129.27,365.14,Single-ply,SBD,M
Boys,124.74,1,Josh Tillis,Palestine,116.66,210.92,188.24,226.8,625.96,Single-ply,SBD,M
Boys,124.74,2,Luke Linebaugh,Kemp,118.21,238.14,133.81,238.14,610.08,Single-ply,SBD,M
Boys,124.74,3,Tyler Trussell,Athens,123.38,233.6,154.22,219.99,607.81,Single-ply,SBD,M
Boys,124.74,4,Chad Walker #2,Athens,116.57,226.8,158.76,208.65,594.21,Single-ply,SBD,M
Boys,124.74,5,Colton Robinett,Groesbeck,113.76,215.46,131.54,215.46,562.45,Single-ply,SBD,M
Boys,124.74,6,Justin Crowe,Jacksonville,112.13,197.31,102.06,213.19,512.56,Single-ply,SBD,M
Boys,124.74,7,Benito Rivas,Buffalo,114.58,179.17,129.27,188.24,496.68,Single-ply,SBD,M
Boys,124.74,8,Sergio Cabrera,Jacksonville,111.13,204.12,104.33,183.7,492.15,Single-ply,SBD,M
Boys,124.74,9,Jalyn Jackson,Fairfield,117.66,204.12,136.08,147.42,487.61,Single-ply,SBD,M
Boys,124.74,10,Marcus Staggs,Eustace,117.03,161.03,106.59,158.76,426.38,Single-ply,SBD,M
Boys,124.74+,1,Pat Cross,Palestine,129.27,294.84,161.03,256.28,712.14,Single-ply,SBD,M
Boys,124.74+,2,Zack McFarland,Elkhart,133.9,272.16,161.03,208.65,641.83,Single-ply,SBD,M
Boys,124.74+,3,Josh West,Athens,138.35,249.48,131.54,215.46,596.47,Single-ply,SBD,M
Boys,124.74+,4,Michael Williams,Dawson,165.56,254.01,129.27,204.12,587.4,Single-ply,SBD,M
Boys,124.74+,5,Brandon Brumbelow,Kerens,129.09,231.33,140.61,204.12,576.06,Single-ply,SBD,M
Boys,124.74+,6,Colton Barker,Malakoff,126.19,213.19,129.27,226.8,569.26,Single-ply,SBD,M
Boys,124.74+,7,Hunter Haynes,Fairfield,130.18,251.74,113.4,204.12,569.26,Single-ply,SBD,M
Boys,124.74+,8,Chris Thompson,Frankston,129.73,219.99,129.27,217.72,566.99,Single-ply,SBD,M
Boys,124.74+,9,Jesus Garcia-Castillo,Palestine,136.62,163.29,97.52,188.24,449.06,Single-ply,SBD,M
Boys,124.74+,10,Cole Brumbelow,Kerens,141.07,165.56,92.99,172.37,430.91,Single-ply,SBD,M
