Place,Name,BirthYear,WeightClassKg,BodyweightKg,Country,Bench1Kg,Bench2Kg,Bench3Kg,Best3BenchKg,TotalKg,Event,Equipment,Sex,Division,BirthDate
1,Marina Kotelnikova,1991,47,46.92,Russia,82.5,87.5,-95,87.5,87.5,B,Raw,F,Open,
1,Liisa Peri,1995,57,56.78,Estonia,65,70,75,75,75,B,Raw,F,Open,
1,Liudmila Protchenko,1986,84,84,Russia,140,150,155.5,155.5,155.5,B,Raw,F,Open,
1,Amaliya Naam,1995,69,69,Russia,85,95,102.5,102.5,102.5,B,Raw,F,Open,
1,Mariya Ryabova,1993,76,72.1,Russia,107.5,112.5,-122.5,112.5,112.5,B,Raw,F,Open,
2,Daria Ławniczak,1995,76,74.5,Poland,95,100,-105,100,100,B,Raw,F,Open,
1,Valeria Mitina,2006,43,42.34,Russia,40,42.5,47.5,47.5,47.5,B,Raw,F,Sub-Juniors,
1,Ekaterina Salakhli,2004,47,45.92,Russia,47.5,50,55,55,55,B,Raw,F,Sub-Juniors,
1,Mariya Dolbilova,2003,52,48,Russia,57.5,62.5,-67.5,62.5,62.5,B,Raw,F,Sub-Juniors,
1,Anastasiia Golionko,2006,57,54.42,Russia,57.5,-65,65,65,65,B,Raw,F,Sub-Juniors,
1,Olga Toropitsina,2003,63,60.02,Russia,70,-75,77.5,77.5,77.5,B,Raw,F,Sub-Juniors,
1,Anastasiya Reprintseva,2002,47,47,Russia,62.5,65,70,70,70,B,Raw,F,Juniors,
1,Evgeniya Fedorova,1998,52,50.28,Russia,80,82.5,85,85,85,B,Raw,F,Juniors,
2,Zuzanna Kula,1999,52,49.88,Poland,77.5,80,82.5,82.5,82.5,B,Raw,F,Juniors,
1,Tatiana Belskaya,2002,63,57.42,Russia,62.5,67.5,70,70,70,B,Raw,F,Juniors,
1,Emmeth Törrönen,1998,84,81.4,Finland,112.5,117.5,120,120,120,B,Raw,F,Juniors,
2,Anna Vozmilova,2001,84,77.7,Russia,80,,,80,80,B,Raw,F,Juniors,
1,Olesya Lukina,1999,84+,118.1,Russia,75,80,85,85,85,B,Raw,F,Juniors,
1,Olesia Dolskaia,1979,63,62.75,Russia,80,82.5,87.5,87.5,87.5,B,Raw,F,Masters 1,
1,Tatiana Sidneva,1975,69,64.95,Russia,72.5,77.5,80,80,80,B,Raw,F,Masters 1,
1,Larisa Prokofeva,1967,57,56.32,Russia,50,55,-60,55,55,B,Raw,F,Masters 2,
1,Elena Lutsenko,1963,63,62.75,Russia,95,100.5,103,103,103,B,Raw,F,Masters 2,
1,Valentina Nelyubova,1966,69,67.15,Russia,95,100,-107.5,100,100,B,Raw,F,Masters 2,
2,Pusztai Beata,1967,69,67.4,Hungary,55,62.5,-67.5,62.5,62.5,B,Raw,F,Masters 2,
1,Vera Okhremchuk,1961,63,61.6,Russia,60,62.5,-65,62.5,62.5,B,Raw,F,Masters 3,
1,Konstantin Saukov,1996,66,65.35,Russia,190,202.5,-221.5,202.5,202.5,B,Raw,M,Open,
1,Dmitriy Luchkin,1986,74,73.15,Russia,182.5,190,197.5,197.5,197.5,B,Raw,M,Open,
2,Ara Hovanessyan,1992,74,73.9,Armenia,132.5,140,147.5,147.5,147.5,B,Raw,M,Open,
1,Semen Golovachuk,1991,83,82.5,Russia,185,192.5,202.5,202.5,202.5,B,Raw,M,Open,
2,Mariusz Marciniak,1980,83,82.9,Poland,170,177.5,-180,177.5,177.5,B,Raw,M,Open,
3,Karl Michael Valk,1994,83,76.75,Estonia,140,145,150,150,150,B,Raw,M,Open,
4,Furkan Çoban,1996,83,82.1,Turkey,130,-135,135,135,135,B,Raw,M,Open,
1,Davit Gabelaia,1989,93,91.85,Georgia,205,207.5,212.5,212.5,212.5,B,Raw,M,Open,
2,Yury Belkov,1987,93,92.25,Russia,200,207.5,212.5,212.5,212.5,B,Raw,M,Open,
3,Michael Jurgen Herrmann,1988,93,90.25,Denmark,185,195,-200,195,195,B,Raw,M,Open,
4,Firat Dunsen,1989,93,88.35,Turkey,130,140,145,145,145,B,Raw,M,Open,
1,Sergey Degtyaryov,1992,105,103.5,Russia,222.5,227.5,237.5,237.5,237.5,B,Raw,M,Open,
2,Denis Malchikov,1980,105,104.6,Russia,220,227.5,237.5,237.5,237.5,B,Raw,M,Open,
3,Joni Tajakka,1992,105,104.4,Finland,210,225,-230,225,225,B,Raw,M,Open,
1,Simo Sistonen,1983,120,119.45,Finland,230,237.5,240,240,240,B,Raw,M,Open,
2,Jakob Thrane Mainz,1993,120,119.85,Denmark,220,227.5,240,240,240,B,Raw,M,Open,
3,Konstantin Lesukov,1979,120,119,Russia,222.5,-227.5,-227.5,222.5,222.5,B,Raw,M,Open,
4,Mikayelyan Hovhannes,1984,120,120,Armenia,207.5,215,-225,215,215,B,Raw,M,Open,
5,Can Yeşilpinar,1983,120,111.7,Turkey,200,-215,-215,200,200,B,Raw,M,Open,
1,Andrei Caliani-Vainer,1989,120+,161.45,Romania,225,235,242.5,242.5,242.5,B,Raw,M,Open,
1,Kirill Konkov,2004,53,52.58,Russia,65,72.5,77.5,77.5,77.5,B,Raw,M,Sub-Juniors,
1,Jaba Sepiashvili,2003,59,57.4,Georgia,115,-125,-125,115,115,B,Raw,M,Sub-Juniors,
1,Krzysztof Perlik,2004,66,65.85,Poland,105,112.5,117.5,117.5,117.5,B,Raw,M,Sub-Juniors,
1,Kirill Dyakov,2004,74,72.45,Russia,125,130,135,135,135,B,Raw,M,Sub-Juniors,
2,Anton Belkin,2003,74,73.25,Russia,120,127.5,-132.5,127.5,127.5,B,Raw,M,Sub-Juniors,
1,Sukru Zorba,2003,83,80.55,Turkey,115,127.5,135,135,135,B,Raw,M,Sub-Juniors,
1,Aivis Plocins,2003,93,85.9,Latvia,190,195,200,200,200,B,Raw,M,Sub-Juniors,
2,Haktan Uğur Kara,2004,93,92.5,Turkey,145,152.5,-160,152.5,152.5,B,Raw,M,Sub-Juniors,
1,Hermanni Järvenpää,2003,105,104.2,Finland,160,170,-180,170,170,B,Raw,M,Sub-Juniors,
1,Ivan Bondarenko #4,2003,120,106,Russia,115,120,127.5,127.5,127.5,B,Raw,M,Sub-Juniors,
1,Artem Chekalov,2005,120+,158.25,Russia,180,190,-192.5,190,190,B,Raw,M,Sub-Juniors,
1,Ayaal Sivtsev,2002,53,52.22,Russia,95,100,105,105,105,B,Raw,M,Juniors,
1,Simoni Orbelashvili,2002,66,64.55,Georgia,-140,140,150,150,150,B,Raw,M,Juniors,
1,Denis Stolnikov,2002,74,71.9,Russia,155,162.5,170,170,170,B,Raw,M,Juniors,
1,Andrey Talko,2002,83,82.5,Russia,195,202.5,206,206,206,B,Raw,M,Juniors,
2,Sandor Tatar,1999,83,77.8,Hungary,130,140,150,150,150,B,Raw,M,Juniors,
DQ,Jemali Nandoshvili,1998,83,82.5,Georgia,-195,-200,-206,,,B,Raw,M,Juniors,
1,Bogdan Syunikov,1998,93,91.2,Russia,190,-205,-213,190,190,B,Raw,M,Juniors,
2,Nurullah Senol,2000,93,90.15,Turkey,155,167.5,-175,167.5,167.5,B,Raw,M,Juniors,
1,Zauri Rukhadze,1999,105,96.3,Georgia,100,,,100,100,B,Raw,M,Juniors,
1,Yuri Karoglanyan,1999,120,113.5,Armenia,180,185,-190,185,185,B,Raw,M,Juniors,
2,Niku Ketola,1998,120,118.25,Finland,170,182.5,-187.5,182.5,182.5,B,Raw,M,Juniors,
1,Rustam Sunnatov,2001,120+,146,Russia,170,180,192.5,192.5,192.5,B,Raw,M,Juniors,
1,Andrey Galayda,1972,93,92.35,Russia,180,190,-200,190,190,B,Raw,M,Masters 1,
1,Tarmo Pärna,1978,120+,126.95,Estonia,175,185,195,195,195,B,Raw,M,Masters 1,
1,Aleksei Neveikov,1966,83,82.8,Russia,160,170,175,175,175,B,Raw,M,Masters 2,
2,Oleg Migachev,1967,83,81.75,Russia,120,127.5,132.5,132.5,132.5,B,Raw,M,Masters 2,
1,Vladimir Grazhdankin,1969,93,87.3,Russia,95,105,110,110,110,B,Raw,M,Masters 2,
1,Alexander Moiseev,1954,59,58.22,Belarus,65,70,75,75,75,B,Raw,M,Masters 3,
1,Yuriy Emelyanov,1958,66,61.45,Russia,77.5,82.5,90,90,90,B,Raw,M,Masters 3,
1,Arthur Hirner,1957,83,82.6,Germany,120,125,-127.5,125,125,B,Raw,M,Masters 3,
1,Franz Nerb,1959,93,92.55,Germany,150,167.5,170,170,170,B,Raw,M,Masters 3,
1,Ivan Chevardin,1958,105,103.9,Russia,150,160,165,165,165,B,Raw,M,Masters 3,
1,Elguja Kvikvinia,1961,120+,126.5,Georgia,110,120,,120,120,B,Raw,M,Masters 3,
1,Innokentii Grigorev,1951,66,65.05,Russia,75,85,87.5,87.5,87.5,B,Raw,M,Masters 4,
1,Leonid Shvetsov,1947,105,103.75,Russia,120,130,137.5,137.5,137.5,B,Raw,M,Masters 4,
1,Karina Simonyants,1977,52,48.42,Russia,95,-102.5,-102.5,95,95,B,Single-ply,F,Open,
1,Anastasia Lorenz,1985,57,56.28,Russia,100,120,135,135,135,B,Single-ply,F,Open,
1,Daniela Kolesnik,1999,63,57.1,Russia,130,140,150,150,150,B,Single-ply,F,Open,
2,Liisa Peri,1995,63,58.88,Estonia,87.5,95,100,100,100,B,Single-ply,F,Open,
1,Ekaterina Baranova,1992,84,83.9,Russia,-172.5,172.5,180,180,180,B,Single-ply,F,Open,
2,Daria Ławniczak,1995,84,76.55,Poland,120,127.5,-132.5,127.5,127.5,B,Single-ply,F,Open,
1,Svetlana Yolokhova,1971,84+,143,Russia,170,-177.5,177.5,177.5,177.5,B,Single-ply,F,Open,
1,Maria Gulidova,1989,69,68.7,Russia,147.5,155,-160,155,155,B,Single-ply,F,Open,
2,Amaliya Naam,1995,69,69,Russia,105,120,-140,120,120,B,Single-ply,F,Open,
1,Annemia Pretzmann,1992,76,75.15,Denmark,137.5,142.5,152.5,152.5,152.5,B,Single-ply,F,Open,
2,Mariia Erokhina,1995,76,75.95,Russia,-142.5,142.5,152.5,152.5,152.5,B,Single-ply,F,Open,
1,Viktoriia Suvorina,2003,43,42.42,Russia,55,-60,-60,55,55,B,Single-ply,F,Sub-Juniors,
1,Alina Katkova,2005,47,45.76,Russia,65,72.5,77.5,77.5,77.5,B,Single-ply,F,Sub-Juniors,
1,Polina Dudareva,2003,52,51.28,Russia,70,77.5,85,85,85,B,Single-ply,F,Sub-Juniors,
1,Arina Demidova,2003,57,57,Russia,130,140,150,150,150,B,Single-ply,F,Sub-Juniors,
1,Olga Filatova,2003,63,62.4,Russia,100,105,110,110,110,B,Single-ply,F,Sub-Juniors,
2,Alina Krylova,2003,63,63,Russia,70,75,85,85,85,B,Single-ply,F,Sub-Juniors,
1,Apollinariia Golikova,2004,84,76.25,Russia,-80,80,-90,80,80,B,Single-ply,F,Sub-Juniors,
1,Karina Nikolaenko,2003,76,75.25,Russia,95,102.5,-107.5,102.5,102.5,B,Single-ply,F,Sub-Juniors,
1,Viktoria Golovenkova,1999,43,42.34,Russia,50,55,60,60,60,B,Single-ply,F,Juniors,
1,Zuzanna Kula,1999,52,50.84,Poland,112.5,115,117.5,117.5,117.5,B,Single-ply,F,Juniors,
2,Viktoriia Golubkova,1999,52,51.62,Russia,105,115,-120,115,115,B,Single-ply,F,Juniors,
1,Veronika Chashchukhina,2000,57,56.54,Russia,110,120,130,130,130,B,Single-ply,F,Juniors,
1,Iuliia Obolskaia,2000,63,61.5,Russia,110,117.5,-125,117.5,117.5,B,Single-ply,F,Juniors,
1,Anna Vozmilova,2001,84,77.35,Russia,117.5,127.5,142.5,142.5,142.5,B,Single-ply,F,Juniors,
2,Kristina Zykova,2002,84,76.85,Russia,100,110,-120,110,110,B,Single-ply,F,Juniors,
1,Alexandra Novokrestova,2002,84+,125.8,Russia,140,-155,155,155,155,B,Single-ply,F,Juniors,
1,Nadezhda Shuliaeva,1980,63,61.9,Russia,90,95,100,100,100,B,Single-ply,F,Masters 1,
1,Ellina Kudriavtceva,1975,84,80.1,Russia,105,110,115,115,115,B,Single-ply,F,Masters 1,
1,Oksana Ibragimova,1963,47,46.92,Russia,60,65,-72.5,65,65,B,Single-ply,F,Masters 2,
1,Elena Polichuk,1962,63,59.26,Russia,-75,75,-80,75,75,B,Single-ply,F,Masters 2,
1,Valentina Nelyubova,1966,69,67.85,Russia,115,122.5,130,130,130,B,Single-ply,F,Masters 2,
1,Georgiy Klimenko,1995,59,57.96,Russia,180,200,206.5,206.5,206.5,B,Single-ply,M,Open,
1,Stanislav Urusov,1991,66,65.55,Russia,225,235,250,250,250,B,Single-ply,M,Open,
2,Ruslan Balabanov,1996,66,65.85,Russia,215,227.5,-237.5,227.5,227.5,B,Single-ply,M,Open,
1,Valerii Vorotilin,1995,74,73.75,Russia,245,250,262.5,262.5,262.5,B,Single-ply,M,Open,
2,Martin Foriš,1997,74,72.95,Slovakia,220,232.5,242.5,242.5,242.5,B,Single-ply,M,Open,
1,Aleksey Nazarenko,1989,83,82,Russia,250,-265,-275,250,250,B,Single-ply,M,Open,
2,Karl Michael Valk,1994,83,77.9,Estonia,-210,210,222.5,222.5,222.5,B,Single-ply,M,Open,
DQ,Mads Friche,1983,83,82.6,Denmark,-265,-265,-267.5,,,B,Single-ply,M,Open,
1,Raman Abbasov,1993,93,91.9,Russia,275,280,-290,280,280,B,Single-ply,M,Open,
2,Rafał Zalewski,1983,93,92.2,Poland,-280,280,-287.5,280,280,B,Single-ply,M,Open,
1,Egor Savelev,1994,105,104.75,Russia,320,335,-346.5,335,335,B,Single-ply,M,Open,
2,Jeppe Frost Balsby,1986,105,104.55,Denmark,220,-250,250,250,250,B,Single-ply,M,Open,
1,Jakob Thrane Mainz,1993,120,119.3,Denmark,285,292.5,302.5,302.5,302.5,B,Single-ply,M,Open,
2,Peter Ovsonka,1982,120,118.9,Slovakia,290,295,300,300,300,B,Single-ply,M,Open,
1,Sergey Lomakin,1982,120+,140,Russia,325,345,355,355,355,B,Single-ply,M,Open,
2,Tarmo Pärna,1978,120+,127.85,Estonia,-292.5,-292.5,292.5,292.5,292.5,B,Single-ply,M,Open,
1,Aleksey Nosonov,2004,53,45.3,Russia,105,110,115,115,115,B,Single-ply,M,Sub-Juniors,
1,Yuriy Savinykh,2004,59,58.56,Russia,125,132.5,140,140,140,B,Single-ply,M,Sub-Juniors,
1,Savely Ozerov,2004,74,72.9,Russia,150,155,160,160,160,B,Single-ply,M,Sub-Juniors,
1,Ivan Maximov,2004,83,81.65,Russia,145,152.5,160,160,160,B,Single-ply,M,Sub-Juniors,
2,Artur Cheredov,2006,83,82.7,Russia,140,150,160,160,160,B,Single-ply,M,Sub-Juniors,
1,Nikita Petrov,2003,93,92.4,Russia,180,190,205,205,205,B,Single-ply,M,Sub-Juniors,
1,Hermanni Järvenpää,2003,105,104.05,Finland,220,227.5,-232.5,227.5,227.5,B,Single-ply,M,Sub-Juniors,
2,Nikita Kasymov,2004,105,104.9,Russia,177.5,192.5,202.5,202.5,202.5,B,Single-ply,M,Sub-Juniors,
3,Egor Gusev,2003,105,99.9,Russia,180,190,-202.5,190,190,B,Single-ply,M,Sub-Juniors,
1,Maxim Nigmatullin,2004,120,118.4,Russia,200,220,240,240,240,B,Single-ply,M,Sub-Juniors,
1,Kirill Emelyanov,1999,53,51.46,Russia,100,110,-115,110,110,B,Single-ply,M,Juniors,
1,Boris Komissarov,1998,59,58.88,Russia,170,177.5,185,185,185,B,Single-ply,M,Juniors,
1,Danila Volkov,2002,66,66,Russia,-200,-200,200,200,200,B,Single-ply,M,Juniors,
1,Alexander Grigoryev,1999,74,72.15,Russia,227.5,237.5,247.5,247.5,247.5,B,Single-ply,M,Juniors,
2,Denis Olefir,1999,74,73.95,Russia,-230,230,245,245,245,B,Single-ply,M,Juniors,
1,Sandor Tatar,1999,83,78.4,Hungary,130,190,-200,190,190,B,Single-ply,M,Juniors,
1,Kirill Klimin,1999,93,84.8,Russia,230,240,250,250,250,B,Single-ply,M,Juniors,
1,Nariman Azizov,1999,105,101.1,Russia,210,220,240,240,240,B,Single-ply,M,Juniors,
1,Nikita Morozov,2002,120,112,Russia,215,230,-237.5,230,230,B,Single-ply,M,Juniors,
1,Ruslan Dorogin,1998,120+,155.45,Russia,270,280,300,300,300,B,Single-ply,M,Juniors,
1,Vitalii Efremov,1974,74,72.7,Russia,195,200,205,205,205,B,Single-ply,M,Masters 1,
2,Evgeniy Nosach,1976,74,74,Russia,190,197.5,205,205,205,B,Single-ply,M,Masters 1,
1,Vasiliy Bobylkov,1979,93,88.9,Russia,260,275,285,285,285,B,Single-ply,M,Masters 1,
2,Aleksei Plastun,1975,93,92.4,Russia,265,272.5,-277.5,272.5,272.5,B,Single-ply,M,Masters 1,
1,Igor Kalashnikov,1977,105,104.25,Russia,235,-265,-265,235,235,B,Single-ply,M,Masters 1,
1,Eryk Walczak,1977,120,105.5,Poland,230,240,250,250,250,B,Single-ply,M,Masters 1,
1,Sergey Selezen,1980,120+,130.35,Russia,270,300,-320,300,300,B,Single-ply,M,Masters 1,
1,Aleksei Neveikov,1966,83,82.55,Russia,210,225,232.5,232.5,232.5,B,Single-ply,M,Masters 2,
1,Viktor Eremenko,1970,93,91.6,Russia,150,160,-165,160,160,B,Single-ply,M,Masters 2,
1,Igor Konovnitsyn,1971,105,103.75,Russia,120,,,120,120,B,Single-ply,M,Masters 2,
1,Oleg Chursin,1964,120,111.05,Russia,-180,180,212.5,212.5,212.5,B,Single-ply,M,Masters 2,
1,Yury Emelianov,1958,66,63.2,Russia,95,105,110,110,110,B,Single-ply,M,Masters 3,
DQ,Arthur Hirner,1957,83,82.75,Germany,-170,-170,-170,,,B,Single-ply,M,Masters 3,
1,Vladimir Smagin,1961,120,107.35,Russia,165,175,185,185,185,B,Single-ply,M,Masters 3,
1,Leonid Shvetsov,1947,105,104.4,Russia,170,180,-195,180,180,B,Single-ply,M,Masters 4,
