Division,WeightClassKg,Place,Name,Team,BodyweightKg,Best3SquatKg,Best3BenchKg,Best3DeadliftKg,TotalKg,Equipment,Event,Sex
Boys,51.71,1,Billy Pearson,Pflugerville Connally,51.35,113.4,61.23,127.01,301.64,Single-ply,SBD,M
Boys,51.71,2,Oakley Bruder,Smithville,50.62,45.36,31.75,113.4,190.51,Single-ply,SBD,M
Boys,59.87,1,Isaiah Mesa,Taylor,55.88,145.15,106.59,142.88,394.63,Single-ply,SBD,M
Boys,55.79,2,Owen Mallard,Georgetown,54.7,124.74,70.31,142.88,337.93,Single-ply,SBD,M
Boys,55.79,3,Julian Rodriguez,Pflugerville Connally,55.02,90.72,61.23,142.88,294.84,Single-ply,SBD,M
Boys,59.87,4,Tancredi Banone,Georgetown,55.97,102.06,65.77,122.47,290.3,Single-ply,SBD,M
Boys,59.87,1,Dereon Kizzee,Pflugerville Connally,58.51,136.08,90.72,167.83,394.63,Single-ply,SBD,M
Boys,59.87,2,Fernando Maldonado,Smithville,59.06,145.15,88.45,151.95,385.55,Single-ply,SBD,M
Boys,59.87,3,Travis Gebert,Pflugerville,59.51,83.91,65.77,102.06,251.74,Single-ply,SBD,M
Boys,67.13,1,Lorenzo Sanchez,Taylor,63.05,185.97,111.13,210.92,508.02,Single-ply,SBD,M
Boys,67.13,2,Kenny Miller,Manor,66.59,174.63,115.67,199.58,489.88,Single-ply,SBD,M
Boys,67.13,3,Jordan Lawrence,Pflugerville Connally,66.77,158.76,106.59,188.24,453.59,Single-ply,SBD,M
Boys,67.13,DQ,Kayleb Pettinger,Taylor,65.41,117.93,117.93,,,Single-ply,SBD,M
Boys,74.84,1,Daniel Hernandez,Taylor,74.84,240.4,115.67,219.99,576.06,Single-ply,SBD,M
Boys,74.84,2,Chris Blaschke,Smithville,74.48,192.78,122.47,201.85,517.1,Single-ply,SBD,M
Boys,74.84,3,Omar Essix,Waco,73.12,199.58,90.72,215.46,505.76,Single-ply,SBD,M
Boys,74.84,4,David Coolidge,Manor,73.57,170.1,102.06,197.31,469.47,Single-ply,SBD,M
Boys,74.84,5,Akif Memon,Pflugerville Connally,73.48,167.83,95.25,165.56,428.64,Single-ply,SBD,M
Boys,74.84,6,Christian Lopez #5,Taylor,71.85,136.08,92.99,176.9,405.97,Single-ply,SBD,M
Boys,74.84,7,Michael Hernandez,Pflugerville,74.12,138.35,92.99,167.83,399.16,Single-ply,SBD,M
Boys,74.84,8,Marquivion Williams,Waco,69.04,133.81,92.99,142.88,369.68,Single-ply,SBD,M
Boys,74.84,DQ,Kevin Best,Manor,68.49,154.22,102.06,,,Single-ply,SBD,M
Boys,82.1,1,Everado Araujo,Taylor,81.19,258.55,151.95,240.4,650.91,Single-ply,SBD,M
Boys,82.1,2,Chukie Ojiyi,Pflugerville Hendrickson,78.93,240.4,124.74,213.19,578.33,Single-ply,SBD,M
Boys,82.1,3,Phillip Wilson,Pflugerville Connally,81.28,226.8,131.54,208.65,566.99,Single-ply,SBD,M
Boys,82.1,4,Ty Hill,Georgetown,79.2,206.38,115.67,222.26,544.31,Single-ply,SBD,M
Boys,82.1,5,Breon Kelley,Manor,81.47,183.7,106.59,244.94,535.24,Single-ply,SBD,M
Boys,89.81,6,Chase Heffernan,Georgetown,82.28,192.78,129.27,208.65,530.7,Single-ply,SBD,M
Boys,82.1,7,Adam Rau-Lopez,Pflugerville,76.38,142.88,88.45,111.13,342.46,Single-ply,SBD,M
Boys,82.1,DQ,Alejandro Rangel,Taylor,82.1,176.9,,,,Single-ply,SBD,M
Boys,89.81,1,Chris Hatch,Taylor,84.55,210.92,161.03,210.92,582.87,Single-ply,SBD,M
Boys,89.81,2,Adrian Williams,Pflugerville Connally,86.45,213.19,122.47,217.72,553.38,Single-ply,SBD,M
Boys,89.81,3,Isaac Villanueva,Taylor,86,195.04,102.06,199.58,496.68,Single-ply,SBD,M
Boys,89.81,4,RJ Petaia,Pflugerville,87.82,170.1,115.67,197.31,483.08,Single-ply,SBD,M
Boys,89.81,5,Will May,Georgetown,83.37,151.95,120.2,190.51,462.66,Single-ply,SBD,M
Boys,89.81,6,Nicholas Whitley,Taylor,88.99,156.49,95.25,167.83,419.57,Single-ply,SBD,M
Boys,89.81,DQ,Jairon Horn,Pflugerville,89.54,183.7,124.74,,,Single-ply,SBD,M
Boys,99.79,1,Carlos Chester,Manor,98.43,213.19,151.95,249.48,614.62,Single-ply,SBD,M
Boys,99.79,2,Carnealus Manning,Waco,97.25,235.87,115.67,192.78,544.31,Single-ply,SBD,M
Boys,99.79,3,James Rodriguez,Pflugerville,99.34,206.38,120.2,197.31,523.9,Single-ply,SBD,M
Boys,109.77,4,Jaime Calderon,Waco,99.88,210.92,95.25,181.44,487.61,Single-ply,SBD,M
Boys,99.79,5,Derick Juptner,Georgetown,97.34,183.7,124.74,170.1,478.54,Single-ply,SBD,M
Boys,99.79,6,Damion Cavazos,Georgetown,99.79,201.85,117.93,158.76,478.54,Single-ply,SBD,M
Boys,99.79,7,Jordan Jackson,Pflugerville Connally,98.97,165.56,102.06,188.24,455.86,Single-ply,SBD,M
Boys,99.79,8,Denver Coddington,Pflugerville,97.89,124.74,111.13,124.74,360.61,Single-ply,SBD,M
Boys,109.77,1,Paul Dominguez,Taylor,109.13,278.96,192.78,219.99,691.73,Single-ply,SBD,M
Boys,109.77,2,Eric Fowler,Manor,105.69,219.99,136.08,226.8,582.87,Single-ply,SBD,M
Boys,109.77,3,Tyrese Beasley,Waco,102.6,249.48,127.01,199.58,576.06,Single-ply,SBD,M
Boys,109.77,4,David Quinton,Pflugerville Hendrickson,102.6,206.38,127.01,229.06,562.45,Single-ply,SBD,M
Boys,109.77,5,Josh Tran,Pflugerville Connally,107.95,213.19,131.54,204.12,548.85,Single-ply,SBD,M
Boys,109.77,6,Nelson Mbanasor,Pflugerville Hendrickson,102.06,192.78,111.13,204.12,508.02,Single-ply,SBD,M
Boys,109.77,7,Matthew Mosley,Pflugerville Connally,108.95,179.17,133.81,181.44,494.42,Single-ply,SBD,M
Boys,109.77,8,Cole Northcutt,Georgetown,101.79,197.31,92.99,174.63,464.93,Single-ply,SBD,M
Boys,109.77,9,Keyshawn Dudley,Waco,106.05,181.44,92.99,181.44,455.86,Single-ply,SBD,M
Boys,109.77,10,Alec Garrett,Pflugerville,104.6,170.1,102.06,170.1,442.25,Single-ply,SBD,M
Boys,109.77,11,Curtivas Norman,Waco,108.05,165.56,104.33,151.95,421.84,Single-ply,SBD,M
Boys,109.77,12,Matthew Orange,Pflugerville,105.96,142.88,106.59,158.76,408.23,Single-ply,SBD,M
Boys,109.77,13,Hunter Creasey,Georgetown,100.97,27.22,113.4,217.72,358.34,Single-ply,SBD,M
Boys,124.74,1,Aaron Johnson #15,Georgetown,118.66,263.08,170.1,219.99,653.17,Single-ply,SBD,M
Boys,124.74,2,Cody Ullestead,Georgetown,117.3,231.33,142.88,204.12,578.33,Single-ply,SBD,M
Boys,124.74,3,Marcus White,Waco,120.56,226.8,131.54,208.65,566.99,Single-ply,SBD,M
Boys,124.74,4,Chase Hall,Pflugerville Connally,116.12,215.46,122.47,226.8,564.72,Single-ply,SBD,M
Boys,124.74,5,Kevondre Black,Waco,110.68,226.8,117.93,215.46,560.19,Single-ply,SBD,M
Boys,124.74,6,Jonathan Esqueda,Waco,122.83,238.14,111.13,181.44,530.7,Single-ply,SBD,M
Boys,124.74,7,Dominic Pastucci,Pflugerville Hendrickson,114.31,192.78,136.08,179.17,508.02,Single-ply,SBD,M
Boys,124.74,8,Jordan Barrs,Pflugerville,117.57,197.31,136.08,170.1,503.49,Single-ply,SBD,M
Boys,124.74+,1,Nakeveyon Vincent,Waco,142.52,272.16,136.08,215.46,623.69,Single-ply,SBD,M
Boys,124.74+,2,Kade Clapper,Georgetown,131.36,226.8,138.35,195.04,560.19,Single-ply,SBD,M
Boys,124.74+,3,Tristan Reyes,Manor,129.46,226.8,120.2,192.78,539.77,Single-ply,SBD,M
Boys,124.74+,4,Marquis Gardner,Manor,135.71,183.7,136.08,206.38,526.17,Single-ply,SBD,M
