Place,Name,BirthYear,WeightClassKg,BodyweightKg,Country,Squat1Kg,Squat2Kg,Squat3Kg,Best3SquatKg,Bench1Kg,Bench2Kg,Bench3Kg,Best3BenchKg,Deadlift1Kg,Deadlift2Kg,Deadlift3Kg,Best3DeadliftKg,TotalKg,Event,Equipment,Sex,Division,BirthDate
1,Evgeniy Mukhomedyanov,1981,59,58.7,Russia,190,202.5,212.5,212.5,120,125,-127.5,125,210,217.5,230,230,567.5,SBD,Raw,M,Open,
2,Aleksander Petrov,1990,59,58.55,Bulgaria,185,195,197.5,197.5,132.5,140,-142.5,140,205,215,-232.5,215,552.5,SBD,Raw,M,Open,
3,Antoine Garcia,1995,59,57.65,France,195,202.5,205,205,112.5,-117.5,-120,112.5,215,225,227.5,227.5,545,SBD,Raw,M,Open,
4,Dariusz Wszoła,1978,59,58.5,Poland,190,200,205,205,135,140,-145,140,190,200,-205,200,545,SBD,Raw,M,Open,
5,Julien Gutierrez,1996,59,58.55,France,-182.5,182.5,-187.5,182.5,105,-107.5,,105,217.5,227.5,232.5,232.5,520,SBD,Raw,M,Open,
1,Panagiotis Tarinidis,1994,66,65.85,France,242.5,250,-252.5,250,165,170,-172.5,170,270,277.5,280,280,700,SBD,Raw,M,Open,
2,Eddie Berglund,1995,66,65.45,Sweden,230,237.5,245,245,187.5,195,202.5,202.5,230,242.5,250,250,697.5,SBD,Raw,M,Open,
3,Ilya Marichev,2001,66,65.75,Russia,235,245,250,250,-142.5,142.5,-147.5,142.5,265,287.5,-305.5,287.5,680,SBD,Raw,M,Open,
4,Oleksii Titov,1994,66,65.9,Ukraine,215,222.5,-227.5,222.5,142.5,-145,-145,142.5,250,260,-267.5,260,625,SBD,Raw,M,Open,
5,Joseph Diva,1992,66,65.35,UK,190,-200,200,200,137.5,145,-150,145,230,-245,-245,230,575,SBD,Raw,M,Open,
6,Hilmar Símonarson,1994,66,65.3,Iceland,175,-185,185,185,122.5,130,-132.5,130,210,215,-220,215,530,SBD,Raw,M,Open,
7,Gheorghe Moise,1995,66,65.35,Romania,180,190,192.5,192.5,135,142.5,147.5,147.5,125,,,125,465,SBD,Raw,M,Open,
1,Alexander Eriksson,1994,74,73.75,Sweden,240,250,-255,250,167.5,175,-177.5,175,280,290,300,300,725,SBD,Raw,M,Open,
2,Paul Rembauville,1997,74,73.65,France,250,-262.5,-268,250,145,150,-155,150,290,305,317.5,317.5,717.5,SBD,Raw,M,Open,
3,Joshua Wright #1,1986,74,73.5,Germany,232.5,235,240,240,170,175,177.5,177.5,277.5,290,297.5,297.5,715,SBD,Raw,M,Open,
4,Anatolii Goriachok,1979,74,73.2,Russia,227.5,237.5,242.5,242.5,140,-145,-145,140,282.5,295,302.5,302.5,685,SBD,Raw,M,Open,
5,Robin Petersson,1991,74,73.4,Sweden,240,250,255,255,150,155,-157.5,155,255,265,270,270,680,SBD,Raw,M,Open,
6,Elias De Buck,1996,74,73.8,Belgium,220,-227.5,230,230,165,170,172.5,172.5,250,265,270,270,672.5,SBD,Raw,M,Open,
7,Denis Fastelli,1994,74,72.4,Italy,260,-267,-267,260,135,137.5,-140,137.5,272.5,-282.5,-282.5,272.5,670,SBD,Raw,M,Open,
8,Matti Christensen,1995,74,73.9,Denmark,242.5,252.5,257.5,257.5,185,190,-192.5,190,215,222.5,-227.5,222.5,670,SBD,Raw,M,Open,
9,Remco Sanders,1991,74,73.9,Netherlands,210,220,225,225,145,152.5,157.5,157.5,260,275,282.5,282.5,665,SBD,Raw,M,Open,
10,Alexander Espin,1989,74,73.2,UK,205,217.5,227.5,227.5,135,-137.5,-137.5,135,280,292.5,-305,292.5,655,SBD,Raw,M,Open,
11,Piotr Jakimiuk,1987,74,73.35,Poland,227.5,-237.5,-237.5,227.5,152.5,-157.5,-157.5,152.5,257.5,-270,-270,257.5,637.5,SBD,Raw,M,Open,
12,Jose Manuel Villarubia Tordesillas,1995,74,73.7,Spain,215,225,-230,225,137.5,142.5,-145,142.5,245,250,255,255,622.5,SBD,Raw,M,Open,
13,Jesús Javier Quirante Pérez,1997,74,73.4,Spain,190,200,202.5,202.5,150,-155,-155,150,245,265,-277.5,265,617.5,SBD,Raw,M,Open,
1,Yanis Bouchou,1996,83,82.45,France,252.5,265,272.5,272.5,165,170,172.5,172.5,317.5,327.5,338,338,783,SBD,Raw,M,Open,
2,Emilio Cotti Cometti,1995,83,82.85,Italy,255,272.5,280,280,150,-160,162.5,162.5,310,330,337.5,337.5,780,SBD,Raw,M,Open,
3,Jurins Kengamu,1988,83,82.15,UK,275,-290,290,290,160,167.5,170,170,300,317.5,-322.5,317.5,777.5,SBD,Raw,M,Open,
4,Konstantin Dunin,1996,83,81.85,Russia,260,267.5,-272.5,267.5,180,185,187.5,187.5,300,307.5,-317.5,307.5,762.5,SBD,Raw,M,Open,
5,Johannes Kristensen,1997,83,83,Norway,255,267.5,275,275,-167.5,167.5,175,175,292.5,307.5,-325,307.5,757.5,SBD,Raw,M,Open,
6,Jack Söderberg,1996,83,82.45,Sweden,257.5,267.5,272.5,272.5,182.5,187.5,190,190,275,290,-302.5,290,752.5,SBD,Raw,M,Open,
7,Pierre Renaud,1994,83,82.1,France,237.5,245,-252.5,245,152.5,-160,160,160,305,320,338.5,338.5,743.5,SBD,Raw,M,Open,
8,Kiril Valchanov,1986,83,81.75,Bulgaria,-250,270,-280,270,150,157.5,-160,157.5,270,290,-305,290,717.5,SBD,Raw,M,Open,
9,Urban Mur,1993,83,82.75,Slovenia,235,250,257.5,257.5,162.5,170,-172.5,170,247.5,260,267.5,267.5,695,SBD,Raw,M,Open,
10,Jaime Cortés Heredia,1996,83,82.9,Spain,220,-227.5,227.5,227.5,167.5,-172.5,,167.5,300,-312.5,-312.5,300,695,SBD,Raw,M,Open,
11,Stefano Montano,1995,83,80.6,Italy,250,-260,260,260,165,172.5,-177.5,172.5,260,-275,,260,692.5,SBD,Raw,M,Open,
12,Petri Heikkinen,1993,83,82.55,Finland,220,230,240,240,130,140,-145,140,290,-300,-300,290,670,SBD,Raw,M,Open,
13,Theodor Dima,1996,83,82.5,Romania,252.5,265,-270,265,135,142.5,150,150,220,245,,245,660,SBD,Raw,M,Open,
14,Teemu Hällfors,1995,83,82.9,Finland,-240,-240,240,240,182.5,-187.5,-187.5,182.5,215,230,-252.5,230,652.5,SBD,Raw,M,Open,
15,Florian Lory,1992,83,82.2,Belgium,197.5,205,210,210,142.5,-150,-150,142.5,255,270,-275,270,622.5,SBD,Raw,M,Open,
1,Gustav Hedlund,1995,93,92.6,Sweden,290,305,315,315,195,205,-212.5,205,317.5,345,-355,345,865,SBD,Raw,M,Open,
2,William Pickering #1,1997,93,92.55,UK,265,280,287.5,287.5,172.5,180,182.5,182.5,310,327.5,335,335,805,SBD,Raw,M,Open,
3,Teodor Radev,1994,93,92.9,Bulgaria,265,272.5,277.5,277.5,190,197.5,-202.5,197.5,302.5,317.5,-325,317.5,792.5,SBD,Raw,M,Open,
4,Vladimir Karaman,1981,93,92.75,Russia,270,280,287.5,287.5,177.5,185,187.5,187.5,300,307.5,-317.5,307.5,782.5,SBD,Raw,M,Open,
5,Rubén Rodríguez Castro,1996,93,92.45,Spain,272.5,290,300,300,162.5,172.5,175,175,285,305,-322.5,305,780,SBD,Raw,M,Open,
6,Lorenzo Lupo,1993,93,92.05,Italy,265,277.5,285,285,175,182.5,185,185,275,290,-300,290,760,SBD,Raw,M,Open,
7,Cian Madden,1995,93,92.35,Ireland,265,277.5,285,285,162.5,170,175,175,270,290,300,300,760,SBD,Raw,M,Open,
8,Julius Pamppunen,1989,93,92.65,Finland,230,242.5,250,250,175,180,-185,180,305,320,-330,320,750,SBD,Raw,M,Open,
9,Rob Esselens,1994,93,92.35,Belgium,247.5,260,270,270,182.5,187.5,-190,187.5,265,280,285,285,742.5,SBD,Raw,M,Open,
10,Susa David,1990,93,93,Hungary,240,255,262.5,262.5,147.5,155,157.5,157.5,255,272.5,-282.5,272.5,692.5,SBD,Raw,M,Open,
1,Emil Norling,1996,105,104.8,Sweden,335,342.5,-347.5,342.5,200,-205,-205,200,340,360,375,375,917.5,SBD,Raw,M,Open,
2,Anatolii Novopismennyi,1996,105,104.35,Ukraine,340,-360.5,-360.5,340,215,-225,225,225,-335,335,350,350,915,SBD,Raw,M,Open,
3,Tuomas Hautala,1992,105,104.4,Finland,270,285,-292.5,285,200,-205,,200,340,355,357.5,357.5,842.5,SBD,Raw,M,Open,
4,Abdul Majeed Sulayman,1997,105,103,UK,290,305,310,310,175,180,185,185,310,335,345,345,840,SBD,Raw,M,Open,
5,Víctor Vázquez Hernández-Carrillo,1995,105,104.8,Spain,295,-305,-305,295,-195,195,-200,195,325,337.5,-352.5,337.5,827.5,SBD,Raw,M,Open,
6,Viktor Samúelsson,1993,105,103.1,Iceland,270,280,290,290,180,187.5,-200,187.5,300,315,325,325,802.5,SBD,Raw,M,Open,
7,Uros Pihler,1996,105,104,Slovenia,245,257.5,267.5,267.5,142.5,147.5,152.5,152.5,295,312.5,327.5,327.5,747.5,SBD,Raw,M,Open,
8,Joel Immanuel Vikesland,1997,105,104,Norway,250,-260,,250,172.5,180,-190,180,290,315,,315,745,SBD,Raw,M,Open,
9,Scott Dean,1997,105,104.75,Ireland,260,275,-282.5,275,165,-170,,165,290,-315,-332.5,290,730,SBD,Raw,M,Open,
DQ,Artem Gonchar,1989,105,103.6,Ukraine,260,267.5,272.5,272.5,-185,-185,-185,,300,-310,310,310,,SBD,Raw,M,Open,
DQ,Jonas Gerdeman,1994,105,101.35,Sweden,270,280,290,290,190,197.5,200,200,-315,-315,-315,,,SBD,Raw,M,Open,
1,Kieran Gray,1996,120,119.95,UK,310,325,,325,210,220,225,225,330,342.5,-347.5,342.5,892.5,SBD,Raw,M,Open,
2,Mateusz Grzesik,1989,120,119.05,Poland,300,310,-322.5,310,207.5,215,220,220,335,350,-362.5,350,880,SBD,Raw,M,Open,
3,Daniil Ermolaev,1997,120,117.95,Russia,330,345,,345,195,-202.5,-202.5,195,310,320,327.5,327.5,867.5,SBD,Raw,M,Open,
4,Dmitro Pavlenko,1992,120,119.1,Ukraine,322.5,332.5,337.5,337.5,175,185,-190,185,325,335,-347.5,335,857.5,SBD,Raw,M,Open,
5,Antti Kriikkula,1991,120,118.95,Finland,315,330,-337.5,330,205,215,-220,215,295,310,-317.5,310,855,SBD,Raw,M,Open,
6,Carl Petter Sommerseth,1985,120,119.3,Norway,272.5,285,290,290,195,205,212.5,212.5,310,337.5,352.5,352.5,855,SBD,Raw,M,Open,
7,Maksim Beznosov,1991,120,119.35,Russia,315,-330,-330,315,190,195,-197.5,195,315,325,-345,325,835,SBD,Raw,M,Open,
8,Friedrich von Hennig,1992,120,116.6,Germany,-290,-290,300,300,172.5,-182.5,-182.5,172.5,315,335,350,350,822.5,SBD,Raw,M,Open,
9,Niko Nurmi,1995,120,119.3,Finland,310,-325,-325,310,170,180,-185,180,310,325,-335,325,815,SBD,Raw,M,Open,
10,Victor Mattsson,1990,120,118.8,Sweden,315,330,-337.5,330,140,150,155,155,290,302.5,-315,302.5,787.5,SBD,Raw,M,Open,
11,Jens Peter Smalbro,1994,120,119.65,Denmark,285,-305,-305,285,162.5,170,175,175,300,320,-340,320,780,SBD,Raw,M,Open,
12,Aron Friðrik Georgsson,1989,120,118.2,Iceland,280,292.5,300,300,180,-190,190,190,275,285,-300,285,775,SBD,Raw,M,Open,
13,Tadej Kovačič,1992,120,119.3,Slovenia,277.5,-295,295,295,155,160,-162.5,160,280,297.5,-305,297.5,752.5,SBD,Raw,M,Open,
14,Kostiantyn Yezyk,1991,120,118.7,Ukraine,225,235,-245,235,230,-243,-243,230,240,260,-280,260,725,SBD,Raw,M,Open,
15,Dušan Čenić,1997,120,118.15,Serbia,232.5,240,250,250,155,-162.5,-162.5,155,-270,270,-290,270,675,SBD,Raw,M,Open,
1,Dmytro Vovk,1996,120+,142.5,Ukraine,340,355,365,365,240,255,-265,255,310,330,340,340,960,SBD,Raw,M,Open,
2,Maksim Prokhorov,1989,120+,152.55,Russia,332.5,350,-357.5,350,212.5,222.5,-225,222.5,340,352.5,-360,352.5,925,SBD,Raw,M,Open,
3,Ajay Sharma,1997,120+,149.55,UK,330,352.5,370,370,200,215,-220,215,325,337.5,-345,337.5,922.5,SBD,Raw,M,Open,
4,Romuald Massé,1992,120+,150.2,France,330,340,,340,245,252.5,-257.5,252.5,285,300,305,305,897.5,SBD,Raw,M,Open,
5,Jari Saario,1985,120+,147,Finland,-340,340,-352.5,340,-190,190,-195,190,330,350,360,360,890,SBD,Raw,M,Open,
6,Janis Ansmits,1991,120+,152.7,Latvia,-305,310,-325,310,212.5,220,-227.5,220,315,327.5,342.5,342.5,872.5,SBD,Raw,M,Open,
7,Steve Ringoot,1989,120+,149.15,Belgium,325,-335,-335,325,225,227.5,-230,227.5,300,,,300,852.5,SBD,Raw,M,Open,
1,Mark Mikityk,2004,59,58.6,Russia,160,167.5,172.5,172.5,80,87.5,90,90,180,-190,192.5,192.5,455,SBD,Raw,M,Sub-Juniors,
2,Dmytro Butenko,2006,59,58.55,Ukraine,170,175,-180,175,90,95,-97.5,95,170,180,182.5,182.5,452.5,SBD,Raw,M,Sub-Juniors,
3,Paul Lefebvre,2003,59,58.95,France,130,137.5,145,145,85,90,92.5,92.5,180,192.5,195,195,432.5,SBD,Raw,M,Sub-Juniors,
1,Krzysztof Liszkiewicz,2003,66,63.85,Poland,185,-195,195,195,112.5,-117.5,-117.5,112.5,210,220,-230,220,527.5,SBD,Raw,M,Sub-Juniors,
2,Egor Mishchanenko,2004,66,64.4,Ukraine,160,170,175,175,120,125,127.5,127.5,190,202.5,207.5,207.5,510,SBD,Raw,M,Sub-Juniors,
3,Terence Jacobs,2004,66,65.3,Netherlands,160,167.5,175,175,95,100,-105,100,205,220,230,230,505,SBD,Raw,M,Sub-Juniors,
4,Cristian Verdugo Beltran,2005,66,64.8,Spain,172.5,-177.5,177.5,177.5,-107.5,107.5,110,110,207.5,215,-225,215,502.5,SBD,Raw,M,Sub-Juniors,
5,Nick Blockmans,2003,66,59.7,Belgium,170,-175,-175,170,115,120,125,125,195,202.5,-207.5,202.5,497.5,SBD,Raw,M,Sub-Juniors,
6,Ivan Grachev,2003,66,66,Russia,165,172.5,175,175,95,100,102.5,102.5,185,195,-200,195,472.5,SBD,Raw,M,Sub-Juniors,
7,Charley Bentley,2005,66,64.5,UK,155,165,-170,165,85,90,92.5,92.5,190,200,205,205,462.5,SBD,Raw,M,Sub-Juniors,
8,Kryštof Huta,2003,66,65.25,Czechia,170,180,-182.5,180,90,95,-100,95,180,-190,,180,455,SBD,Raw,M,Sub-Juniors,
9,Onni Hantikainen,2003,66,66,Finland,145,155,160,160,82.5,87.5,-92.5,87.5,175,187.5,200,200,447.5,SBD,Raw,M,Sub-Juniors,
1,Hugo Almström,2003,74,72.4,Sweden,210,223,230.5,230.5,-142.5,142.5,-145,142.5,232.5,240,-245,240,613,SBD,Raw,M,Sub-Juniors,
2,Elmeri Kujala,2003,74,73,Finland,195,205,-210,205,127.5,135,137.5,137.5,240,252.5,255,255,597.5,SBD,Raw,M,Sub-Juniors,
3,Gabriel Paloka,2003,74,73.6,Italy,202.5,212.5,217.5,217.5,127.5,135,137.5,137.5,225,242.5,-250,242.5,597.5,SBD,Raw,M,Sub-Juniors,
4,Jiří Patočka,2003,74,73.05,Czechia,190,202.5,207.5,207.5,110,117.5,120,120,225,237.5,245,245,572.5,SBD,Raw,M,Sub-Juniors,
5,Jakub Chmielecki,2003,74,73.5,Poland,-190,-190,190,190,125,130,-132.5,130,-235,235,-257.5,235,555,SBD,Raw,M,Sub-Juniors,
6,Anton Belkin,2003,74,73.45,Russia,190,200,205,205,120,127.5,-132.5,127.5,195,-205,205,205,537.5,SBD,Raw,M,Sub-Juniors,
7,Jacob Heise,2003,74,72.9,Denmark,162.5,172.5,177.5,177.5,112.5,120,-122.5,120,212.5,227.5,-237.5,227.5,525,SBD,Raw,M,Sub-Juniors,
8,Vinh Anh Le Minh,2003,74,73.3,Netherlands,175,182.5,190,190,117.5,122.5,-125,122.5,210,-215,,210,522.5,SBD,Raw,M,Sub-Juniors,
DQ,Marcos Souto Romero,2003,74,73.65,Spain,-200,-210,-210,,117.5,120,-122.5,120,215,235,247.5,247.5,,SBD,Raw,M,Sub-Juniors,
1,Mikuláš Sikora,2003,83,82.3,Czechia,200,215,-220,215,147.5,-155,155,155,230,270,287,287,657,SBD,Raw,M,Sub-Juniors,
2,Theo Goff,2003,83,82.85,UK,187.5,200,207.5,207.5,152.5,162.5,-167.5,162.5,240,255,257.5,257.5,627.5,SBD,Raw,M,Sub-Juniors,
3,Ostap Kosyk,2003,83,82.7,Ukraine,222.5,230,235,235,135,145,-150,145,225,235,245,245,625,SBD,Raw,M,Sub-Juniors,
4,Aaron Hoxellari,2003,83,82.8,UK,195,207.5,215,215,127.5,135,137.5,137.5,247.5,262.5,-275,262.5,615,SBD,Raw,M,Sub-Juniors,
5,Augusto Cuomo,2003,83,82.25,Italy,207.5,212.5,220,220,147.5,152.5,155,155,227.5,237.5,-242.5,237.5,612.5,SBD,Raw,M,Sub-Juniors,
6,David Lacina,2003,83,82.3,Czechia,-187.5,187.5,-200,187.5,135,-150,-150,135,242.5,-255,-262.5,242.5,565,SBD,Raw,M,Sub-Juniors,
7,Michael Ranaghan,2004,83,76.75,Ireland,190,197.5,-202.5,197.5,107.5,112.5,115,115,-230,235,245,245,557.5,SBD,Raw,M,Sub-Juniors,
8,Luca Ceccano,2003,83,82.1,Italy,197.5,-212.5,-212.5,197.5,132.5,135,-140,135,220,-230,-230,220,552.5,SBD,Raw,M,Sub-Juniors,
9,Lucas Saint-Huile,2003,83,82.05,Belgium,157.5,167.5,-172.5,167.5,117.5,122.5,-127.5,122.5,220,232.5,-237.5,232.5,522.5,SBD,Raw,M,Sub-Juniors,
10,Dara McCullagh,2003,83,82.2,Ireland,122.5,,,122.5,120,127.5,132.5,132.5,240,255,-262.5,255,510,SBD,Raw,M,Sub-Juniors,
1,Jack Hopkins,2003,93,90.9,UK,252.5,262.5,270,270,172.5,-180,-180,172.5,290,302.5,310,310,752.5,SBD,Raw,M,Sub-Juniors,
2,Malik Bernoussi Triolet,2004,93,92.8,France,265,-273.5,-274,265,185,190.5,193,193,275,287.5,292.5,292.5,750.5,SBD,Raw,M,Sub-Juniors,
3,Luca Umberto Angrisano,2003,93,89.95,Italy,235,250,262.5,262.5,-135,140,145,145,-275,-277.5,277.5,277.5,685,SBD,Raw,M,Sub-Juniors,
4,Jaime Santillana Izquierdo,2003,93,90.75,Spain,255,265,273.5,273.5,115,120,-125,120,270,287.5,-292.5,287.5,681,SBD,Raw,M,Sub-Juniors,
5,Matvei Kudashov,2003,93,92.55,Russia,235,245,255,255,137.5,145,150,150,242.5,250,255,255,660,SBD,Raw,M,Sub-Juniors,
6,Dominik Fischer,2003,93,92,Austria,190,205,215,215,-145,147.5,155,155,235,-255,255,255,625,SBD,Raw,M,Sub-Juniors,
7,Ondřej Smetaník,2003,93,90.9,Czechia,205,212.5,-217.5,212.5,145,152.5,-155,152.5,220,240,-247.5,240,605,SBD,Raw,M,Sub-Juniors,
8,Aaron Happonen,2003,93,88.5,Finland,-192.5,200,210,210,115,122.5,127.5,127.5,230,240,-250,240,577.5,SBD,Raw,M,Sub-Juniors,
1,Väinö Leppäkoski,2003,105,103.25,Finland,250,260,265,265,155,160,-162.5,160,270,290,-300,290,715,SBD,Raw,M,Sub-Juniors,
2,Sergio Carratalá Escudé,2003,105,103.5,Spain,247.5,257.5,262.5,262.5,150,157.5,-162.5,157.5,252.5,267.5,272.5,272.5,692.5,SBD,Raw,M,Sub-Juniors,
3,Ivan Parshin,2003,105,103.6,Russia,260,270,275,275,125,132.5,137.5,137.5,260,275,-282.5,275,687.5,SBD,Raw,M,Sub-Juniors,
4,Oscar Mendieta Ibanez,2003,105,100.05,Spain,235,250,-260,250,137.5,147.5,-150,147.5,265,282.5,-295,282.5,680,SBD,Raw,M,Sub-Juniors,
5,Fuzesi Marcell,2003,105,97.05,Hungary,220,230,-235,230,145,152.5,155,155,270,280,-295,280,665,SBD,Raw,M,Sub-Juniors,
6,Silvan Heijnen,2003,105,100.1,Netherlands,215,230,237.5,237.5,142.5,150,-157.5,150,245,257.5,-265,257.5,645,SBD,Raw,M,Sub-Juniors,
7,Olavi Heinonen,2003,105,104.55,Finland,245,-260,-260,245,150,-160,-160,150,240,,,240,635,SBD,Raw,M,Sub-Juniors,
1,Krystian Muczyński,2003,120,119.2,Poland,290,301,307.5,307.5,-155,155,-162.5,155,280,295,306,306,768.5,SBD,Raw,M,Sub-Juniors,
2,Hermanni Järvenpää,2003,120,106.55,Finland,180,200,210,210,160,-170,-170,160,220,240,252.5,252.5,622.5,SBD,Raw,M,Sub-Juniors,
3,Lukas Dimic,2003,120,110.75,Finland,200,-212.5,217.5,217.5,130,-135,-135,130,260,270,-272.5,270,617.5,SBD,Raw,M,Sub-Juniors,
4,Michał Szymczak,2004,120,105.5,Poland,195,210,215,215,125,135,-140,135,215,230,240,240,590,SBD,Raw,M,Sub-Juniors,
5,Alexey Bakhtin,2003,120,112.05,Russia,200,-205,,200,140,145,147.5,147.5,120,200,-245,200,547.5,SBD,Raw,M,Sub-Juniors,
1,Axel Isberg,2004,120+,132.6,Sweden,255,270,280,280,130,140,147.5,147.5,280,292.5,300.5,300.5,728,SBD,Raw,M,Sub-Juniors,
2,Mikael Salomäki,2003,120+,136.55,Finland,260,267.5,272.5,272.5,135,137.5,-140,137.5,275,285,295,295,705,SBD,Raw,M,Sub-Juniors,
3,Dmitriy Bolgov,2003,120+,142.4,Russia,230,240,-250,240,180,185,,185,250,262.5,-272.5,262.5,687.5,SBD,Raw,M,Sub-Juniors,
4,Szymon Kaniewski,2004,120+,128.5,Poland,210,225,-230,225,150,-160,-160,150,210,225,-235,225,600,SBD,Raw,M,Sub-Juniors,
1,Andrei Georgescu,2002,53,52.9,Romania,110,125,135,135,75,85,90,90,155,167.5,175,175,400,SBD,Raw,M,Juniors,
2,Matvei Popov,2002,53,52.55,Russia,130,135,140,140,87.5,92.5,-95,92.5,147.5,157.5,165,165,397.5,SBD,Raw,M,Juniors,
1,Davíd Quirante Pérez,2001,59,58.85,Spain,157.5,165,170,170,87.5,92.5,95,95,200,210,212.5,212.5,477.5,SBD,Raw,M,Juniors,
2,Iaroslav Elfimov,2002,59,58.8,Russia,160,167.5,170,170,115,120,-122.5,120,175,182.5,-185,182.5,472.5,SBD,Raw,M,Juniors,
3,Jansen Zhen Hao Law,1999,59,58.8,UK,-155,155,165,165,80,85,87.5,87.5,200,210,-222.5,210,462.5,SBD,Raw,M,Juniors,
4,Cristian Moise,2001,59,57.75,Romania,152.5,160,170,170,102.5,110,-112.5,110,170,180,-195,180,460,SBD,Raw,M,Juniors,
5,Hugo Granberg,1999,59,58.4,Sweden,162.5,170,175,175,97.5,-102.5,,97.5,175,182.5,-190,182.5,455,SBD,Raw,M,Juniors,
6,Kemal Ergin,2002,59,57.85,Netherlands,135,142.5,147.5,147.5,110,115,-120,115,170,-182.5,182.5,182.5,445,SBD,Raw,M,Juniors,
DQ,Alvaro Davila,1999,59,58.55,Spain,-165,-165,-165,,102.5,107.5,-112.5,107.5,215,220,225,225,,SBD,Raw,M,Juniors,
1,Ciarán Murray,1998,66,64.2,Ireland,200,210,217.5,217.5,117.5,122.5,127.5,127.5,220,232.5,242.5,242.5,587.5,SBD,Raw,M,Juniors,
2,Egor Khutorov,1999,66,66,Russia,210,217.5,220,220,152.5,155,157.5,157.5,202.5,207.5,210,210,587.5,SBD,Raw,M,Juniors,
3,Arthur Hauet,2001,66,65.5,France,190,197.5,200,200,140,145,147.5,147.5,220,230,-232.5,230,577.5,SBD,Raw,M,Juniors,
4,Alex Cremins,1999,66,65.45,Ireland,-182.5,-190,190,190,115,120,-122.5,120,240,252.5,263.5,263.5,573.5,SBD,Raw,M,Juniors,
5,Valentin Fruchard,1998,66,65.6,France,205,-215,-215,205,132.5,140,142.5,142.5,222.5,-230,-232.5,222.5,570,SBD,Raw,M,Juniors,
6,Connor Leadbeater,1998,66,65.8,UK,185,195,-202.5,195,135,140,145,145,187.5,197.5,205,205,545,SBD,Raw,M,Juniors,
7,Tenho Talvensaari,1999,66,65.7,Finland,-195,200,-210,200,115,122.5,-127.5,122.5,210,-222.5,-222.5,210,532.5,SBD,Raw,M,Juniors,
8,Stanislav Kiniakin,1999,66,65.3,Ukraine,175,-180,-182.5,175,-130,130,-140,130,200,-210,,200,505,SBD,Raw,M,Juniors,
DQ,Roman Saburov,2001,66,65.2,Russia,-190,-190,-190,,120,125,-127.5,125,-200,200,205,205,,SBD,Raw,M,Juniors,
1,Ade Omisakin,1998,74,73.75,UK,235,250,255,255,147.5,155,160,160,292.5,308,-323,308,723,SBD,Raw,M,Juniors,
2,Andréa Bonetto,2000,74,73.65,France,242.5,252.5,258,258,157.5,162.5,165,165,245,250,260,260,683,SBD,Raw,M,Juniors,
3,Arnold Veenhof,1998,74,73.75,Netherlands,227.5,237.5,245,245,140,147.5,152.5,152.5,235,250,257.5,257.5,655,SBD,Raw,M,Juniors,
4,Aleksey Sergeenko,1998,74,73.65,Russia,225,235,242.5,242.5,180,187.5,-190,187.5,215,-220,-220,215,645,SBD,Raw,M,Juniors,
5,Federico Benincasa,2001,74,73.5,Italy,215,227.5,240,240,122.5,-127.5,-127.5,122.5,280,-287.5,-292.5,280,642.5,SBD,Raw,M,Juniors,
6,Marcos Albaladejo,2001,74,73.15,Spain,227.5,-235,,227.5,-125,125,130,130,255,265,-272.5,265,622.5,SBD,Raw,M,Juniors,
7,Eetu Aalto,1998,74,73.35,Finland,207.5,-215,215,215,150,152.5,-155,152.5,255,-262.5,-265,255,622.5,SBD,Raw,M,Juniors,
8,Grégory Ostyn,2001,74,73.95,Belgium,170,180,-185,180,135,-140,-142.5,135,255,-265,-267.5,255,570,SBD,Raw,M,Juniors,
9,Rían McKeever,2000,74,72.55,Ireland,185,195,200,200,117.5,125,,125,227.5,240,-250,240,565,SBD,Raw,M,Juniors,
DQ,Yuriy Revuka,2000,74,73.5,Ukraine,217.5,227.5,235,235,-150,-150,-150,,215,,,215,,SBD,Raw,M,Juniors,
DQ,Lassi Immonen,1998,74,74,Finland,225,-235,-235,225,-125,-125,,,-220,225,-227.5,225,,SBD,Raw,M,Juniors,
1,Nathan Gevao,2000,83,82.6,UK,260,270,275,275,165,-170,170,170,297.5,310,317.5,317.5,762.5,SBD,Raw,M,Juniors,
2,James Adcock,1999,83,82,UK,262.5,270,-272.5,270,140,145,-150,145,300,312.5,320,320,735,SBD,Raw,M,Juniors,
3,Souleiman Turki,2000,83,80.5,France,245,255,262.5,262.5,157.5,162.5,167.5,167.5,270,285,-287.5,285,715,SBD,Raw,M,Juniors,
4,José López Llorente,1999,83,82.6,Spain,255,265,272.5,272.5,170,-175,-175,170,255,267.5,-275,267.5,710,SBD,Raw,M,Juniors,
5,Vadym Yarzhemskyi,1999,83,81.85,Ukraine,250,257.5,-262.5,257.5,182.5,187.5,-192.5,187.5,-255,255,-272.5,255,700,SBD,Raw,M,Juniors,
6,Melker Von der Geest,1998,83,81.7,Sweden,225,232.5,-237.5,232.5,150,157.5,162.5,162.5,-295,295,-312.5,295,690,SBD,Raw,M,Juniors,
7,Federico Bonserio,1999,83,82.6,Italy,-245,250,-267.5,250,155,162.5,-167.5,162.5,250,262.5,270,270,682.5,SBD,Raw,M,Juniors,
8,Simen Johnson Myrvold,2000,83,81.35,Norway,210,225,232.5,232.5,172.5,185,190,190,225,235,245,245,667.5,SBD,Raw,M,Juniors,
9,Jordan Konczak,1998,83,82.3,Ireland,215,225,232.5,232.5,150,155,160,160,245,260,-265,260,652.5,SBD,Raw,M,Juniors,
10,Sean Blong,1998,83,82.2,Ireland,215,232.5,240,240,145,152.5,157.5,157.5,230,242.5,252.5,252.5,650,SBD,Raw,M,Juniors,
11,Jakub Micał,1999,83,82.35,Poland,225,-235,-235,225,145,-150,-150,145,265,-277.5,-277.5,265,635,SBD,Raw,M,Juniors,
12,Robert Caloian,2002,83,80.25,Romania,200,210,-220,210,130,-140,-140,130,240,250,-255,250,590,SBD,Raw,M,Juniors,
13,Rik De Grauwe,2000,83,79.6,Belgium,190,200,202.5,202.5,140,147.5,-150,147.5,235,-250,-250,235,585,SBD,Raw,M,Juniors,
14,Quentin Dufour,1998,83,82.1,Belgium,187.5,200,-212.5,200,107.5,110,-115,110,230,245,255,255,565,SBD,Raw,M,Juniors,
DQ,Anthony Costarigot,1998,83,82.4,France,-242.5,-242.5,-242.5,,177.5,182.5,-185,182.5,277.5,287.5,-292.5,287.5,,SBD,Raw,M,Juniors,
DQ,Eetu Kumpulainen,1998,83,82.9,Finland,240,252.5,,252.5,155,160,-165,160,-270,-270,-270,,,SBD,Raw,M,Juniors,
1,Richmond Baiden,2001,93,91.25,France,275,285,295,295,177.5,182.5,187.5,187.5,295,302.5,325,325,807.5,SBD,Raw,M,Juniors,
2,Chris Onuoha,1998,93,91.4,UK,240,255,270,270,135,142.5,150,150,310,-330,340,340,760,SBD,Raw,M,Juniors,
3,Yulong Li,2000,93,90.3,Sweden,280,287.5,292.5,292.5,-175,-175,175,175,-290,290,-295,290,757.5,SBD,Raw,M,Juniors,
4,Paul Egger,1998,93,91.7,Austria,250,265,272.5,272.5,145,150,-152.5,150,305,317.5,-337.5,317.5,740,SBD,Raw,M,Juniors,
5,Guillaume Parisot,1999,93,92.6,France,-260,-260,260,260,172.5,-177.5,177.5,177.5,290,302.5,-307.5,302.5,740,SBD,Raw,M,Juniors,
6,Benjamin Rastum,1999,93,93,Norway,260,272.5,275,275,170,-177.5,-177.5,170,260,277.5,282.5,282.5,727.5,SBD,Raw,M,Juniors,
7,Mattias Svensson,1998,93,92.3,Sweden,257.5,267.5,-272.5,267.5,152.5,155,-157.5,155,302.5,-312.5,-312.5,302.5,725,SBD,Raw,M,Juniors,
8,Niko Lappi,2002,93,92.6,Finland,250,-270,270,270,150,-160,-160,150,300,-320,-322.5,300,720,SBD,Raw,M,Juniors,
9,David Asensio Aljama,1998,93,89.65,Spain,240,252.5,-255,252.5,157.5,162.5,165,165,272.5,287.5,-295,287.5,705,SBD,Raw,M,Juniors,
10,Andrew Blackwood,2001,93,92.3,Ireland,245,260,265,265,142.5,150,-155,150,290,-305,-315,290,705,SBD,Raw,M,Juniors,
11,Jonathan Celis,2000,93,91.15,Belgium,260,270,-272.5,270,160,167.5,170,170,260,-280,-280,260,700,SBD,Raw,M,Juniors,
12,John Wortel,2000,93,92.2,Netherlands,235,245,250,250,165,170,-175,170,280,-295,-295,280,700,SBD,Raw,M,Juniors,
13,Jacob Florelius,1998,93,93,Norway,215,227.5,-235,227.5,185,-192.5,-192.5,185,252.5,267.5,275,275,687.5,SBD,Raw,M,Juniors,
14,Jakub Daněk,2000,93,90.7,Czechia,240,255,265,265,150,155,-160,155,-265,265,-280,265,685,SBD,Raw,M,Juniors,
DQ,Riccardo Montanelli Eccher,2000,93,92.95,Italy,-242.5,-265,-265,,135,145,150,150,270,295,305,305,,SBD,Raw,M,Juniors,
1,Rene Caky,2000,105,103.15,Switzerland,290,310,317.5,317.5,220,230,233.5,233.5,320,340,-345,340,891,SBD,Raw,M,Juniors,
2,Oleksandr Hanhur,1999,105,104.25,Ukraine,295,302.5,-307.5,302.5,180,-185,-185,180,310,320,325,325,807.5,SBD,Raw,M,Juniors,
3,Eino Järvisalo,1998,105,104.35,Finland,280,-290,290,290,175,185,-190,185,300,320,-335,320,795,SBD,Raw,M,Juniors,
4,Antonio Pérez Barros,2001,105,104.4,Spain,290,307.5,317.5,317.5,147.5,157.5,-165,157.5,315,-325,-325,315,790,SBD,Raw,M,Juniors,
5,Jochen Strubbe,1998,105,103.8,Belgium,252.5,-267.5,267.5,267.5,170,-177.5,177.5,177.5,275,305,-315,305,750,SBD,Raw,M,Juniors,
6,Mats Høylo Kjøllesdal,2001,105,104.6,Norway,255,-267.5,267.5,267.5,170,177.5,-182.5,177.5,270,287.5,295,295,740,SBD,Raw,M,Juniors,
7,Einar Skaar Knut,2001,105,101.2,Norway,237.5,252.5,260,260,170,175,180,180,-285,295,-320,295,735,SBD,Raw,M,Juniors,
8,Simone Nascivera,1998,105,94,Italy,270,-280,-280,270,167.5,-175,-175,167.5,275,-282.5,282.5,282.5,720,SBD,Raw,M,Juniors,
9,Liam McManus,2000,105,103.1,Ireland,245,260,265,265,145,152.5,155,155,275,295,-310,295,715,SBD,Raw,M,Juniors,
10,Thibault Bacq,1998,105,99.2,Belgium,225,240,250,250,150,155,-157.5,155,260,275,-282.5,275,680,SBD,Raw,M,Juniors,
11,Mateusz Kumański,1998,105,103.4,Poland,230,240,245,245,145,150,155,155,240,250,260,260,660,SBD,Raw,M,Juniors,
12,Voitto Virtanen,1999,105,104.45,Finland,235,-250,-250,235,147.5,150,-152.5,150,252.5,-265,265,265,650,SBD,Raw,M,Juniors,
1,Nicolas Peyraud,1999,120,106.4,France,300,-312.5,312.5,312.5,200,205,207.5,207.5,310,330,-350,330,850,SBD,Raw,M,Juniors,
2,Szilárd Bereczki-Király,1999,120,109.9,Hungary,285,302.5,307.5,307.5,195,205,210,210,282.5,305,312.5,312.5,830,SBD,Raw,M,Juniors,
3,Ashley Butler #1,1998,120,118.85,UK,285,297.5,307.5,307.5,182.5,190,-195,190,300,312.5,327.5,327.5,825,SBD,Raw,M,Juniors,
4,Anton Wasser,2000,120,115.9,Sweden,310,320,-325,320,190,197.5,-200,197.5,280,290,-292.5,290,807.5,SBD,Raw,M,Juniors,
5,Bradley May,1999,120,118.95,UK,280,297.5,307.5,307.5,180,185,187.5,187.5,285,305,-317.5,305,800,SBD,Raw,M,Juniors,
6,Ludwig Bachner,1998,120,114.55,Austria,-270,275,297.5,297.5,170,175,180,180,305,-325,-325,305,782.5,SBD,Raw,M,Juniors,
7,Jakub Šigut,1999,120,118.55,Czechia,267.5,280,290,290,150,155,-160,155,305,325,332.5,332.5,777.5,SBD,Raw,M,Juniors,
8,Anders Broeten Lillemoe,1999,120,119.7,Norway,250,260,267.5,267.5,150,160,162.5,162.5,310,332.5,345,345,775,SBD,Raw,M,Juniors,
9,Alejandro Nunez Padal,2002,120,118.5,Spain,275,287.5,292.5,292.5,160,167.5,-170,167.5,280,300,310,310,770,SBD,Raw,M,Juniors,
10,Carlos Alberto Rodriguez,1998,120,118.85,Italy,260,280,292.5,292.5,162.5,172.5,-182.5,172.5,285,305,-330,305,770,SBD,Raw,M,Juniors,
11,Sebastian Stanek,1999,120,119,Poland,270,285,-295,285,165,175,180,180,285,305,-315,305,770,SBD,Raw,M,Juniors,
12,Mircea Moise,1999,120,118.35,Romania,-240,250,-265,250,167.5,175,-177.5,175,270,290,-305,290,715,SBD,Raw,M,Juniors,
13,Philippe Parage,2001,120,119.45,Luxembourg,270,-280,-280,270,147.5,152.5,-157.5,152.5,265,277.5,-282.5,277.5,700,SBD,Raw,M,Juniors,
14,Onni Ahola,2002,120,109,Finland,217.5,230,-240,230,117.5,-125,125,125,235,260,270,270,625,SBD,Raw,M,Juniors,
1,Temur Samkharadze,2001,120+,153.55,Georgia,340,-355,362.5,362.5,200,-215,217.5,217.5,360,-385.5,-385.5,360,940,SBD,Raw,M,Juniors,
2,Giacomo Bifaro,1998,120+,146.1,Italy,340,360,370,370,205,215,222.5,222.5,280,-300,300,300,892.5,SBD,Raw,M,Juniors,
3,Bogdan Prokopev,1998,120+,136.1,Russia,325,340,350,350,192.5,200,207.5,207.5,300,315,-335,315,872.5,SBD,Raw,M,Juniors,
4,Sean Koch,2000,120+,152.7,Switzerland,320,335,350,350,190,200,-210,200,-280,280,305,305,855,SBD,Raw,M,Juniors,
5,James McCarthy #1,1998,120+,155.85,Ireland,300,317.5,327.5,327.5,180,-190,190,190,300,320,335,335,852.5,SBD,Raw,M,Juniors,
6,Bana Milan,1998,120+,143.45,Hungary,280,300,315,315,200,212.5,-220,212.5,280,300,-310,300,827.5,SBD,Raw,M,Juniors,
7,Nuutti Mansukoski,2000,120+,154.4,Finland,282.5,302.5,-320,302.5,190,-200,,190,302.5,320,335,335,827.5,SBD,Raw,M,Juniors,
8,Artem Usov,2000,120+,139.45,Czechia,295,307.5,-312.5,307.5,185,-195,-195,185,270,282.5,292.5,292.5,785,SBD,Raw,M,Juniors,
9,Maciej Samborski,2001,120+,136.8,Poland,275,290,-295,290,175,185,-200,185,280,295,-300,295,770,SBD,Raw,M,Juniors,
10,Piotr Marzysz,2002,120+,122.15,Poland,280,-292.5,292.5,292.5,155,162.5,-170,162.5,260,270,,270,725,SBD,Raw,M,Juniors,
1,Janos Lehoczki,1988,83,79.3,Hungary,140,150,160,160,100,-110,-115,100,200,210,-225,210,470,SBD,Raw,M,Special Olympics,
1,Elemer Baranyi,1983,105,100.1,Hungary,-140,-145,145,145,130,140,145,145,170,180,185,185,475,SBD,Raw,M,Special Olympics,
2,Mattias Hedin,1979,105,100.2,Sweden,135,145,155,155,95,102.5,110,110,160,170,180,180,445,SBD,Raw,M,Special Olympics,
1,Fredrik Lundvall,1986,120,113.35,Sweden,160,172.5,180,180,105,115,-120,115,230,-240,,230,525,SBD,Raw,M,Special Olympics,
1,Zoltan Torok,1995,120,117.25,Hungary,-140,-140,145,145,105,110,-112.5,110,160,175,-200,175,430,SBD,Raw,M,Special Olympics,
1,Tiffany Chapon,2001,47,46.3,France,147.5,153,-154,153,82.5,87.5,-90,87.5,155,162.5,-167.5,162.5,403,SBD,Raw,F,Open,
2,Karin Angelini,1997,47,46.5,Italy,115,122.5,127.5,127.5,65,67.5,70,70,135,-145,145,145,342.5,SBD,Raw,F,Open,
3,Emma Granlund,1989,47,46.15,Sweden,105,110,-115,110,72.5,75,77.5,77.5,137.5,145,152.5,152.5,340,SBD,Raw,F,Open,
4,Lenka Pilnikova,1983,47,46.6,UK,105,112.5,117.5,117.5,70,75,77.5,77.5,135,142.5,145,145,340,SBD,Raw,F,Open,
5,Ana Lores Fernández,1996,47,46.9,Spain,117.5,127.5,132.5,132.5,57.5,-62.5,-62.5,57.5,130,142.5,-147.5,142.5,332.5,SBD,Raw,F,Open,
6,Anna Klishch,1989,47,46.35,Russia,97.5,-102.5,102.5,102.5,60,-62.5,62.5,62.5,125,135,137.5,137.5,302.5,SBD,Raw,F,Open,
1,Noémie Allabert,1990,52,51.15,France,150,-157.5,157.5,157.5,75,80,82.5,82.5,182.5,190,196,196,436,SBD,Raw,F,Open,
2,Shizuka Rico,1994,52,51.75,France,145,-155,-157.5,145,75,77.5,-80,77.5,180,190,196.5,196.5,419,SBD,Raw,F,Open,
3,Pleun Dekkers,1994,52,51.35,Netherlands,152.5,157.5,161,161,75,80,-82.5,80,155,165,-172.5,165,406,SBD,Raw,F,Open,
4,Dalida Mari,1987,52,50.3,Italy,135,142.5,147.5,147.5,80,-82.5,-82.5,80,137.5,150,157.5,157.5,385,SBD,Raw,F,Open,
5,Anna Hourihane,1993,52,52,Ireland,115,122.5,127.5,127.5,77.5,-80,,77.5,145,155,-165,155,360,SBD,Raw,F,Open,
6,Jessica Cabañil Chávez,1997,52,51.05,Spain,127.5,135,-140,135,-60,60,-65,60,127.5,135,-140,135,330,SBD,Raw,F,Open,
DQ,Tetyana Shchavinska,1996,52,51.9,Ukraine,120,125,-127.5,125,97.5,102.5,105,105,-145,-145,-145,,,SBD,Raw,F,Open,
1,Melissa Hexter,1994,57,56.45,UK,135,142.5,147.5,147.5,102.5,107.5,110,110,162.5,170,-172.5,170,427.5,SBD,Raw,F,Open,
2,Donna Berglund,1997,57,56.85,Sweden,137.5,145,147.5,147.5,110,117.5,121.5,121.5,147.5,155,-162.5,155,424,SBD,Raw,F,Open,
3,Mylène van der Spek,1993,57,56.2,Netherlands,142.5,150,-152.5,150,77.5,80,82.5,82.5,152.5,162.5,170,170,402.5,SBD,Raw,F,Open,
4,Jodie Cook #1,1988,57,56.7,UK,127.5,135,140,140,85,-90,-90,85,160,170,172.5,172.5,397.5,SBD,Raw,F,Open,
5,Agnès Alves,1996,57,56.35,France,135,-137.5,-137.5,135,90,92.5,-95,92.5,160,-165,-165,160,387.5,SBD,Raw,F,Open,
6,Katja Babič,1993,57,55.6,Slovenia,135,140,145,145,67.5,72.5,75,75,150,157.5,-165,157.5,377.5,SBD,Raw,F,Open,
7,Anastasiia Kozhushko,1996,57,56.55,Ukraine,130,135,137.5,137.5,75,77.5,-80,77.5,150,155,160,160,375,SBD,Raw,F,Open,
8,Kateřina Balášová,1993,57,56.05,Czechia,132.5,137.5,142.5,142.5,72.5,-75,-75,72.5,150,157.5,-162.5,157.5,372.5,SBD,Raw,F,Open,
9,Laura Rey Villameá,1993,57,56.1,Spain,115,122.5,125,125,72.5,-77.5,-77.5,72.5,160,170,175,175,372.5,SBD,Raw,F,Open,
10,Alessia Leugio,1990,57,56.6,Italy,132.5,-140,140,140,-82.5,82.5,-85,82.5,150,-165,-165,150,372.5,SBD,Raw,F,Open,
11,Sunita Raja,1989,57,56.2,Ireland,-127.5,-127.5,127.5,127.5,85,90,-95,90,150,-165,-172.5,150,367.5,SBD,Raw,F,Open,
12,Diana Neculae,1989,57,56.5,Romania,110,120,-127.5,120,65,-70,-70,65,152.5,160,-165,160,345,SBD,Raw,F,Open,
1,Iris Scholten,1992,63,62.5,Netherlands,-180,180,-187.5,180,107.5,112.5,115,115,180,187.5,-192.5,187.5,482.5,SBD,Raw,F,Open,
2,Pantea Supanetz,1990,63,62.6,Austria,165,172.5,-177.5,172.5,102.5,105,-107.5,105,180,190,195,195,472.5,SBD,Raw,F,Open,
3,Annie Nelson,1996,63,62.15,UK,160,170,175,175,80,85,90,90,190,-202.5,202.5,202.5,467.5,SBD,Raw,F,Open,
4,Stina Lindell,1988,63,62.3,Finland,157.5,165,167.5,167.5,95,100,-102.5,100,172.5,182.5,190,190,457.5,SBD,Raw,F,Open,
5,Nataliia Zhukovska,1981,63,62.8,Ukraine,137.5,142.5,147.5,147.5,87.5,92.5,95,95,190,197.5,-205,197.5,440,SBD,Raw,F,Open,
6,Elsa Sörman Paulsson,1983,63,62.45,Sweden,155,160,162.5,162.5,92.5,97.5,-102.5,97.5,177.5,-187.5,-187.5,177.5,437.5,SBD,Raw,F,Open,
7,Galina Abramova,1989,63,61.9,Russia,-145,-145,145,145,75,80,82.5,82.5,170,192.5,205,205,432.5,SBD,Raw,F,Open,
8,Emma Arusyak Badalyan,1993,63,62.25,Denmark,167.5,175,180,180,85,-90,-90,85,157.5,165,-170,165,430,SBD,Raw,F,Open,
9,Radostina Lulova,1993,63,62.4,Bulgaria,150,157.5,160,160,80,85,-87.5,85,175,-182.5,-182.5,175,420,SBD,Raw,F,Open,
10,Veronika Schulze,1997,63,62.8,Germany,147.5,152.5,160,160,92.5,-97.5,-97.5,92.5,155,160,165,165,417.5,SBD,Raw,F,Open,
11,Neus Blázquez Martín,1995,63,62.1,Spain,155,160,-165,160,85,87.5,-90,87.5,155,162.5,167.5,167.5,415,SBD,Raw,F,Open,
12,Sunniva Nordskog,1986,63,62.65,Norway,132.5,140,145,145,95,100,102.5,102.5,152.5,157.5,165,165,412.5,SBD,Raw,F,Open,
13,Gina Bakke Bolstad,1991,63,62.7,Norway,-157.5,-162.5,162.5,162.5,82.5,87.5,-90,87.5,155,162.5,-167.5,162.5,412.5,SBD,Raw,F,Open,
14,Yana Abolina,1996,63,60.55,Ukraine,137.5,145,150,150,90,-95,-95,90,170,-180,,170,410,SBD,Raw,F,Open,
15,Geina McGrath,1990,63,61.9,Ireland,-140,140,-150,140,80,85,-87.5,85,160,167.5,175,175,400,SBD,Raw,F,Open,
16,Lauris Auch,1997,63,61.95,Switzerland,132.5,140,-145,140,-80,80,82.5,82.5,147.5,155,-160,155,377.5,SBD,Raw,F,Open,
DQ,Sophia Granstad,1994,63,62.55,Sweden,-157.5,-157.5,-157.5,,60,-62.5,-62.5,60,185,200,-207.5,200,,SBD,Raw,F,Open,
1,Kristín Þórhallsdóttir,1984,84,83.45,Iceland,200,212.5,220,220,102.5,110,115,115,212.5,225,-230.5,225,560,SBD,Raw,F,Open,
2,Katja Jørgensen,1988,84,80.1,Denmark,160,170,175,175,90,100,105,105,195,207.5,222.5,222.5,502.5,SBD,Raw,F,Open,
3,Ellinor Svensson,1986,84,81.05,Sweden,175,185,192.5,192.5,90,95,97.5,97.5,197.5,207.5,212.5,212.5,502.5,SBD,Raw,F,Open,
4,Heidi Hille Arnesen,1970,84,83.25,Norway,162.5,167.5,-175,167.5,90,97.5,-100,97.5,187.5,197.5,-210,197.5,462.5,SBD,Raw,F,Open,
5,Krystyna Waterhouse,1995,84,83.65,Switzerland,160,167.5,172.5,172.5,102.5,-107.5,-107.5,102.5,165,180,-187.5,180,455,SBD,Raw,F,Open,
6,Sarah Kirk Kjeldsen,1997,84,78,Denmark,145,155,160,160,87.5,92.5,-95,92.5,165,177.5,-185,177.5,430,SBD,Raw,F,Open,
1,Amélie Mierger,1992,84+,144.45,France,227.5,232.5,-235,232.5,145.5,150.5,153,153,222.5,232.5,237.5,237.5,623,SBD,Raw,F,Open,
2,Emelie Leach,1993,84+,150.2,Sweden,-225,227.5,237.5,237.5,130,135,137.5,137.5,232.5,240,-250,240,615,SBD,Raw,F,Open,
3,Daria Efimtseva,2000,84+,149.2,Russia,220,240,-255,240,127.5,140,145,145,190,210,215,215,600,SBD,Raw,F,Open,
4,Anna-Lena Bellqvist,1987,84+,149.8,Sweden,-235,240,-247.5,240,112.5,120,122.5,122.5,210,222.5,-240,222.5,585,SBD,Raw,F,Open,
5,Camille Holland,1988,84+,136.2,UK,215,230,240,240,105,112.5,120,120,172.5,187.5,192.5,192.5,552.5,SBD,Raw,F,Open,
6,Sarah Gardiner,1997,84+,106.9,Ireland,-177.5,177.5,185,185,100,105,107.5,107.5,180,190,195,195,487.5,SBD,Raw,F,Open,
7,Jovana Radovanov,1991,84+,127.4,Serbia,-150,-150,150,150,70,-72.5,72.5,72.5,170,180,-190,180,402.5,SBD,Raw,F,Open,
1,Prescillia Bavoil,1993,69,65.15,France,-190,195.5,205.5,205.5,100,107.5,112.5,112.5,215,225,230,230,548,SBD,Raw,F,Open,
2,Ivana Horná,1990,69,67.4,Slovakia,167.5,175,180,180,100,105,-107.5,105,210,220,-225,220,505,SBD,Raw,F,Open,
3,Susanna Argile,1992,69,68.5,UK,165,177.5,185,185,95,100,105,105,182.5,192.5,-195,192.5,482.5,SBD,Raw,F,Open,
4,Raphaela Jungmann,1987,69,68.3,Austria,160,167.5,-175,167.5,92.5,97.5,102.5,102.5,180,187.5,192.5,192.5,462.5,SBD,Raw,F,Open,
5,Pauline Le Bras,1992,69,67.75,France,165,-172.5,175,175,82.5,87.5,-90,87.5,172.5,185,-192.5,185,447.5,SBD,Raw,F,Open,
6,Matilda Vilmar,1996,69,68.75,Sweden,157.5,167.5,175,175,97.5,102.5,105,105,157.5,167.5,-175,167.5,447.5,SBD,Raw,F,Open,
7,Sonia Gonçalves Da Silva,1996,69,67.5,Germany,152.5,160,165,165,-82.5,85,-90,85,177.5,187.5,192.5,192.5,442.5,SBD,Raw,F,Open,
8,Andrea Marx,1993,69,68.2,Switzerland,145,152.5,157.5,157.5,87.5,90,-92.5,90,175,185,190,190,437.5,SBD,Raw,F,Open,
1,Marte Kjenner,1989,76,70.5,Norway,180,190,195,195,110,115,-117.5,115,197.5,210,220,220,530,SBD,Raw,F,Open,
2,Sophia Ellis,1996,76,72.9,UK,145,155,160,160,105,107.5,110,110,210,220,230.5,230.5,500.5,SBD,Raw,F,Open,
3,Emily Greenway,1994,76,75.55,UK,177.5,185,190,190,87.5,90,92.5,92.5,185,195,200,200,482.5,SBD,Raw,F,Open,
4,Lea Schreiner,1995,76,74.6,Germany,165,170,175,175,87.5,92.5,-95,92.5,195,205,-212.5,205,472.5,SBD,Raw,F,Open,
5,Nino Tchrikishvili,1991,76,75.15,Georgia,150,157.5,162.5,162.5,75,82.5,87.5,87.5,210,217.5,-231,217.5,467.5,SBD,Raw,F,Open,
6,Tuulia Lohivuo,1997,76,75.75,Finland,160,170,175,175,102.5,107.5,-110,107.5,167.5,180,-185,180,462.5,SBD,Raw,F,Open,
7,Leena Saastamoinen,1991,76,75,Finland,165,-170,-170,165,-107.5,107.5,-110,107.5,187.5,-192.5,-192.5,187.5,460,SBD,Raw,F,Open,
8,Yuliya Pogodina,1997,76,75.65,Russia,160,-170,-170,160,105,-110,-110,105,185,192.5,-210,192.5,457.5,SBD,Raw,F,Open,
9,Danielle Huijser,1992,76,74.75,Netherlands,152.5,160,165,165,95,-97.5,-97.5,95,170,177.5,-185,177.5,437.5,SBD,Raw,F,Open,
10,Jacqueline Klaver,1996,76,75.4,Netherlands,162.5,172.5,180,180,72.5,77.5,-80,77.5,172.5,-182.5,-182.5,172.5,430,SBD,Raw,F,Open,
11,Rebekka Roemer Andersen,1996,76,74.8,Denmark,142.5,147.5,-152.5,147.5,-100,100,-102.5,100,170,-180,180,180,427.5,SBD,Raw,F,Open,
DQ,Yuliya Zaytseva,1987,76,75.7,Russia,155,-160,-160,155,-107.5,-107.5,-107.5,,-175,185,,185,,SBD,Raw,F,Open,
DQ,Birgit Rós Becker,1989,76,75.75,Iceland,172.5,177.5,-182.5,177.5,-92.5,-92.5,-92.5,,170,187.5,-200,187.5,,SBD,Raw,F,Open,
1,Ralina Galiullina,2003,43,42.3,Russia,60,67.5,-70,67.5,42.5,47.5,-50,47.5,95,100,107.5,107.5,222.5,SBD,Raw,F,Sub-Juniors,
2,Diana Anerkhanova,2003,43,42.5,Russia,70,75,77.5,77.5,37.5,40,-42.5,40,87.5,-92.5,92.5,92.5,210,SBD,Raw,F,Sub-Juniors,
1,Valeriia Mustafina,2004,47,47,Ukraine,72.5,77.5,82.5,82.5,-57.5,-57.5,57.5,57.5,127.5,135,140,140,280,SBD,Raw,F,Sub-Juniors,
2,Sofia Akopian,2003,47,46.7,Russia,72.5,77.5,82.5,82.5,45,-50,50,50,100,105,110,110,242.5,SBD,Raw,F,Sub-Juniors,
1,Polina Bagautdinova,2003,52,51.4,Russia,92.5,100,105,105,60,65,-67.5,65,120,127.5,135,135,305,SBD,Raw,F,Sub-Juniors,
2,Abi Houlihan,2005,52,50.95,Ireland,107.5,110,112.5,112.5,47.5,50,-52.5,50,127.5,135,-142.5,135,297.5,SBD,Raw,F,Sub-Juniors,
3,Coline Giraud,2003,52,51.6,France,-105,-105,105,105,52.5,-55,-55,52.5,122.5,132.5,137.5,137.5,295,SBD,Raw,F,Sub-Juniors,
4,Anastasia Belonogova,2003,52,51.35,Russia,-105,105,-107.5,105,52.5,-55,55,55,120,-130,-132.5,120,280,SBD,Raw,F,Sub-Juniors,
5,Lauren Recci,2003,52,51.55,UK,90,-100,-100,90,40,45,-47.5,45,130,137.5,-142.5,137.5,272.5,SBD,Raw,F,Sub-Juniors,
6,Eerika Palosaari,2005,52,51.9,Finland,80,85,90,90,57.5,60,-65,60,95,100,,100,250,SBD,Raw,F,Sub-Juniors,
1,Veronica Pavlenko,2003,57,56.5,Russia,140,147.5,152.5,152.5,80,85,-87.5,85,140,147.5,-152.5,147.5,385,SBD,Raw,F,Sub-Juniors,
2,Laoise Quinn,2003,57,55.7,Ireland,135,-142.5,-142.5,135,72.5,-75,-75,72.5,145,150,-158,150,357.5,SBD,Raw,F,Sub-Juniors,
3,Esmee Neeleman,2003,57,56.5,Netherlands,102.5,107.5,110,110,65,67.5,70,70,147.5,155,158.5,158.5,338.5,SBD,Raw,F,Sub-Juniors,
4,Barbora Švaňová,2003,57,56.6,Czechia,120,130,-135,130,55,60,62.5,62.5,130,-140,,130,322.5,SBD,Raw,F,Sub-Juniors,
5,Martyna Janaszek,2005,57,54.05,Poland,70,80,-87.5,80,47.5,55,-57.5,55,80,87.5,-92.5,87.5,222.5,SBD,Raw,F,Sub-Juniors,
1,Juuli Kostian,2006,63,61.05,Finland,130,140,-145,140,85,-90,-90,85,150,157.5,160,160,385,SBD,Raw,F,Sub-Juniors,
2,Astrid Edvardsson,2003,63,61.2,Sweden,127.5,135,-140,135,-80,80,-82.5,80,157.5,165,-172.5,165,380,SBD,Raw,F,Sub-Juniors,
3,Anita Kolesnyk,2003,63,61.45,Ukraine,135,142.5,150,150,62.5,67.5,-70,67.5,145,152.5,-165,152.5,370,SBD,Raw,F,Sub-Juniors,
4,Marina Siuzova,2004,63,61.65,Russia,140,150,-160,150,60,65,-67.5,65,135,145,-157.5,145,360,SBD,Raw,F,Sub-Juniors,
5,Mayya Filimonova,2004,63,60.55,Russia,140,-145,-147.5,140,65,70,72.5,72.5,125,135,-147.5,135,347.5,SBD,Raw,F,Sub-Juniors,
1,Cassandra Annergren,2003,84,81.4,Sweden,125,137.5,142.5,142.5,75,-82.5,82.5,82.5,185,200,-213,200,425,SBD,Raw,F,Sub-Juniors,
2,Marie Louise Kalmeyer,2004,84,76.55,Denmark,145,152.5,-157.5,152.5,70,75,-77.5,75,140,150,157.5,157.5,385,SBD,Raw,F,Sub-Juniors,
3,Darta Berzina,2003,84,79.65,Latvia,100,110,120,120,47.5,55,-60,55,110,120,-130,120,295,SBD,Raw,F,Sub-Juniors,
1,Yevheniia Yelovska,2003,84+,109.1,Ukraine,165,177.5,190,190,80,85,87.5,87.5,162.5,182.5,,182.5,460,SBD,Raw,F,Sub-Juniors,
2,Reda Laurinavičiūtė,2007,84+,84.65,Lithuania,125,-130,-130,125,62.5,65,67.5,67.5,135,147.5,155,155,347.5,SBD,Raw,F,Sub-Juniors,
3,Valerija Petrovaitė,2005,84+,102.35,Lithuania,140,-150,150,150,65,70,72.5,72.5,100,110,115,115,337.5,SBD,Raw,F,Sub-Juniors,
4,Natalia Selwiak,2005,84+,93.55,Poland,100,107.5,112.5,112.5,45,50,-55,50,120,130,-150,130,292.5,SBD,Raw,F,Sub-Juniors,
1,Eleonora Pontoni,2003,69,68.6,Italy,140,-150,150,150,92.5,95.5,-96.5,95.5,-140,145,152.5,152.5,398,SBD,Raw,F,Sub-Juniors,
2,Veronika Dyakova,2004,69,68.05,Russia,120,127.5,135,135,87.5,90,92.5,92.5,140,150,-172.5,150,377.5,SBD,Raw,F,Sub-Juniors,
3,Sara-Sofia Väliviita,2005,69,66,Finland,122.5,127.5,-135,127.5,72.5,-75,-75,72.5,125,130,135,135,335,SBD,Raw,F,Sub-Juniors,
4,Adéla Čtveráková,2004,69,67.35,Czechia,95,105,110,110,50,57.5,60,60,115,127.5,-132.5,127.5,297.5,SBD,Raw,F,Sub-Juniors,
5,Enni Lauttanen,2003,69,66.1,Finland,95,105,-110,105,50,-52.5,-52.5,50,100,-107.5,-107.5,100,255,SBD,Raw,F,Sub-Juniors,
1,Lova Norrblom,2003,76,71.25,Sweden,135,145,155,155,70,72.5,-75,72.5,165,180,-200,180,407.5,SBD,Raw,F,Sub-Juniors,
2,Eliise Mikomägi,2003,76,74.95,Estonia,145,155,160,160,75,-80,-80,75,160,170,-180,170,405,SBD,Raw,F,Sub-Juniors,
3,Nina Heikkinen,2003,76,73.95,Finland,155,165,170.5,170.5,62.5,67.5,-70,67.5,140,155,162.5,162.5,400.5,SBD,Raw,F,Sub-Juniors,
1,Marina Mikova,2001,43,40.45,Russia,52.5,57.5,62.5,62.5,35,37.5,-40,37.5,-82.5,82.5,90,90,190,SBD,Raw,F,Juniors,
1,Cosmiana Montanaro,2000,47,45.85,Italy,-115,115,120,120,57.5,60,62.5,62.5,160,166,-170,166,348.5,SBD,Raw,F,Juniors,
2,Marta Scuderi,2001,47,46,Italy,115,-120,-120,115,62.5,-65,65,65,137.5,145,150,150,330,SBD,Raw,F,Juniors,
3,Elmira Abdullaeva,1998,47,46.75,Russia,112.5,-117.5,117.5,117.5,62.5,-70,-70,62.5,130,-135,,130,310,SBD,Raw,F,Juniors,
4,Kym Murray,1998,47,46.65,Ireland,90,95,97.5,97.5,62.5,-67.5,-67.5,62.5,112.5,120,-125,120,280,SBD,Raw,F,Juniors,
1,Olivia Kyösti,1999,52,51.9,Finland,-140,140,-144.5,140,82.5,85,-87.5,85,147.5,-155,155,155,380,SBD,Raw,F,Juniors,
2,Anna Maramotti,1999,52,51.85,France,140,144,-145.5,144,75,-80,80,80,-150,-150,152.5,152.5,376.5,SBD,Raw,F,Juniors,
3,Ida-Therese Lindeberg,2000,52,51.2,Sweden,127.5,132.5,135,135,70,72.5,75,75,155,162.5,-170,162.5,372.5,SBD,Raw,F,Juniors,
4,Erin Aldcroft,1998,52,51.65,UK,107.5,115,122.5,122.5,85,90,92.5,92.5,135,145,155,155,370,SBD,Raw,F,Juniors,
5,Selma Karoline Matilde Ramberg,2001,52,51.45,Norway,100,110,-112.5,110,105,-113.5,113.5,113.5,130,142.5,-152.5,142.5,366,SBD,Raw,F,Juniors,
6,Sopiko Kvantchiani,1998,52,51.75,Georgia,125,-130,130,130,70,75,77.5,77.5,140,150,-155,150,357.5,SBD,Raw,F,Juniors,
7,Diana Gorodchikova,2002,52,51.95,Russia,125,130,-132.5,130,67.5,70,-72.5,70,147.5,155,-160,155,355,SBD,Raw,F,Juniors,
8,Livia Espinosa Doncel,1998,52,51.3,Spain,112.5,120,-122.5,120,62.5,-67.5,-67.5,62.5,140,-150,-150,140,322.5,SBD,Raw,F,Juniors,
1,Jade Jacob,2001,57,56.35,France,157.5,167.5,-173,167.5,-85,85,-90,85,170,188.5,200,200,452.5,SBD,Raw,F,Juniors,
2,Janneke Brauckman,1999,57,56.9,Netherlands,135,140,-142.5,140,-95,95,-100,95,155,165,170,170,405,SBD,Raw,F,Juniors,
3,Anja Adelmann,1998,57,56,Austria,135,140,-142.5,140,97.5,-102.5,102.5,102.5,147.5,155,160,160,402.5,SBD,Raw,F,Juniors,
4,Léa Gratacos,1999,57,55.95,France,127.5,135,140,140,85,-90,-90,85,152.5,162.5,165,165,390,SBD,Raw,F,Juniors,
5,Alice Menghini,2001,57,55.95,Italy,132.5,-140,140,140,85,90,-92.5,90,155,-162.5,-162.5,155,385,SBD,Raw,F,Juniors,
6,Mia Margrethe Ramberg Storstad,1999,57,55.95,Norway,122.5,132.5,-135,132.5,95,100,-105,100,130,140,-147.5,140,372.5,SBD,Raw,F,Juniors,
7,Ekaterina Nazarova,2000,57,56.8,Russia,135,140,-142.5,140,-85,85,90,90,140,-150,-155,140,370,SBD,Raw,F,Juniors,
8,Zoé Coinne,1998,57,55.25,Belgium,115,120,-122.5,120,65,70,72.5,72.5,120,130,135,135,327.5,SBD,Raw,F,Juniors,
DQ,Rachel Mawer,1998,57,56.5,UK,127.5,-132.5,132.5,132.5,77.5,-80,80,80,-160,-160,-160,,,SBD,Raw,F,Juniors,
DQ,Emily Finnern,2000,57,57,Germany,145,150,152.5,152.5,-105,-105,-105,,145,150,155,155,,SBD,Raw,F,Juniors,
1,Sara Naldi,1998,63,62.4,Italy,167.5,177.5,183.5,183.5,-97.5,97.5,-100,97.5,187.5,195,202.5,202.5,483.5,SBD,Raw,F,Juniors,
2,Aletta Rozsnyai-Kovács,1999,63,62.7,Hungary,150,160,167.5,167.5,115,120,,120,167.5,177.5,-190,177.5,465,SBD,Raw,F,Juniors,
3,Inmaculada Soto Ruiz,1999,63,62.1,Spain,142.5,152.5,157.5,157.5,92.5,95,97.5,97.5,185,192.5,195,195,450,SBD,Raw,F,Juniors,
4,Alba Boström,2001,63,62.65,Sweden,150,155,-157.5,155,97.5,102.5,-107.5,102.5,182.5,-187.5,-192.5,182.5,440,SBD,Raw,F,Juniors,
5,Ludivine Delos,2000,63,62.35,France,160,165,-167.5,165,80,85,-87.5,85,-172.5,172.5,177.5,177.5,427.5,SBD,Raw,F,Juniors,
6,Amy Viner,1999,63,62.65,UK,140,147.5,-152.5,147.5,-72.5,75,80,80,185,195,-202.5,195,422.5,SBD,Raw,F,Juniors,
7,Tara Pigott,1999,63,62.75,UK,135,142.5,145,145,-85,85,90,90,155,165,-172.5,165,400,SBD,Raw,F,Juniors,
8,Sanne van der Ploeg,1998,63,62.15,Netherlands,132.5,-140,-140,132.5,77.5,82.5,-85,82.5,155,162.5,-170,162.5,377.5,SBD,Raw,F,Juniors,
9,Katerina Malkova,2000,63,62.9,Russia,135,140,142.5,142.5,82.5,-87.5,-87.5,82.5,132.5,140,142.5,142.5,367.5,SBD,Raw,F,Juniors,
10,Victoria Baekkelund Isaksen,1998,63,61.05,Denmark,127.5,132.5,140,140,70,-75,75,75,140,150,-160,150,365,SBD,Raw,F,Juniors,
11,Lucía Sánchez Capilla,2000,63,61.95,Spain,122.5,-130,130,130,72.5,75,-77.5,75,160,-167.5,-167.5,160,365,SBD,Raw,F,Juniors,
12,Justyna Szarek,2001,63,62.65,Poland,130,137.5,142.5,142.5,72.5,75,-77.5,75,135,-142.5,142.5,142.5,360,SBD,Raw,F,Juniors,
13,Jayne Jones,1998,63,62.75,Ireland,115,122.5,130,130,67.5,72.5,75,75,147.5,-157.5,-157.5,147.5,352.5,SBD,Raw,F,Juniors,
DQ,Chiara Bernardi,1998,63,62.8,Italy,170,180,186,186,-115,-115,-115,,200,210,215,215,,SBD,Raw,F,Juniors,
1,Henna Kaasalainen,1999,84,83.4,Finland,185,190,195,195,90,95,97.5,97.5,195,205,207.5,207.5,500,SBD,Raw,F,Juniors,
2,Giada Palma,1998,84,82.45,Italy,167.5,175,180,180,102.5,107.5,-110,107.5,195,-205,-212.5,195,482.5,SBD,Raw,F,Juniors,
3,Anastasia Eskova,1998,84,83,Russia,180,187.5,192.5,192.5,92.5,97.5,102.5,102.5,165,175,187.5,187.5,482.5,SBD,Raw,F,Juniors,
4,Kelly Millecamps,1998,84,83.35,France,192.5,200,-205,200,95,-97.5,-97.5,95,-177.5,177.5,-190,177.5,472.5,SBD,Raw,F,Juniors,
5,Lystus Ebosele,2001,84,82.45,Ireland,152.5,165,175,175,97.5,102.5,105,105,165,175,-182.5,175,455,SBD,Raw,F,Juniors,
6,Serena Vargas Fernández,2000,84,82.7,Spain,152.5,162.5,167.5,167.5,-87.5,90,-92.5,90,185,195,-200,195,452.5,SBD,Raw,F,Juniors,
7,Toth Eniko,1998,84,81.1,Hungary,152.5,162.5,167.5,167.5,80,87.5,-90,87.5,175,185,192.5,192.5,447.5,SBD,Raw,F,Juniors,
8,Anna Teslina,1999,84,78.7,Russia,165,172.5,177.5,177.5,77.5,82.5,85,85,167.5,175,177.5,177.5,440,SBD,Raw,F,Juniors,
9,Abigail McLean,1998,84,82.6,UK,150,157.5,162.5,162.5,77.5,-80,80,80,180,190,-197.5,190,432.5,SBD,Raw,F,Juniors,
10,Naja Fogtmann Pedersen,1998,84,82.75,Denmark,155,162.5,170,170,67.5,-72.5,-72.5,67.5,170,-180,180,180,417.5,SBD,Raw,F,Juniors,
11,Samantha Edgar,2000,84,79.05,UK,135,140,-145,140,65,70,72.5,72.5,167.5,177.5,-182.5,177.5,390,SBD,Raw,F,Juniors,
12,Bo Haek,1999,84,82.6,Belgium,127.5,135,137.5,137.5,77.5,-82.5,82.5,82.5,-132.5,142.5,147.5,147.5,367.5,SBD,Raw,F,Juniors,
1,Olga Kuzmina,2001,84+,158.4,Russia,200,210,217.5,217.5,105,115,125,125,180,190,202.5,202.5,545,SBD,Raw,F,Juniors,
2,Victoria Borgvall,1998,84+,90.95,Sweden,175,185,190,190,85,92.5,-97.5,92.5,185,200,202.5,202.5,485,SBD,Raw,F,Juniors,
1,Clara Peyraud,2002,69,68.15,France,160,165,170,170,105,-107.5,107.5,107.5,197.5,-205,207,207,484.5,SBD,Raw,F,Juniors,
2,Agnes Rudin,2000,69,67.25,Sweden,172.5,177.5,-181,177.5,110,-112.5,-112.5,110,182.5,190,195,195,482.5,SBD,Raw,F,Juniors,
3,Amira Isabel Blecua Malak,1999,69,68.85,Spain,-155,-160,160,160,102.5,105,107.5,107.5,190,200,208,208,475.5,SBD,Raw,F,Juniors,
4,Ramunė Vainauskytė,2000,69,67.65,Lithuania,-170,175,-180,175,-100,-100,100,100,190,200,-207.5,200,475,SBD,Raw,F,Juniors,
5,Mariella Fisher,2000,69,67.95,UK,157.5,167.5,175,175,97.5,102.5,-105,102.5,180,195,-200,195,472.5,SBD,Raw,F,Juniors,
6,Emma Omani,1998,69,67.2,Netherlands,152.5,160,-165,160,97.5,100,102.5,102.5,185,197.5,-208,197.5,460,SBD,Raw,F,Juniors,
7,Eva Vico Martínez,1998,69,67.8,Spain,160,-165,-165,160,-100,100,102.5,102.5,180,190,-195,190,452.5,SBD,Raw,F,Juniors,
8,Dariya Iskiv,1999,69,68.3,Ukraine,145,152.5,157.5,157.5,97.5,-102.5,102.5,102.5,162.5,172.5,180,180,440,SBD,Raw,F,Juniors,
9,Eszter Sallai,2001,69,68.45,Hungary,150,160,-165,160,92.5,97.5,-100,97.5,170,-180,180,180,437.5,SBD,Raw,F,Juniors,
10,Iduna Bink,2001,69,67.6,Netherlands,152.5,162.5,-165,162.5,80,82.5,-85,82.5,160,175,185,185,430,SBD,Raw,F,Juniors,
11,Federica Casagranda,2000,69,64.3,Italy,152.5,160,165,165,85,-90,90,90,155,162.5,170,170,425,SBD,Raw,F,Juniors,
12,Valeria Goreeva,1999,69,67.9,Russia,135,-140,142.5,142.5,75,-80,-82.5,75,175,182.5,192.5,192.5,410,SBD,Raw,F,Juniors,
13,Jennifer Harrington,1998,69,68.2,Ireland,135,142.5,147.5,147.5,75,80,-82.5,80,152.5,162.5,167.5,167.5,395,SBD,Raw,F,Juniors,
14,Lota Leinberga,1999,69,68.5,Ireland,135,142.5,-147.5,142.5,85,90,92.5,92.5,150,157.5,-165,157.5,392.5,SBD,Raw,F,Juniors,
15,Katos Dorina,1999,69,68.9,Hungary,140,-147.5,-147.5,140,67.5,72.5,-75,72.5,150,160,167.5,167.5,380,SBD,Raw,F,Juniors,
16,Lucie Peterová,2000,69,68.2,Czechia,137.5,145,150,150,67.5,-72.5,-72.5,67.5,142.5,150,-155,150,367.5,SBD,Raw,F,Juniors,
17,Julia Bilicka,2002,69,68.25,Poland,105,-110,-110,105,65,67.5,70,70,150,155,160,160,335,SBD,Raw,F,Juniors,
1,Vilma Olsson,1999,76,73.8,Sweden,195,200,205.5,205.5,105,110,115,115,-190,190,200,200,520.5,SBD,Raw,F,Juniors,
2,Alice Francis-Freeman,1999,76,74.1,UK,165,175,182.5,182.5,107.5,-115,115,115,192.5,205,210,210,507.5,SBD,Raw,F,Juniors,
3,Isabell Adolfsen,1999,76,74.05,Norway,145,157.5,-160,157.5,100,102.5,-105,102.5,180,192.5,-205,192.5,452.5,SBD,Raw,F,Juniors,
4,Nuša Železnik,2000,76,75.85,Slovenia,-165,-167.5,167.5,167.5,87.5,92.5,95,95,170,180,-192.5,180,442.5,SBD,Raw,F,Juniors,
5,Cathelijne Gort,2001,76,73.9,Netherlands,122.5,130,135,135,95,100,-102.5,100,190,200,205,205,440,SBD,Raw,F,Juniors,
6,Marta Mattioli,1998,76,71.15,Italy,-150,150,-162.5,150,95,-100,100,100,170,185,-192.5,185,435,SBD,Raw,F,Juniors,
7,Sofie Horne,2001,76,75.35,Norway,137.5,-147.5,150,150,90,95,-100,95,170,180,-190,180,425,SBD,Raw,F,Juniors,
8,Marie Bielefeldt Maren,1999,76,75.4,Denmark,135,-140,140,140,95,100,-102.5,100,150,157.5,-160,157.5,397.5,SBD,Raw,F,Juniors,
9,Riccarda Kueng,1999,76,73.9,Switzerland,-140,-140,140,140,70,-72.5,,70,160,170,177.5,177.5,387.5,SBD,Raw,F,Juniors,
10,Caoimhe Ryan-Ireland,1998,76,75,Ireland,130,140,145,145,75,80,-82.5,80,142.5,152.5,157.5,157.5,382.5,SBD,Raw,F,Juniors,
11,Corrina McConnell,2001,76,74.5,Ireland,127.5,135,142.5,142.5,67.5,72.5,75,75,140,152.5,-160,152.5,370,SBD,Raw,F,Juniors,
1,Mathilda Bergendahl,2006,84+,104.8,Sweden,100,117.5,130,130,52.5,57.5,60,60,110,125,-132.5,125,315,SBD,Raw,F,Special Olympics,
