Name,Country,State,BirthDate,Division,Equipment,WeightClassKg,BodyweightKg,Event,Best3SquatKg,Best3BenchKg,Best3DeadliftKg,TotalKg,Sex,Place,Age
James Thomas,,,,Masters 50-54,Raw,90,85.28,B,,86.18,,86.18,M,1,
James Thomas,,,,Open,Raw,90,85.28,B,,86.18,,86.18,M,2,
Erik Heitter,,,,Masters 45-49,Raw,110,102.15,B,,185.97,,185.97,M,1,
Erik Heitter,,,,Masters 45-49,Raw,110,102.15,BD,,185.97,235.87,421.84,M,1,
William Lafollette,,,,Open,Raw,90,86.36,BD,,120.2,176.9,297.1,M,1,
Paul Ferguson,,,,Masters 50-54,Raw,125,119.7,BD,,215.46,238.14,453.59,M,1,
Nadya Lewis,,,,Pre-Teen,Raw,82.5,79.29,BD,,29.48,63.5,92.99,F,1,
Lee Hands,,,,Masters 45-49,Raw,100,96.98,BD,,170.1,226.8,396.89,M,1,
Lee Hands,,,,Police and Fire,Raw,100,96.98,BD,,170.1,226.8,396.89,M,1,
Blake Martin,,,,Teenage 13-15,Raw,60,58.06,D,,,90.72,90.72,M,1,
Jimmy Bishop #1,,,,Masters 70-74,Single-ply,110,101.6,D,,,172.37,172.37,M,1,
Robert Burton,,,,Masters 45-49,Raw,140+,173.77,D,,,127.01,127.01,M,1,
Mike Cross #1,,,,Masters 70-74,Raw,60,59.51,D,,,136.08,136.08,M,1,
Marcus Chesney,,,,Open,Raw,75,75,D,,,161.03,161.03,M,1,
Ezekiel Jones,,,,Teenage 18-19,Raw,48,,D,,,188.24,188.24,M,1,
Braxton Bauhmon,,,,Teenage 18-19,Raw,90,87.18,D,,,219.99,219.99,M,1,
Addyson Crader,,,,Pre-Teen,Raw,44,33.66,D,,,58.97,58.97,F,1,
Chris Marsh,,,,Submasters,Raw,140+,151.68,B,,206.38,,206.38,M,1,
Gary Boatright,,,,Masters 45-49,Multi-ply,82.5,79.38,B,,201.85,,201.85,M,1,
Travis Cochran,,,,Open,Raw,140,127.46,B,,235.87,,235.87,M,1,
Drew Cullum,,,,Masters 60-64,Unlimited,118,115.85,B,,199.58,,199.58,M,1,
Matthew Market,,,,Juniors,Raw,100,91.53,B,,158.76,,158.76,M,1,
Matthew Market,,,,Open,Raw,100,91.53,B,,158.76,,158.76,M,3,
Darrin Webb,,,,Masters 55-59,Raw,100,98.61,B,,151.95,,151.95,M,1,
Josh Dover,,,,Open,Raw,90,89.86,B,,147.42,,147.42,M,1,
Robert Burton,,,,Masters 45-49,Unlimited,140+,173.77,B,,106.59,,106.59,M,1,
Jason Crader,,,,Masters 45-49,Multi-ply,140,135.4,B,,294.84,,294.84,M,1,
Matt Graves,,,,Masters 40-44,Multi-ply,110,109.59,B,,285.76,,285.76,M,1,
Matt Graves,,,,Open,Multi-ply,110,109.59,B,,285.76,,285.76,M,1,
Jody Lewis #2,,,,Submasters,Raw,110,102.78,B,,151.95,,151.95,M,1,
Katy Cochran,,,,Submasters,Raw,110,108.86,B,,54.43,,54.43,F,1,
JC Lewis,,,,Masters 65-69,Raw,82.5,79.29,B,,145.15,,145.15,M,1,
Stephanie Braz,,,,Open,Raw,67.5,67.13,B,,65.77,,65.77,F,1,
Steve Braz,,,,Masters 60-64,Raw,100,98.61,B,,102.06,,102.06,M,1,
Melody Watson,,,,Open,Raw,75,72.57,B,,95.25,,95.25,F,1,
Alvin Belfield,,,,Masters 55-59,Raw,140,136.89,B,,206.38,,206.38,M,1,
Kevin Dukes,,,,Masters 50-54,Raw,140,137.17,B,,258.55,,258.55,M,1,
Saul Harrell,,,,Masters 55-59,Multi-ply,125,122.56,B,,285.76,,285.76,M,1,
Jim Benson #1,,,,Open,Multi-ply,110,107.41,SBD,476.27,294.84,294.84,1065.94,M,1,
Nicolas White,,,,Teenage 18-19,Multi-ply,100,99.79,SBD,290.3,188.24,256.28,734.82,M,1,
Veronica Osario,,,,Open,Multi-ply,52,51.8,SBD,167.83,86.18,122.47,376.48,F,1,
Veronica Osario,,,,Submasters,Multi-ply,52,51.8,SBD,167.83,86.18,122.47,376.48,F,1,
Kendra Archer,,,,Submasters,Multi-ply,82.5,80.92,SBD,183.7,79.38,136.08,399.16,F,1,
Trevor Miller #3,,,,Teenage 13-15,Single-ply,82.5,82.01,SBD,215.46,113.4,181.44,510.29,M,1,
Matt Reel,,,,Masters 45-49,Multi-ply,90,87.54,SBD,278.96,181.44,192.78,653.17,M,1,
Tim Deese,,,,Juniors,Multi-ply,100,99.88,SBD,317.51,213.19,226.8,757.5,M,1,
Mike Matlock,,,,Masters 45-49,Single-ply,118,111.95,SBD,347,238.14,258.55,843.68,M,1,
Cory Gregory,,,,Masters 40-44,Multi-ply,100,94.35,SBD,272.16,165.56,199.58,637.3,M,1,
Stephanie Cochran,,,,Teenage 16-17,Raw,67.5,65.95,B,,54.43,,54.43,F,1,
Stephanie Cochran,,,,Teenage 16-17,Wraps,67.5,65.95,SBD,70.31,54.43,92.99,217.72,F,1,
Billy Sigrest,,,,Open,Wraps,90,87.54,SBD,258.55,151.95,210.92,621.42,M,2,
D'Anthony Davis,,,,Open,Wraps,140,131.54,SBD,272.16,140.61,274.42,687.19,M,3,
Nick Asturi,,,,Open,Wraps,100,97.52,SBD,265.35,142.88,249.48,657.71,M,2,
Joe Vayda,,,,Masters 50-54,Raw,110,109.59,B,,165.56,,165.56,M,1,
Joe Vayda,,,,Masters 50-54,Raw,110,109.59,D,,,226.8,226.8,M,1,
Joe Vayda,,,,Masters 50-54,Wraps,110,109.59,SBD,272.16,165.56,226.8,664.51,M,1,
Joe Vayda,,,,Masters 50-54,Raw,110,109.59,BD,,165.56,226.8,392.36,M,1,
Joe Vayda,,,,Masters 50-54,Wraps,110,109.59,S,272.16,,,272.16,M,1,
Brandon Sullivan,,,,Open,Raw,125,118.84,SBD,344.73,181.44,290.3,816.47,M,1,
Adam Pierson,,,,Police and Fire,Wraps,140,137.08,SBD,265.35,170.1,260.82,696.26,M,1,
Darren Price,,,,Open,Raw,100,99.06,B,,185.97,,185.97,M,2,
Darren Price,,,,Open,Raw,100,99.06,SBD,265.35,185.97,265.35,716.68,M,1,
Race Sordon,,,,Open,Raw,140+,163.75,SBD,265.35,176.9,303.91,746.16,M,1,
Brad McKeehan,,,,Masters 40-44,Raw,90,87.54,B,,151.95,,151.95,M,1,
Brad McKeehan,,,,Masters 40-44,Raw,90,87.54,SBD,158.76,158.76,149.69,467.2,M,1,
Aaron Comery,,,,Open,Raw,110,107.59,SBD,294.84,188.24,349.27,832.34,M,1,
Danielle Tucker,,,,Open,Raw,75,72.03,SBD,142.88,97.52,215.46,455.86,F,1,
Desirae Curtis,,,,Open,Raw,75,74.84,SBD,102.06,63.5,136.08,301.64,F,2,
Mariana Picozzi,,,,Open,Raw,52,51.35,SBD,81.65,49.9,127.01,258.55,F,1,
Brittani Martin,,,,Open,Raw,56,54.98,SBD,65.77,31.75,102.06,199.58,F,1,
Austin Blair,,,,Open,Raw,125,123.47,SBD,297.1,183.7,294.84,775.64,M,2,
Brandon Stover,,,,Open,Raw,100,97.79,SBD,217.72,142.88,240.4,601.01,M,2,
Ricky Davis,,,,Juniors,Raw,82.5,77.02,SBD,149.69,97.52,181.44,428.64,M,1,
Mack Hughes,,,,Masters 50-54,Raw,110,108.5,SBD,185.97,115.67,238.14,539.77,M,1,
Tommy Haun,,,,Open,Raw,140+,167.74,SBD,226.8,138.35,238.14,603.28,M,2,
Greg Hinds,,,,Masters 45-49,Raw,110,109.95,SBD,229.06,161.03,231.33,621.42,M,1,
Jaden Jones,,,,Teenage 16-17,Raw,100,97.7,SBD,190.51,115.67,226.8,532.97,M,1,
Drew Tomblin,,,,Open,Wraps,100,99.43,SBD,199.58,131.54,210.92,542.04,M,3,
Jerry Carter,,,,Masters 55-59,Wraps,100,98.43,SBD,219.99,165.56,210.92,596.47,M,1,
Lane Vayda,,,,Teenage 16-17,Raw,82.5,81.01,B,,92.99,,92.99,M,1,
Lane Vayda,,,,Teenage 16-17,Raw,82.5,81.01,D,,,192.78,192.78,M,1,
Lane Vayda,,,,Teenage 16-17,Wraps,82.5,81.01,SBD,204.12,,,,M,DQ,
Lane Vayda,,,,Teenage 16-17,Raw,82.5,81.01,BD,,92.99,192.78,285.76,M,1,
Lane Vayda,,,,Teenage 16-17,Wraps,82.5,81.01,S,204.12,,,204.12,M,1,
Keirstyn Williams,,,,Teenage 13-15,Wraps,82.5,79.2,SBD,102.06,38.56,108.86,249.48,F,1,
Shelby Grimm,,,,Open,Wraps,52,51.89,SBD,113.4,72.57,127.01,312.98,F,1,
La Riena Ferguson,,,,Masters 40-44,Wraps,100,91.9,SBD,174.63,77.11,158.76,410.5,F,1,
Roman Weaver,,,,Teenage 16-17,Wraps,90,84.82,SBD,229.06,131.54,233.6,594.21,M,1,
Anna Stamets,,,,Masters 45-49,Wraps,110,109.95,SBD,124.74,95.25,188.24,408.23,F,1,
Jesica Swisher,,,,Submasters,Raw,67.5,67.31,SBD,170.1,97.52,183.7,451.32,F,1,
Deeann Biggers,,,,Masters 50-54,Wraps,90,82.64,SBD,161.03,102.06,192.78,455.86,F,1,
Don Millrany,,,,Masters 40-44,Wraps,90,88.72,SBD,272.16,102.06,260.82,635.03,M,1,
Keith Ludgood,,,,Open,Wraps,140,128,SBD,322.05,206.38,294.84,823.27,M,2,
Hunter McCleskey,,,1998-01-23,Open,Raw,100,91.17,B,,229.06,,229.06,M,1,
Hunter McCleskey,,,,Open,Wraps,100,91.17,SBD,328.85,229.06,306.17,864.09,M,1,
Boone Wilson,,,,Open,Wraps,140,139.07,SBD,385.55,217.72,322.05,925.33,M,1,
Rodney Aulridge,,,,Masters 50-54,Wraps,67.5,67.31,SBD,149.69,115.67,172.37,437.72,M,1,
Ben Mathews,,,,Submasters,Raw,125,120.56,B,,204.12,,204.12,M,1,
Ben Mathews,,,,Submasters,Wraps,125,120.56,SBD,317.51,204.12,317.51,839.15,M,1,
Tyler Galbraith,,,,Open,Wraps,110,102.6,SBD,249.48,145.15,260.82,655.44,M,2,
Zach Matheny,,,,Open,Wraps,90,88,SBD,254.01,131.54,265.35,650.91,M,1,
Jake Holland,,,,Open,Wraps,110,108.5,SBD,190.51,117.93,240.4,548.85,M,3,
Evan Tompkins,,,,Teenage 18-19,Wraps,82.5,80.83,SBD,208.65,170.1,249.48,628.23,M,1,
Jordan Woods,,,,Open,Multi-ply,90,87.91,SBD,226.8,172.37,240.4,639.57,M,1,
James Gilroy,,,,Teenage 16-17,Wraps,100,97.79,SBD,233.6,147.42,224.53,605.55,M,1,
Carolyn Girard,,,,Open,Wraps,67.5,61.51,SBD,106.59,72.57,124.74,303.91,F,1,
James Thomas,,,,Open,Raw,90,85.28,B,,86.18,,86.18,M,3,
James Thomas,,,,Masters 50-54,Raw,90,85.28,B,,86.18,,86.18,M,2,
Josh Reynolds,,,,Open,Multi-ply,140,132.54,D,,,349.27,349.27,M,1,
Kenneth Millrany,,,,Masters 55-59,Multi-ply,110,109.32,B,,365.14,,365.14,M,1,
Jeremy Yapp,,,,Open,Multi-ply,140+,142.61,B,,347,,347,M,1,
Brock Piscoran,,,,Open,Raw,140,137.44,SBD,281.23,140.61,263.08,684.92,M,1,
Nathan Spasaro,,,,Open,Wraps,110,105.14,SBD,242.67,174.63,297.1,714.41,M,1,
Jeremy Smith #1,,,,Open,Wraps,60,59.06,SBD,288.03,136.08,127.01,551.11,M,1,
Jeremy Smith #1,,,,Open,Multi-ply,60,59.06,B,,215.46,,215.46,M,1,
Brian Lomus,,,,Open,Multi-ply,82.5,81.37,SBD,340.19,204.12,290.3,834.61,M,1,
Alex Trotter,,,,Open,Multi-ply,140,131.9,SBD,408.23,319.78,306.17,1034.19,M,1,
Clint Key,,,,Open,Multi-ply,140,133.58,SBD,390.09,331.12,310.71,1031.92,M,2,
Garret Morris,,,,Open,Multi-ply,67.5,67.31,SBD,294.84,181.44,238.14,714.41,M,1,
Mike Picozzi,,,,Open,Wraps,125,124.2,SBD,278.96,170.1,278.96,728.02,M,1,47
Mike Picozzi,,,,Masters 45-49,Wraps,125,124.2,SBD,278.96,170.1,278.96,728.02,M,1,47
