Division,WeightClassKg,Place,Name,Team,BodyweightKg,Best3SquatKg,Best3BenchKg,Best3DeadliftKg,TotalKg,Equipment,Event,Sex,BirthDate
Boys,51.71,1,Boyzz Guzman,Forsan,48.9,113.4,68.04,133.81,315.25,Single-ply,SBD,M,
Boys,51.71,2,Tyler Waggoner,Stanton,51.62,127.01,68.04,120.2,315.25,Single-ply,SBD,M,
Boys,51.71,3,Adrian Valdez,Fort Stockton,48.53,95.25,58.97,113.4,267.62,Single-ply,SBD,M,
Boys,55.79,1,Ivan Zamora,Andrews,55.52,147.42,77.11,172.37,396.89,Single-ply,SBD,M,
Boys,55.79,2,Tommy Purcell,Christoval,55.34,133.81,74.84,154.22,362.87,Single-ply,SBD,M,
Boys,55.79,3,Nick Boyd,Colorado City Colorado,55.7,111.13,70.31,140.61,322.05,Single-ply,SBD,M,
Boys,55.79,4,Ian Stewart,Midland Greenwood,55.79,88.45,52.16,102.06,242.67,Single-ply,SBD,M,
Boys,59.87,1,Denys Stokes,Midland,59.6,120.2,74.84,147.42,342.46,Single-ply,SBD,M,
Boys,59.87,2,Cougar Jetton,San Angelo Grape Creek,57.33,136.08,72.57,129.27,337.93,Single-ply,SBD,M,
Boys,59.87,3,Dylan McPherson,Christoval,59.87,83.91,65.77,108.86,258.55,Single-ply,SBD,M,
Boys,67.13,1,Lucas Esparza,Andrews,67.04,217.72,113.4,201.85,532.97,Single-ply,SBD,M,
Boys,67.13,2,Devin Mora,Andrews,67.04,213.19,108.86,206.38,528.44,Single-ply,SBD,M,
Boys,67.13,3,Josiah Valdez,Crane,67.13,172.37,90.72,197.31,460.4,Single-ply,SBD,M,
Boys,67.13,4,Avery Cruz,Midland Greenwood,63.96,176.9,90.72,188.24,455.86,Single-ply,SBD,M,
Boys,67.13,5,Jaylee Ibarra,Fort Stockton,64.41,190.51,99.79,154.22,444.52,Single-ply,SBD,M,
Boys,67.13,6,Tab Cowan,Midland Greenwood,66.04,151.95,97.52,158.76,408.23,Single-ply,SBD,M,
Boys,67.13,7,Cristian Garcia #5,Fort Stockton,60.42,142.88,81.65,167.83,392.36,Single-ply,SBD,M,
Boys,67.13,8,Chris Chaney,Colorado City Colorado,65.77,138.35,70.31,161.03,369.68,Single-ply,SBD,M,
Boys,67.13,9,Joseph Connell,Colorado City Colorado,65.95,127.01,81.65,151.95,360.61,Single-ply,SBD,M,
Boys,67.13,10,Teagan Marlowe,Midland,60.78,145.15,65.77,138.35,349.27,Single-ply,SBD,M,
Boys,67.13,11,Daniel Montano,Andrews,67.13,136.08,68.04,124.74,328.85,Single-ply,SBD,M,
Boys,67.13,12,Mason Patterson,Forsan,62.87,104.33,56.7,124.74,285.76,Single-ply,SBD,M,
Boys,74.84,1,Raymond Flores,Andrews,72.85,201.85,131.54,204.12,537.51,Single-ply,SBD,M,
Boys,74.84,2,Eric Cuellar,Andrews,73.66,199.58,104.33,213.19,517.1,Single-ply,SBD,M,
Boys,74.84,3,Jimmy Vazquez,Midland Greenwood,71.76,197.31,81.65,174.63,453.59,Single-ply,SBD,M,
Boys,74.84,4,Thomas Wells,Midland,70.76,156.49,70.31,183.7,410.5,Single-ply,SBD,M,
Boys,74.84,5,Ernan Carrasco,Andrews,74.48,120.2,79.38,142.88,342.46,Single-ply,SBD,M,
Boys,74.84,6,John Hyatt,Midland Greenwood,72.85,117.93,79.38,136.08,333.39,Single-ply,SBD,M,
Boys,74.84,DQ,Arnold Vallez,Crane,71.3,183.7,99.79,,,Single-ply,SBD,M,
Boys,82.1,1,Ethan Coleman,Midland Greenwood,82.1,272.16,174.63,272.16,718.94,Single-ply,SBD,M,
Boys,82.1,2,Fernando Zapata,Midland Greenwood,82.1,226.8,129.27,197.31,553.38,Single-ply,SBD,M,
Boys,82.1,3,Payton Polk,Christoval,75.39,197.31,127.01,215.46,539.77,Single-ply,SBD,M,
Boys,82.1,4,Jackson Talley,Midland,81.01,181.44,81.65,172.37,435.45,Single-ply,SBD,M,
Boys,82.1,DQ,Dominic Aguilar,Fort Stockton,79.11,179.17,,,,Single-ply,SBD,M,
Boys,89.81,1,Justin Gonzales,Andrews,89.81,242.67,151.95,222.26,616.89,Single-ply,SBD,M,
Boys,89.81,2,Justin Sanchez,Fort Stockton,88.09,149.69,131.54,172.37,453.59,Single-ply,SBD,M,
Boys,89.81,3,Brandon Castillo,Andrews,86,183.7,81.65,163.29,428.64,Single-ply,SBD,M,
Boys,89.81,4,Brayden Scheller,Andrews,89.09,140.61,113.4,174.63,428.64,Single-ply,SBD,M,
Boys,89.81,5,Cole Flora,Andrews,83.82,131.54,88.45,181.44,401.43,Single-ply,SBD,M,
Boys,89.81,6,Oscar Carnero,Andrews,86.09,151.95,90.72,154.22,396.89,Single-ply,SBD,M,
Boys,89.81,DQ,Esau Flores,Andrews,88.72,,,,,Single-ply,SBD,M,
Boys,99.79,1,Connor McDonald,Midland Greenwood,99.52,240.4,163.29,190.51,594.21,Single-ply,SBD,M,
Boys,99.79,2,Aaron Olivas,Andrews,94.08,244.94,145.15,199.58,589.67,Single-ply,SBD,M,
Boys,99.79,3,Edgar Flores,Fort Stockton,98.97,217.72,154.22,217.72,589.67,Single-ply,SBD,M,
Boys,99.79,4,Nathaniel Whitmore,Forsan,99.34,235.87,138.35,213.19,587.4,Single-ply,SBD,M,
Boys,99.79,5,Brady Casbeer,Midland Greenwood,99.06,188.24,111.13,158.76,458.13,Single-ply,SBD,M,
Boys,99.79,6,Kaleb Dye,Christoval,92.62,165.56,92.99,167.83,426.38,Single-ply,SBD,M,
Boys,99.79,7,Alex Estrada #1,Midland Greenwood,97.43,158.76,83.91,147.42,390.09,Single-ply,SBD,M,
Boys,109.77,1,Christian Bell,Midland Greenwood,105.51,272.16,174.63,254.01,700.8,Single-ply,SBD,M,
Boys,109.77,2,Jesus Lopez,Andrews,104.42,274.42,179.17,242.67,696.26,Single-ply,SBD,M,
Boys,109.77,3,Ashton Smith,Stanton,104.87,276.69,149.69,226.8,653.17,Single-ply,SBD,M,
Boys,109.77,4,Devon Butler,Crane,107.5,263.08,151.95,195.04,610.08,Single-ply,SBD,M,
Boys,109.77,5,Antonio Garza,Andrews,104.05,165.56,90.72,147.42,403.7,Single-ply,SBD,M,
Boys,109.77,6,Clayton Tucker,Forsan,100.43,136.08,79.38,170.1,385.55,Single-ply,SBD,M,
Boys,124.74,1,Cody Hensley,Stanton,118.21,192.78,136.08,217.72,546.58,Single-ply,SBD,M,
Boys,124.74,2,Roger Martinez,Stanton,118.57,226.8,124.74,192.78,544.31,Single-ply,SBD,M,
Boys,124.74,3,Memphis Alvarado,Fort Stockton,119.57,201.85,136.08,192.78,530.7,Single-ply,SBD,M,
Boys,124.74,4,Octavio Caballero,Andrews,111.13,195.04,104.33,199.58,498.95,Single-ply,SBD,M,
Boys,124.74,5,Andrew Gonzales,Fort Stockton,116.3,183.7,104.33,183.7,471.74,Single-ply,SBD,M,
Boys,124.74,6,Gilberto Martinez,Andrews,116.75,161.03,81.65,158.76,401.43,Single-ply,SBD,M,
Boys,124.74,DQ,Jake Patterson,Forsan,123.92,195.04,,,,Single-ply,SBD,M,
Boys,124.74,DQ,Payden Alberts,Stanton,121.56,226.8,,,,Single-ply,SBD,M,
Boys,124.74+,1,Wesley Estridge,Albany,145.24,322.05,174.63,215.46,712.14,Single-ply,SBD,M,
Boys,124.74+,2,Luis Mendoza,Fort Stockton,125.65,185.97,127.01,140.61,453.59,Single-ply,SBD,M,
Boys,,NS,Jose Armendariz,Andrews,,,,,,Single-ply,SBD,M,
Boys,,NS,Aaron Young,Lamesa Klondike,,,,,,Single-ply,SBD,M,
