Place,Name,Country,State,WeightClassKg,BodyweightKg,Age,Best3SquatKg,Best3BenchKg,Best3DeadliftKg,TotalKg,Sex,Division,Equipment,Event,Squat4Kg,Bench4Kg,Deadlift4Kg,Tested
1,Arianna Aguilar,USA,TX,52,48.4,16,87.5,50,110,247.5,F,Juniors 15-19,Raw,SBD,,,,Yes
2,Santana Sandoval,USA,CO,52,51.2,18,90,50,102.5,242.5,F,Juniors 15-19,Raw,SBD,,,,Yes
1,Alysan Casey,USA,MT,52,52,21,112.5,55,147.5,315,F,Juniors 20-23,Raw,SBD,,,,Yes
1,Ishbel Graham,Australia,,56,55.3,17,112.5,55,125,292.5,F,Juniors 15-19,Raw,SBD,,,,Yes
1,Angela Gallegos,USA,CO,56,53.4,23,115,74,132.5,321.5,F,Juniors 20-23,Raw,SBD,,,,Yes
2,Sarah Vatinno,USA,FL,56,55.9,23,107.5,60,150,317.5,F,Juniors 20-23,Raw,SBD,,,,Yes
1,Anna Boettger,USA,FL,60,56.3,16,77.5,55,125,257.5,F,Juniors 15-19,Raw,SBD,,,,Yes
1,Nicole Daoang,USA,HI,60,59.8,23,135,95,182.5,412.5,F,Juniors 20-23,Raw,SBD,,,,Yes
2,Precious Trejo,USA,IN,60,60,20,160,90,155,405,F,Juniors 20-23,Raw,SBD,,,156,Yes
3,Elizabeth West,USA,WA,60,58.3,22,135,75,160,370,F,Juniors 20-23,Raw,SBD,,,,Yes
4,Marielle Villanueva,USA,CA,60,59.5,20,120,57.5,140,317.5,F,Juniors 20-23,Raw,SBD,,,,Yes
5,Kellie Lucero,USA,CA,60,59.3,23,110,65,137.5,312.5,F,Juniors 20-23,Raw,SBD,,,,Yes
6,Charissa Vallesteros,USA,HI,60,59.7,22,100,55,135,290,F,Juniors 20-23,Raw,SBD,,,,Yes
1,Bailey Stettmeier,USA,AR,67.5,64.2,20,142.5,72.5,162.5,377.5,F,Juniors 20-23,Raw,SBD,,,,Yes
2,Daisy De La Rosa,USA,TX,67.5,66.1,23,125,75,155,355,F,Juniors 20-23,Raw,SBD,,,,Yes
3,KaiLi Xie,USA,MO,67.5,66.6,23,135,72.5,127.5,335,F,Juniors 20-23,Raw,SBD,,,,Yes
1,Tayler Claflin,USA,OK,75,72.6,19,180,110.5,162.5,453,F,Juniors 15-19,Raw,SBD,,,,Yes
2,Lexus Sanchez,USA,CA,75,68.4,19,112.5,65,145,322.5,F,Juniors 15-19,Raw,SBD,,,,Yes
3,Emma Schaffer,USA,AL,75,73.2,19,122.5,60,137.5,320,F,Juniors 15-19,Raw,SBD,,,,Yes
1,Niara Valentine,USA,NY,75,71.7,22,167.5,100,200,467.5,F,Juniors 20-23,Raw,SBD,,,,Yes
2,Taylor Porter,USA,UT,75,74.6,23,165,97.5,172.5,435,F,Juniors 20-23,Raw,SBD,,,,Yes
3,Caitlyn Eddy,USA,FL,75,73.4,22,157.5,85,175,417.5,F,Juniors 20-23,Raw,SBD,,,,Yes
4,Ayzha Quidit,USA,CA,75,71.3,22,142.5,75,150,367.5,F,Juniors 20-23,Raw,SBD,,,,Yes
5,Corrina McColl,Australia,,75,72.8,22,132.5,57.5,125,315,F,Juniors 20-23,Raw,SBD,,,,Yes
1,Alejandra Rice,USA,WY,82.5,80.9,16,138,72.5,152.5,363,F,Juniors 15-19,Raw,SBD,,,,Yes
2,Odalys De La Cruz,USA,CA,82.5,81,19,122.5,70,165,357.5,F,Juniors 15-19,Raw,SBD,,,,Yes
1,Cierra Crowe,USA,KY,82.5,75.4,20,142.5,72.5,165,380,F,Juniors 20-23,Raw,SBD,145.5,,,Yes
1,Carly Blair,USA,CO,90+,102.5,23,167.5,67.5,155,390,F,Juniors 20-23,Raw,SBD,,,,Yes
DQ,Imelda Fowler,USA,CA,44,39.9,58,67.5,47.5,,,F,Open,Raw,SBD,,,,Yes
1,Marieliza Cuaresma,USA,NV,48,47.1,27,112.5,50,150,312.5,F,Open,Raw,SBD,,,,Yes
2,Maryam Rushdi,USA,CA,48,47,27,102.5,47.5,150,300,F,Open,Raw,SBD,,,,Yes
1,Raishel Phares,USA,DE,52,51.5,27,117.5,77.5,150,345,F,Open,Raw,SBD,,,,Yes
2,Alysan Casey,USA,MT,52,52,21,112.5,55,147.5,315,F,Open,Raw,SBD,,,,Yes
3,Stevie Seeley,USA,OR,52,50.8,28,112.5,65,132.5,310,F,Open,Raw,SBD,,,,Yes
4,Abigail Aceves,USA,HI,52,51,18,87.5,50,110,247.5,F,Open,Raw,SBD,,,,Yes
1,Lisa Nguyen Johnson,USA,CA,56,53.5,45,117.5,60,162.5,340,F,Open,Raw,SBD,,,,Yes
2,Nicole Lamartine,USA,WY,56,54.8,43,122.5,67.5,150,340,F,Open,Raw,SBD,,,,Yes
3,Caseara Martinez,USA,CA,56,55.1,27,117.5,87.5,135,340,F,Open,Raw,SBD,,,,Yes
4,Tiffany Winton,USA,IL,56,53.9,27,115,67.5,142.5,325,F,Open,Raw,SBD,,,,Yes
5,Sarah Vatinno,USA,FL,56,55.9,23,107.5,60,150,317.5,F,Open,Raw,SBD,,,,Yes
6,La Jeanne Mallett,USA,CA,56,53.1,26,110,55,140,305,F,Open,Raw,SBD,,,,Yes
7,Elizabeth Disney,USA,KY,56,55.5,27,112.5,52.5,140,305,F,Open,Raw,SBD,,,,Yes
8,Sarah Runkle,USA,CA,56,55.2,32,107.5,62.5,125,295,F,Open,Raw,SBD,,,,Yes
9,Vanessa Gomez,USA,TX,56,55.8,27,97.5,65,132.5,295,F,Open,Raw,SBD,,,,Yes
10,Michelle Green,USA,CA,56,53.1,25,100,52.5,137.5,290,F,Open,Raw,SBD,,,,Yes
11,Rachel Bitz,USA,CA,56,55.4,26,100,60,127.5,287.5,F,Open,Raw,SBD,,,,Yes
12,Zyra Fortes,USA,NV,56,55.7,33,105,57.5,125,287.5,F,Open,Raw,SBD,,,,Yes
G,Rachel Schmidt,USA,IA,56,53.7,31,82.5,55,117.5,255,F,Open,Raw,SBD,,,,Yes
DQ,Elena Dias,USA,HI,56,55.3,36,,62.5,120,,F,Open,Raw,SBD,,,,Yes
DQ,Kristen Robbins #1,USA,OH,56,55.4,26,145.5,,150,,F,Open,Raw,SBD,,,,Yes
1,Nicole Daoang,USA,HI,60,59.8,23,135,95,182.5,412.5,F,Open,Raw,SBD,,,,Yes
2,Cindy Rivera,USA,FL,60,56.7,30,147.5,75,182.5,405,F,Open,Raw,SBD,,,,Yes
3,Precious Trejo,USA,IN,60,60,20,160,90,155,405,F,Open,Raw,SBD,,,156,Yes
4,Michelle Kim,USA,CA,60,59.8,26,145,75,170,390,F,Open,Raw,SBD,,,,Yes
5,Veronica Card,USA,TX,60,58.2,30,132.5,77.5,170,380,F,Open,Raw,SBD,,,,Yes
6,Elizabeth West,USA,WA,60,58.3,22,135,75,160,370,F,Open,Raw,SBD,,,,Yes
7,Taylor Irvine,USA,CA,60,58.1,25,130,80,157.5,367.5,F,Open,Raw,SBD,,,,Yes
8,Carrie Althoff,USA,NC,60,59.8,26,130,67.5,147.5,345,F,Open,Raw,SBD,,,,Yes
9,Erika Ford,USA,KY,60,57.2,26,110,60,160,330,F,Open,Raw,SBD,,,,Yes
10,Adriana Mesa,USA,CA,60,59.5,34,115,65,145,325,F,Open,Raw,SBD,,,,Yes
11,Marielle Villanueva,USA,CA,60,59.5,20,120,57.5,140,317.5,F,Open,Raw,SBD,,,,Yes
12,Kellie Lucero,USA,CA,60,59.3,23,110,65,137.5,312.5,F,Open,Raw,SBD,,,,Yes
13,Magdalena Avendaño,USA,CA,60,58,55,97.5,75,132.5,305,F,Open,Raw,SBD,,,,Yes
14,Erika Johnson #1,USA,AZ,60,59.1,25,107.5,52.5,145,305,F,Open,Raw,SBD,,,,Yes
15,Danielly Rocha-Lanter,USA,CA,60,57.9,31,100,55,142.5,297.5,F,Open,Raw,SBD,,,,Yes
16,Desiree Hooper,USA,CO,60,59.5,25,107.5,57.5,132.5,297.5,F,Open,Raw,SBD,,,,Yes
17,Jen Paullin,USA,IA,60,58.6,41,102.5,50,127.5,280,F,Open,Raw,SBD,,,,Yes
DQ,Amanda Brady,USA,NM,60,57.5,31,,87.5,,,F,Open,Raw,SBD,,,,Yes
1,Steph Powell,USA,NV,67.5,66.4,31,182.5,95,242.5,520,F,Open,Raw,SBD,,,,Yes
2,Valerie Smith #1,USA,GA,67.5,65.9,44,125,93,175,393,F,Open,Raw,SBD,,,,Yes
3,Stacey Otlin,USA,CA,67.5,66.9,41,137.5,80,175,392.5,F,Open,Raw,SBD,,,,Yes
4,Andrea King,USA,FL,67.5,67.3,32,135,75,182.5,392.5,F,Open,Raw,SBD,,,,Yes
5,Charlie Mendez,USA,TX,67.5,66.2,24,152.5,77.5,157.5,387.5,F,Open,Raw,SBD,,,,Yes
6,Bailey Stettmeier,USA,AR,67.5,64.2,20,142.5,72.5,162.5,377.5,F,Open,Raw,SBD,,,,Yes
7,Paige Miller,USA,CA,67.5,66.8,27,135,72.5,165,372.5,F,Open,Raw,SBD,,,,Yes
8,Julia Cap,USA,HI,67.5,67,29,140,65,162.5,367.5,F,Open,Raw,SBD,,,,Yes
9,Daisy De La Rosa,USA,TX,67.5,66.1,23,125,75,155,355,F,Open,Raw,SBD,,,,Yes
10,Laura Williams #2,USA,TX,67.5,62.1,48,125,85,142.5,352.5,F,Open,Raw,SBD,,,,Yes
11,Alyssa Verley,USA,FL,67.5,66.3,28,120,70,150,340,F,Open,Raw,SBD,,,,Yes
12,Melaina King,USA,NY,67.5,65.7,27,117.5,65,152.5,335,F,Open,Raw,SBD,,,,Yes
13,Andrea Tuchman,USA,IN,67.5,65.7,35,130,60,145,335,F,Open,Raw,SBD,,,,Yes
14,Paola Rodelas,USA,HI,67.5,66.3,31,125,67.5,132.5,325,F,Open,Raw,SBD,,,,Yes
15,Jessica Vien,USA,CA,67.5,65.6,25,110,55,150,315,F,Open,Raw,SBD,,,,Yes
16,Carla Green,USA,IL,67.5,66.9,36,90,55,150,295,F,Open,Raw,SBD,,,,Yes
DQ,Keandra McGarr,USA,CO,67.5,64.7,27,117.5,77.5,,,F,Open,Raw,SBD,,,,Yes
DQ,Liz Thoman,USA,WY,67.5,66.6,27,,90,177.5,,F,Open,Raw,SBD,,,,Yes
1,Niara Valentine,USA,NY,75,71.7,22,167.5,100,200,467.5,F,Open,Raw,SBD,,,,Yes
2,Tayler Claflin,USA,OK,75,72.6,19,180,110.5,162.5,453,F,Open,Raw,SBD,,,,Yes
3,Emily Reuland Zwyer,USA,SC,75,70.4,26,172.5,82.5,182.5,437.5,F,Open,Raw,SBD,,,,Yes
4,Taylor Porter,USA,UT,75,74.6,23,165,97.5,172.5,435,F,Open,Raw,SBD,,,,Yes
5,Kris Kobza,USA,AZ,75,72.4,51,150,92.5,187.5,430,F,Open,Raw,SBD,,,,Yes
6,Elizabeth Leonhardt,USA,KY,75,71.1,25,157.5,75,195,427.5,F,Open,Raw,SBD,,,,Yes
7,Amanda Lewis,USA,IA,75,74,37,147.5,75,167.5,390,F,Open,Raw,SBD,,,,Yes
8,Leah Conley,USA,CA,75,74.9,35,130,80,167.5,377.5,F,Open,Raw,SBD,,,,Yes
9,Rebecca Wilder,USA,VA,75,71.8,33,150,75,150,375,F,Open,Raw,SBD,,,,Yes
10,Jennifer Wills,USA,CA,75,72.8,54,122.5,85,165,372.5,F,Open,Raw,SBD,,87.5,,Yes
11,Kristen Lawson,USA,CA,75,69.5,36,150,55,162.5,367.5,F,Open,Raw,SBD,,,,Yes
12,Maggie Kuhn,USA,OH,75,73.7,57,127.5,75,160.5,363,F,Open,Raw,SBD,,,,Yes
13,Meghan Trebilco,Canada,,75,71.6,25,130,85,142.5,357.5,F,Open,Raw,SBD,,,,Yes
14,Samantha Scardino,USA,CA,75,73.3,26,122.5,65,167.5,355,F,Open,Raw,SBD,,,,Yes
15,Rosaura Pagan,USA,CA,75,73.5,28,137.5,70,145,352.5,F,Open,Raw,SBD,,,,Yes
DQ,Crystal McCullough,USA,NC,75,73.1,42,,85.5,172.5,,F,Open,Raw,SBD,,,,Yes
DQ,Gayle Lujan,USA,CO,75,74.5,52,122.5,,165,,F,Open,Raw,SBD,,,,Yes
1,Michelle Vandeburgh,USA,CA,82.5,78.1,35,147.5,105,190,442.5,F,Open,Raw,SBD,,,,Yes
2,Amber Burns,USA,KS,82.5,81.8,30,170,92.5,175,437.5,F,Open,Raw,SBD,,,,Yes
3,Traviz Cabatingan,USA,CA,82.5,81,32,150,95,185,430,F,Open,Raw,SBD,,,,Yes
4,Leila Galloway,USA,TX,82.5,78.5,40,147.5,82.5,192.5,422.5,F,Open,Raw,SBD,,,,Yes
5,Tina Collins #1,USA,TX,82.5,79.8,49,155,92.5,172.5,420,F,Open,Raw,SBD,,,175,Yes
6,Rebecca LaMar,USA,MI,82.5,81.9,28,155,85,170,410,F,Open,Raw,SBD,,,,Yes
7,Cecillia French,USA,CA,82.5,81.3,30,137.5,75,165,377.5,F,Open,Raw,SBD,,,,Yes
8,Christina Cope,USA,NJ,82.5,81.4,32,130,75,165,370,F,Open,Raw,SBD,,,,Yes
1,Nichole Holzum,USA,MO,90,86.5,31,160,82.5,195,437.5,F,Open,Raw,SBD,,,,Yes
2,Leah Whitmer,USA,IA,90,83.7,28,165,80,172.5,417.5,F,Open,Raw,SBD,,,,Yes
3,Deyana Stuebner,Australia,,90,88.9,28,140,85,180,405,F,Open,Raw,SBD,,,,Yes
4,Donnie Rogers,USA,HI,90,89.8,47,160,82.5,160,402.5,F,Open,Raw,SBD,,,,Yes
5,Christy James-Moser,USA,ID,90,87.3,42,132.5,70,172.5,375,F,Open,Raw,SBD,,,,Yes
1,Erin Palma,USA,MT,90+,101.1,26,210,102.5,227.5,540,F,Open,Raw,SBD,,,,Yes
2,Ogechi Akalegbere,USA,MD,90+,98.7,30,217.5,110,207.5,535,F,Open,Raw,SBD,228,,,Yes
3,Grace Tacuyan-Witt,USA,Guam,90+,101.4,41,162.5,92.5,202.5,457.5,F,Open,Raw,SBD,,,,Yes
4,Jackie Stevens,USA,OK,90+,123,28,185,87.5,182.5,455,F,Open,Raw,SBD,,,,Yes
5,Kimberly Einstein #1,USA,NY,90+,126.1,34,167.5,90,190,447.5,F,Open,Raw,SBD,,,,Yes
6,Maria Chavira,USA,TX,90+,134,34,160,97.5,182.5,440,F,Open,Raw,SBD,,,,Yes
DQ,Alexandra Green,USA,CA,90+,125.8,24,,72.5,160,,F,Open,Raw,SBD,,,,Yes
DQ,Imelda Fowler,USA,CA,44,39.9,58,67.5,47.5,,,F,Masters 55-59,Raw,SBD,,,,Yes
1,Stephanie Stickley,USA,CA,48,47.1,51,82.5,47.5,105,235,F,Masters 50-54,Raw,SBD,,,,Yes
1,Christina Taylor,USA,TX,52,50.8,49,82.5,60.5,107.5,250.5,F,Masters 45-49,Raw,SBD,,61.5,,Yes
1,Nicole Lamartine,USA,WY,56,54.8,43,122.5,67.5,150,340,F,Masters 40-44,Raw,SBD,,,,Yes
1,Lisa Nguyen Johnson,USA,CA,56,53.5,45,117.5,60,162.5,340,F,Masters 45-49,Raw,SBD,,,,Yes
1,Jen Paullin,USA,IA,60,58.6,41,102.5,50,127.5,280,F,Masters 40-44,Raw,SBD,,,,Yes
1,Magdalena Avendaño,USA,CA,60,58,55,97.5,75,132.5,305,F,Masters 55-59,Raw,SBD,,,,Yes
1,Valerie Smith #1,USA,GA,67.5,65.9,44,125,93,175,393,F,Masters 40-44,Raw,SBD,,,,Yes
2,Stacey Otlin,USA,CA,67.5,66.9,41,137.5,80,175,392.5,F,Masters 40-44,Raw,SBD,,,,Yes
3,Megan Laker,USA,IN,67.5,64.2,40,135,80,137.5,352.5,F,Masters 40-44,Raw,SBD,,,,Yes
1,Laura Williams #2,USA,TX,67.5,62.1,48,125,85,142.5,352.5,F,Masters 45-49,Raw,SBD,,,,Yes
2,Shannon Paulson,USA,CA,67.5,65.1,48,80,80,132.5,292.5,F,Masters 45-49,Raw,SBD,,,,Yes
3,Misty Nikula,USA,OR,67.5,65.9,49,87.5,52.5,137.5,277.5,F,Masters 45-49,Raw,SBD,,,,Yes
1,Sally Goldman,USA,CA,67.5,66.3,55,125,75,150,350,F,Masters 55-59,Raw,SBD,133,,,Yes
2,Kay Walden,USA,KS,67.5,66.7,58,130,65,142.5,337.5,F,Masters 55-59,Raw,SBD,,,,Yes
1,Hally Killion,USA,WY,75,70.4,40,130,75,175,380,F,Masters 40-44,Raw,SBD,,,,Yes
DQ,Crystal McCullough,USA,NC,75,73.1,42,,85.5,172.5,,F,Masters 40-44,Raw,SBD,,,,Yes
1,Tracy Sparks,USA,AL,75,74.6,49,105,65,142.5,312.5,F,Masters 45-49,Raw,SBD,,,,Yes
1,Kris Kobza,USA,AZ,75,72.4,51,150,92.5,187.5,430,F,Masters 50-54,Raw,SBD,,,,Yes
2,Jennifer Wills,USA,CA,75,72.8,54,122.5,85,165,372.5,F,Masters 50-54,Raw,SBD,,87.5,,Yes
DQ,Gayle Lujan,USA,CO,75,74.5,52,122.5,,165,,F,Masters 50-54,Raw,SBD,,,,Yes
1,Maggie Kuhn,USA,OH,75,73.7,57,127.5,75,160.5,363,F,Masters 55-59,Raw,SBD,,,,Yes
2,Kelly Melendez,USA,FL,75,72.3,59,75,60,132.5,267.5,F,Masters 55-59,Raw,SBD,,,,Yes
1,Tina Collins #1,USA,TX,82.5,79.8,49,155,92.5,172.5,420,F,Masters 45-49,Raw,SBD,,,175,Yes
1,Christy James-Moser,USA,ID,90,87.3,42,132.5,70,172.5,375,F,Masters 40-44,Raw,SBD,,,,Yes
1,Donnie Rogers,USA,HI,90,89.8,47,160,82.5,160,402.5,F,Masters 45-49,Raw,SBD,,,,Yes
2,Julia Sweet,USA,IN,90,88.1,48,65,85,137.5,287.5,F,Masters 45-49,Raw,SBD,,,,Yes
1,Marie Metcalf,USA,KY,90,85.9,70,57.5,47.5,90,195,F,Masters 70-74,Raw,SBD,,,,Yes
1,Grace Tacuyan-Witt,USA,Guam,90+,101.4,41,162.5,92.5,202.5,457.5,F,Masters 40-44,Raw,SBD,,,,Yes
1,Laura Olshak,USA,IL,90+,122.7,49,115,75,175,365,F,Masters 45-49,Raw,SBD,,,,Yes
1,Tanye Lacombe,USA,TX,90+,121.5,58,120,72.5,137.5,330,F,Masters 55-59,Raw,SBD,,,142.5,Yes
1,Mark Anzalone,USA,HI,56,56,19,125,110,200,435,M,Juniors 15-19,Raw,SBD,,,,Yes
1,Justin Bonaparte,USA,NV,60,57.9,23,182.5,105,215,502.5,M,Juniors 20-23,Raw,SBD,,,,Yes
2,Logan Kent,USA,OH,60,58.5,22,185.5,85,215.5,486,M,Juniors 20-23,Raw,SBD,,,,Yes
3,Roman Valentine,USA,CA,60,59.8,20,162.5,90,197.5,450,M,Juniors 20-23,Raw,SBD,,,,Yes
4,Joshua Seno,USA,CA,60,59.8,21,147.5,107.5,192.5,447.5,M,Juniors 20-23,Raw,SBD,,,,Yes
1,Ricardo Rangel,USA,NY,67.5,66,17,172.5,92.5,250,515,M,Juniors 15-19,Raw,SBD,,,,Yes
2,Hunter Weaver,USA,FL,67.5,66.5,16,160,112.5,190,462.5,M,Juniors 15-19,Raw,SBD,,,,Yes
3,Ezra Newell,USA,NM,67.5,64.6,17,160,90,192.5,442.5,M,Juniors 15-19,Raw,SBD,,,,Yes
1,Pham Tran,USA,CA,67.5,66.5,23,185,125,237.5,547.5,M,Juniors 20-23,Raw,SBD,,,,Yes
2,Albert Alberto,USA,NJ,67.5,67.5,22,187.5,127.5,217.5,532.5,M,Juniors 20-23,Raw,SBD,,,,Yes
3,Evan Diaz,USA,CA,67.5,67.2,22,180,90,217.5,487.5,M,Juniors 20-23,Raw,SBD,,,,Yes
4,Julian Elizarraras,USA,CA,67.5,67,23,155,105,200,460,M,Juniors 20-23,Raw,SBD,,,,Yes
1,Bryce Alig,USA,TN,75,73.4,19,205,115,212.5,532.5,M,Juniors 15-19,Raw,SBD,,,,Yes
1,Rafael Garcia,USA,CA,75,74.9,23,210,135,260,605,M,Juniors 20-23,Raw,SBD,,,,Yes
2,Brian Adams,USA,NC,75,73.3,22,185,130,242.5,557.5,M,Juniors 20-23,Raw,SBD,,,,Yes
3,Dynn Javier,USA,CA,75,72.5,22,187.5,105,230,522.5,M,Juniors 20-23,Raw,SBD,,,,Yes
4,Miguel Hurtado,USA,CA,75,73.5,22,165,130,205,500,M,Juniors 20-23,Raw,SBD,,,,Yes
1,Christian Aquino #1,USA,NV,82.5,81.6,22,205,145,250,600,M,Juniors 20-23,Raw,SBD,,,,Yes
2,Jeff Briere,USA,WY,82.5,79.8,21,177.5,155,232.5,565,M,Juniors 20-23,Raw,SBD,,,,Yes
3,Alfonso Martinez,USA,CA,82.5,80.9,23,177.5,122.5,200,500,M,Juniors 20-23,Raw,SBD,,,,Yes
1,Parker Musselwhite,USA,TX,90,88.7,19,262.5,132.5,262.5,657.5,M,Juniors 15-19,Raw,SBD,,,,Yes
2,Tyler Bachman,USA,NJ,90,86.8,17,195,120,230,545,M,Juniors 15-19,Raw,SBD,,,,Yes
1,Landon Jones,USA,TX,90,87.2,23,215,145,230,590,M,Juniors 20-23,Raw,SBD,,,,Yes
2,Riley Sanchez,USA,WY,90,88.8,23,197.5,145,175,517.5,M,Juniors 20-23,Raw,SBD,,,,Yes
1,Kristian Barit,USA,NV,100,98.6,19,275,162.5,285,722.5,M,Juniors 15-19,Raw,SBD,,,292.5,Yes
1,Marc Sanchez,USA,CA,100,99.1,21,265,137.5,295,697.5,M,Juniors 20-23,Raw,SBD,,,,Yes
1,Mackenzie Rowell,USA,NC,110,103.9,19,225,135,240,600,M,Juniors 15-19,Raw,SBD,,,,Yes
1,Thor Haskin,USA,NC,110,105.9,21,285,170,300,755,M,Juniors 20-23,Raw,SBD,,,,Yes
2,Randy Parker,USA,AL,110,104.7,22,242.5,177.5,250,670,M,Juniors 20-23,Raw,SBD,,,,Yes
3,Micheal Lucero,USA,CA,110,108.4,23,235,155,240,630,M,Juniors 20-23,Raw,SBD,,,,Yes
DQ,Kenneth Zimmerman,USA,OH,110,103.8,23,,190,287.5,,M,Juniors 20-23,Raw,SBD,,,,Yes
1,Tristan Rice,USA,MD,125,119,16,257.5,112.5,245,615,M,Juniors 15-19,Raw,SBD,,,,Yes
2,Wyatt Jensen,USA,MT,125,121.4,17,225,135,240,600,M,Juniors 15-19,Raw,SBD,,,,Yes
1,Erick Garcia #1,USA,CA,125,123.1,23,275,190,262.5,727.5,M,Juniors 20-23,Raw,SBD,,,,Yes
2,Clifford Fortune,USA,VA,125,123.6,23,257.5,182.5,272.5,712.5,M,Juniors 20-23,Raw,SBD,,,,Yes
DQ,Kaleb Greener,USA,IN,125,117.2,21,272.5,,320,,M,Juniors 20-23,Raw,SBD,,,,Yes
1,Roger Guillory,USA,MT,140,132.7,20,280,190,276,746,M,Juniors 20-23,Raw,SBD,,,,Yes
2,William Meadows,USA,NC,140,136.8,21,282.5,157.5,265,705,M,Juniors 20-23,Raw,SBD,,,,Yes
1,Harley Redd,USA,OH,140+,147.5,19,270,167.5,272.5,710,M,Juniors 15-19,Raw,SBD,,,,Yes
1,Christopher Castaneda,USA,CA,56,53.5,24,157.5,102.5,202.5,462.5,M,Open,Raw,SBD,,,,Yes
2,Mark Anzalone,USA,HI,56,56,19,125,110,200,435,M,Open,Raw,SBD,,,,Yes
3,Alan Le,USA,IL,56,55.4,26,140,87.5,187.5,415,M,Open,Raw,SBD,,,,Yes
1,Logan Kent,USA,OH,60,58.5,22,185.5,85,215.5,486,M,Open,Raw,SBD,,,,Yes
2,Roman Valentine,USA,CA,60,59.8,20,162.5,90,197.5,450,M,Open,Raw,SBD,,,,Yes
DQ,Clayton Makiya,USA,HI,60,58,53,,,,,M,Open,Raw,SBD,,,,Yes
1,Michael Estrella,USA,WA,67.5,67.2,32,207.5,167.5,262.5,637.5,M,Open,Raw,SBD,,,,Yes
2,Joe Chau,USA,CA,67.5,67.4,25,200,127.5,285,612.5,M,Open,Raw,SBD,,,,Yes
3,Vincent Yacuzzi Jr,USA,FL,67.5,66.5,30,205,125,242.5,572.5,M,Open,Raw,SBD,,,,Yes
4,Vincent Chieu,USA,CA,67.5,65.7,26,200,120,250,570,M,Open,Raw,SBD,,,,Yes
5,Jason Vicente,USA,CA,67.5,66.4,34,180,145,235,560,M,Open,Raw,SBD,,,,Yes
6,Albert Caval,USA,NV,67.5,65.9,38,200,107.5,250,557.5,M,Open,Raw,SBD,,,,Yes
7,Rogelio Magbual Jr,USA,NV,67.5,67.4,29,175,150,232.5,557.5,M,Open,Raw,SBD,,,,Yes
8,Matthew Smith #1,USA,AZ,67.5,65.9,25,192.5,105,250,547.5,M,Open,Raw,SBD,,,,Yes
9,Albert Alberto,USA,NJ,67.5,67.5,22,187.5,127.5,217.5,532.5,M,Open,Raw,SBD,,,,Yes
10,Kevin Dema-Ala,USA,Guam,67.5,65.6,24,192.5,105,227.5,525,M,Open,Raw,SBD,,,,Yes
11,Melvin Caballero,USA,CA,67.5,67.5,25,167.5,137.5,217.5,522.5,M,Open,Raw,SBD,,,,Yes
12,Evan Diaz,USA,CA,67.5,67.2,22,180,90,217.5,487.5,M,Open,Raw,SBD,,,,Yes
1,Josh Hyaduck,USA,CO,75,74.5,31,265,165,310,740,M,Open,Raw,SBD,,,,Yes
2,Dean Chung,USA,CA,75,74.9,25,240,155,317.5,712.5,M,Open,Raw,SBD,,,,Yes
3,Steve Mar,USA,CA,75,71,31,210,137.5,247.5,595,M,Open,Raw,SBD,,,,Yes
4,Robert Rabot,USA,CA,75,73.7,30,190,155,237.5,582.5,M,Open,Raw,SBD,,,,Yes
5,Cory Ferguson,USA,GA,75,74.6,24,205,107.5,250,562.5,M,Open,Raw,SBD,,,,Yes
G,Samuel Yoon,USA,CA,75,68.1,25,192.5,120,247.5,560,M,Open,Raw,SBD,,,,Yes
6,Brian Adams,USA,NC,75,73.3,22,185,130,242.5,557.5,M,Open,Raw,SBD,,,,Yes
7,Timothy Dumancas,USA,CA,75,74.8,27,187.5,117.5,245,550,M,Open,Raw,SBD,,,,Yes
8,Craig Garkie,USA,IL,75,73.6,30,190,122.5,235,547.5,M,Open,Raw,SBD,,,,Yes
9,Kyle Vilayvanh,USA,WA,75,74.7,30,197.5,120,230,547.5,M,Open,Raw,SBD,,,,Yes
1,Jawon Garrison,USA,AL,82.5,80.3,30,287.5,192.5,300,780,M,Open,Raw,SBD,,,,Yes
2,Dexter Jones,USA,OH,82.5,82.2,27,280,202.5,295,777.5,M,Open,Raw,SBD,,,,Yes
3,Philip Pohle,USA,CA,82.5,81.3,25,197.5,130,260,587.5,M,Open,Raw,SBD,,,,Yes
4,Kyle Steed,USA,WY,82.5,81.3,36,215,117.5,245,577.5,M,Open,Raw,SBD,,,,Yes
DQ,Brian Smith,USA,GA,82.5,82.1,40,,170,247.5,,M,Open,Raw,SBD,,,,Yes
1,Lenny Wicks,USA,OH,90,87.6,31,310,172.5,320,802.5,M,Open,Raw,SBD,,,,Yes
2,James Clifford,USA,NV,90,89.4,28,245,150,302.5,697.5,M,Open,Raw,SBD,,,,Yes
3,Kirk Whittenberg,USA,CA,90,88.3,36,220,192.5,260,672.5,M,Open,Raw,SBD,,,,Yes
4,Colton Collins,USA,GA,90,89.2,25,242.5,155,265,662.5,M,Open,Raw,SBD,,,,Yes
5,Parker Musselwhite,USA,TX,90,88.7,19,262.5,132.5,262.5,657.5,M,Open,Raw,SBD,,,,Yes
6,Jason Warren,USA,NV,90,88.8,24,217.5,142.5,265,625,M,Open,Raw,SBD,,,,Yes
1,Cardell Oliver,USA,GA,100,99.5,40,270,190,327.5,787.5,M,Open,Raw,SBD,,,337.5,Yes
2,Lucas Johnson,USA,CA,100,98.1,27,252.5,150,335.5,738,M,Open,Raw,SBD,,,338,Yes
3,Lee Seeley,USA,OR,100,98.4,29,245,180,300,725,M,Open,Raw,SBD,,,,Yes
G,Gregory Costa,USA,CA,100,96,24,245,160,290,695,M,Open,Raw,SBD,,,,Yes
4,Shane Pham,USA,NV,100,98.7,26,250,155,287.5,692.5,M,Open,Raw,SBD,,,,Yes
5,Nick Squires,USA,CA,100,100,32,247.5,160,280,687.5,M,Open,Raw,SBD,,,,Yes
6,Troy Zuroske,USA,WA,100,99,27,240,145,295,680,M,Open,Raw,SBD,,,,Yes
7,Josh Laven,USA,CO,100,97.3,37,215,157.5,257.5,630,M,Open,Raw,SBD,,,,Yes
8,Patrick Grennan,USA,NV,100,95.4,32,220,145,257.5,622.5,M,Open,Raw,SBD,,,,Yes
9,Eric Levy,USA,GA,100,97.4,46,210,125,267.5,602.5,M,Open,Raw,SBD,,,,Yes
10,Mathew Mann,USA,IA,100,98.3,37,210,142.5,250,602.5,M,Open,Raw,SBD,,,,Yes
DQ,Tyler Solorzano,USA,UT,100,99.6,24,262.5,190,,,M,Open,Raw,SBD,,,,Yes
1,Vincent Jackson,USA,AR,110,103.9,30,275,175,347.5,797.5,M,Open,Raw,SBD,,,,Yes
2,Jamil Spears,USA,AZ,110,108.6,29,240,175,350,765,M,Open,Raw,SBD,,,,Yes
3,Joseph Robinson,USA,VA,110,102.4,28,280.5,180,295,755.5,M,Open,Raw,SBD,,,,Yes
4,Steve Thompson,USA,OH,110,109,42,257.5,212.5,280,750,M,Open,Raw,SBD,,,,Yes
5,Austin Schmidt,USA,NE,110,104.9,24,255,185,275,715,M,Open,Raw,SBD,,,,Yes
6,Jeremy Grimm,USA,IA,110,107.6,38,230,157.5,265,652.5,M,Open,Raw,SBD,,,,Yes
7,Micheal Lucero,USA,CA,110,108.4,23,235,155,240,630,M,Open,Raw,SBD,,,,Yes
DQ,Kenneth Zimmerman,USA,OH,110,103.8,23,,190,287.5,,M,Open,Raw,SBD,,,,Yes
DQ,Phillip Schunks,USA,KY,110,108,30,,190,,,M,Open,Raw,SBD,,,,Yes
1,Anthony Salas #1,USA,Guam,125,122.2,28,287.5,212.5,300,800,M,Open,Raw,SBD,,,,Yes
2,Damian Solis,USA,NC,125,123.7,32,250,172.5,317.5,740,M,Open,Raw,SBD,,,,Yes
3,Erick Garcia #1,USA,CA,125,123.1,23,275,190,262.5,727.5,M,Open,Raw,SBD,,,,Yes
4,Gregory Correa,USA,CA,125,121.6,33,247.5,182.5,285,715,M,Open,Raw,SBD,,,,Yes
5,Alex Stults,USA,CA,125,121,28,257.5,182.5,270,710,M,Open,Raw,SBD,,,,Yes
6,Kyle Thigpen,USA,OH,125,124,40,240,165,272.5,677.5,M,Open,Raw,SBD,,,,Yes
7,Daniel Swalls,USA,IN,125,122.5,53,212.5,160,262.5,635,M,Open,Raw,SBD,,,,Yes
1,Adam Rockwell,USA,CA,140,140,25,250,207.5,310,767.5,M,Open,Raw,SBD,,,,Yes
2,Roger Guillory,USA,MT,140,132.7,20,280,190,276,746,M,Open,Raw,SBD,,,,Yes
3,Salvador Alejandro Martinez,USA,NC,140,137.2,24,250,182.5,250,682.5,M,Open,Raw,SBD,,,,Yes
4,Andrew Lewis #2,USA,AL,140,135,35,247.5,182.5,237.5,667.5,M,Open,Raw,SBD,,,,Yes
1,Tyree Dunn,USA,WI,140+,159,30,365,220,345,930,M,Open,Raw,SBD,,,,Yes
2,Emmanuel Bravo,USA,CA,140+,154.4,24,307.5,205,320,832.5,M,Open,Raw,SBD,,,,Yes
3,Richard Castillo,USA,NV,140+,146.4,26,302.5,220,290,812.5,M,Open,Raw,SBD,,,,Yes
4,Elias Abner,USA,KY,140+,163.3,28,320,182.5,307.5,810,M,Open,Raw,SBD,,,,Yes
5,Jason Schrauth,USA,OR,140+,158.2,32,265,212.5,325,802.5,M,Open,Raw,SBD,,,,Yes
6,Joey Roberts,USA,IA,140+,142.9,25,290,192.5,307.5,790,M,Open,Raw,SBD,,,,Yes
7,Gabriel Alderette,USA,AZ,140+,148.5,49,217.5,187.5,250.5,655.5,M,Open,Raw,SBD,,,257.5,Yes
DQ,Rudy Harbin,USA,MI,140+,202.5,31,,,,,M,Open,Raw,SBD,,,,Yes
1,Andy Friend,USA,OR,56,55.4,45,130,85,175,390,M,Masters 45-49,Raw,SBD,,,,Yes
1,Francisco Pardorla,USA,CA,60,59,51,152.5,110,192.5,455,M,Masters 50-54,Raw,SBD,,,,Yes
DQ,Clayton Makiya,USA,HI,60,58,53,,,,,M,Masters 50-54,Raw,SBD,,,,Yes
1,Gordon Santee,USA,CA,67.5,62.1,72,87.5,75,150,312.5,M,Masters 70-74,Raw,SBD,,,155,Yes
1,Rob Engelman,USA,NC,75,72,46,167.5,120,195,482.5,M,Masters 45-49,Raw,SBD,,,,Yes
1,Bernardo Separa,USA,CA,75,74.6,50,182.5,157.5,212.5,552.5,M,Masters 50-54,Raw,SBD,,,,Yes
2,Matthew Chapman #1,USA,HI,75,74.3,50,157.5,122.5,165,445,M,Masters 50-54,Raw,SBD,,,,Yes
1,Jeff McConnell,USA,OR,75,74.1,58,145,122.5,182.5,450,M,Masters 55-59,Raw,SBD,,,,Yes
1,Michael Stewart,USA,NM,75,73,72,145.5,95,192.5,433,M,Masters 70-74,Raw,SBD,,,,Yes
1,Tom Miller #1,USA,CA,75,74.6,77,107.5,55,145,307.5,M,Masters 75-79,Raw,SBD,,,,Yes
1,Jim Gallagher #1,USA,CA,75,73.2,83,95,75,172.5,342.5,M,Masters 80+,Raw,SBD,,,,Yes
DQ,Brian Smith,USA,GA,82.5,82.1,40,,170,247.5,,M,Masters 40-44,Raw,SBD,,,,Yes
1,Ryan Thiessen,Canada,,82.5,81.5,46,205,135,240,580,M,Masters 45-49,Raw,SBD,210.5,,,Yes
2,Jason Roberts #2,USA,HI,82.5,81.4,49,175,130,210,515,M,Masters 45-49,Raw,SBD,,,,Yes
1,Daniel Mahan,USA,CA,82.5,82.4,52,220,138.5,272.5,631,M,Masters 50-54,Raw,SBD,,,,Yes
1,Gerald Tomooka,USA,HI,82.5,80.5,56,170,117.5,175,462.5,M,Masters 55-59,Raw,SBD,,,,Yes
2,Michael Morgan,USA,KY,82.5,79.3,57,132.5,110,175,417.5,M,Masters 55-59,Raw,SBD,,,,Yes
1,Alan Levine,USA,OR,82.5,78.8,69,142.5,102.5,172.5,417.5,M,Masters 65-69,Raw,SBD,145,105,,Yes
1,Joel Ruzich,USA,WA,90,83.8,61,137.5,92.5,160,390,M,Masters 60-64,Raw,SBD,,,,Yes
1,Terence Plotsky,USA,CA,90,86.4,77,105,70,150,325,M,Masters 75-79,Raw,SBD,,,,Yes
1,Cardell Oliver,USA,GA,100,99.5,40,270,190,327.5,787.5,M,Masters 40-44,Raw,SBD,,,337.5,Yes
2,Terry Smith #1,USA,KY,100,93.1,42,220,145,250,615,M,Masters 40-44,Raw,SBD,,,,Yes
1,Eric Levy,USA,GA,100,97.4,46,210,125,267.5,602.5,M,Masters 45-49,Raw,SBD,,,,Yes
DQ,Michael Novak Jr,USA,NY,100,98.8,46,,,,,M,Masters 45-49,Raw,SBD,,,,Yes
1,David Nix,USA,TX,100,98.4,50,212.5,147.5,220,580,M,Masters 50-54,Raw,SBD,,,,Yes
2,Gilbert Ikehara,USA,HI,100,97,52,207.5,150,187.5,545,M,Masters 50-54,Raw,SBD,,,,Yes
1,Barry Charles,USA,NM,100,96.2,56,185,127.5,245,557.5,M,Masters 55-59,Raw,SBD,,,,Yes
2,Kevin Robinson,USA,NV,100,93.5,55,182.5,135,195,512.5,M,Masters 55-59,Raw,SBD,,,,Yes
1,Larry Soderberg,USA,IA,100,91,68,152.5,150,200,502.5,M,Masters 65-69,Raw,SBD,,,,Yes
2,Mitch Alderman,USA,FL,100,92.7,69,135,107.5,180,422.5,M,Masters 65-69,Raw,SBD,,,,Yes
1,Jim McKenna,USA,PA,100,95.6,70,67.5,138,125,330.5,M,Masters 70-74,Raw,SBD,,,,Yes
1,Steve Thompson,USA,OH,110,109,42,257.5,212.5,280,750,M,Masters 40-44,Raw,SBD,,,,Yes
2,Michael Jurgelewicz,USA,CT,110,104.1,40,227.5,165,262.5,655,M,Masters 40-44,Raw,SBD,,,,Yes
1,Eric Ranney,USA,AZ,110,108.8,45,247.5,155,285,687.5,M,Masters 45-49,Raw,SBD,,,,Yes
1,Curt Shaver,USA,IA,110,102.1,50,182.5,182.5,250,615,M,Masters 50-54,Raw,SBD,,,,Yes
1,Anand Pai,USA,CA,110,107.7,58,207.5,105,232.5,545,M,Masters 55-59,Raw,SBD,,,,Yes
1,Antony Arakkal,USA,MI,125,122,40,290,157.5,295,742.5,M,Masters 40-44,Raw,SBD,,,,Yes
2,Kyle Thigpen,USA,OH,125,124,40,240,165,272.5,677.5,M,Masters 40-44,Raw,SBD,,,,Yes
1,Daniel Swalls,USA,IN,125,122.5,53,212.5,160,262.5,635,M,Masters 50-54,Raw,SBD,,,,Yes
1,Joe Green,USA,GA,125,122.4,63,175,127.5,193,495.5,M,Masters 60-64,Raw,SBD,,130,200,Yes
DQ,Robert Eccleston,USA,CA,140,137.2,46,182.5,175,,,M,Masters 45-49,Raw,SBD,,,,Yes
1,Gabriel Alderette,USA,AZ,140+,148.5,49,217.5,187.5,250.5,655.5,M,Masters 45-49,Raw,SBD,,,257.5,Yes
1,Taylor Evans #1,USA,CA,56,52.4,19,115,68,130.5,313.5,F,Juniors 15-19,Wraps,SBD,,,,Yes
1,Queene Resngit,USA,CA,56,54.2,22,105,52.5,135,292.5,F,Juniors 20-23,Wraps,SBD,,,,Yes
1,Skylar Stegall,USA,SC,60,58.9,17,115,57.5,115,287.5,F,Juniors 15-19,Wraps,SBD,,,,Yes
DQ,Brooke Rodwell,Australia,,67.5,67,22,,,,,F,Juniors 20-23,Wraps,SBD,,,,Yes
1,Kelly Rodriguez,USA,CA,75,71.9,21,165,67.5,185,417.5,F,Juniors 20-23,Wraps,SBD,,,,Yes
1,Anastasia Kokkas,USA,IN,90+,145.9,22,182.5,92.5,170,445,F,Juniors 20-23,Wraps,SBD,,,185,Yes
1,Richelle Ledesma,USA,CA,52,51,24,107.5,62.5,140,310,F,Open,Wraps,SBD,,,,Yes
1,Madi Pluss,USA,CO,56,55.1,26,137.5,55,142.5,335,F,Open,Wraps,SBD,,,,Yes
2,Shanda Guard,USA,TX,56,54.6,61,110,65,140,315,F,Open,Wraps,SBD,,,,Yes
3,Taylor Evans #1,USA,CA,56,52.4,19,115,68,130.5,313.5,F,Open,Wraps,SBD,,,,Yes
4,Kristen Archibeque,USA,CA,56,54.3,25,112.5,67.5,130,310,F,Open,Wraps,SBD,,,,Yes
5,Miriam Aileen Juan,USA,NV,56,55.5,25,102.5,47.5,130,280,F,Open,Wraps,SBD,,,,Yes
1,Brianna Fenske,USA,VA,60,59.7,29,140,85,160,385,F,Open,Wraps,SBD,,,,Yes
2,Leaha Jones,USA,IL,60,58.6,32,132.5,62.5,147.5,342.5,F,Open,Wraps,SBD,,,,Yes
3,Esther Lee,USA,CA,60,58.6,25,122.5,67.5,137.5,327.5,F,Open,Wraps,SBD,,,,Yes
1,Sarah Payne,USA,CA,67.5,66.2,33,182.5,107.5,182.5,472.5,F,Open,Wraps,SBD,,,,Yes
2,Megan Casey,USA,CO,67.5,66,34,167.5,92.5,165,425,F,Open,Wraps,SBD,,,,Yes
3,Sicily Easley,USA,CA,67.5,65.9,45,145,97.5,170,412.5,F,Open,Wraps,SBD,,,,Yes
4,Brook Anderson,USA,CO,67.5,66,42,125,72.5,137.5,335,F,Open,Wraps,SBD,,,,Yes
5,Jacquelyne Stieber,USA,CA,67.5,64.5,26,110,70,140,320,F,Open,Wraps,SBD,,,,Yes
1,Kelly Rodriguez,USA,CA,75,71.9,21,165,67.5,185,417.5,F,Open,Wraps,SBD,,,,Yes
2,Emily Adams,USA,IN,75,73.2,30,165,85,165,415,F,Open,Wraps,SBD,,,,Yes
3,Latonia Sumuel,USA,TX,75,73.7,37,145,82.5,185,412.5,F,Open,Wraps,SBD,,,,Yes
4,Charlie Cheryl Ritchie,USA,OR,75,74.2,47,132.5,95,165,392.5,F,Open,Wraps,SBD,,,170,Yes
DQ,Danielle Massigill,USA,CO,75,71.9,27,,100,200,,F,Open,Wraps,SBD,,,,Yes
1,Kim Kidd,USA,IN,82.5,78.3,44,150,97.5,192.5,440,F,Open,Wraps,SBD,,,,Yes
2,Rebecca Chermok,USA,KS,82.5,80.9,37,182.5,80,177.5,440,F,Open,Wraps,SBD,,,,Yes
3,Lola Hernandez,USA,CO,82.5,81.8,33,125,67.5,167.5,360,F,Open,Wraps,SBD,,,,Yes
1,Cecília Isicke,Brazil,,90,85.7,29,120,57.5,140,317.5,F,Open,Wraps,SBD,,,,Yes
1,Brandi Inez Sneed,USA,IN,90+,104,37,190,117.5,182.5,490,F,Open,Wraps,SBD,,,,Yes
2,Melissa Gustafson,USA,IN,90+,121.3,34,180,105,175,460,F,Open,Wraps,SBD,,,,Yes
3,Anastasia Kokkas,USA,IN,90+,145.9,22,182.5,92.5,170,445,F,Open,Wraps,SBD,,,185,Yes
1,Tamara Cook #1,USA,CA,52,50.2,40,92.5,45,135,272.5,F,Masters 40-44,Wraps,SBD,,,,Yes
2,Juanita Calvert,Canada,,52,51.3,44,105,45,115,265,F,Masters 40-44,Wraps,SBD,,,,Yes
1,Shanda Guard,USA,TX,56,54.6,61,110,65,140,315,F,Masters 60-64,Wraps,SBD,,,,Yes
1,Gail Perry,UK,,60,58.8,48,95,37.5,122.5,255,F,Masters 45-49,Wraps,SBD,,,,Yes
1,Leslie Gurr,Canada,,60,59.7,50,115,72.5,162.5,350,F,Masters 50-54,Wraps,SBD,,,,Yes
1,Tricia Waddell,Canada,,60,57.5,64,62.5,45,97.5,205,F,Masters 60-64,Wraps,SBD,,,,Yes
1,Brook Anderson,USA,CO,67.5,66,42,125,72.5,137.5,335,F,Masters 40-44,Wraps,SBD,,,,Yes
1,Sicily Easley,USA,CA,67.5,65.9,45,145,97.5,170,412.5,F,Masters 45-49,Wraps,SBD,,,,Yes
1,Paula Powell,USA,TX,67.5,66,54,107.5,65,132.5,305,F,Masters 50-54,Wraps,SBD,,,,Yes
1,Charlie Cheryl Ritchie,USA,OR,75,74.2,47,132.5,95,165,392.5,F,Masters 45-49,Wraps,SBD,,,170,Yes
1,Kim Kidd,USA,IN,82.5,78.3,44,150,97.5,192.5,440,F,Masters 40-44,Wraps,SBD,,,,Yes
1,Juanita Lee,USA,CA,90+,128.2,40,157.5,87.5,137.5,382.5,F,Masters 40-44,Wraps,SBD,,,,Yes
1,Judy Metcalf,USA,TX,90+,115.2,47,147.5,77.5,160,385,F,Masters 45-49,Wraps,SBD,,,,Yes
1,Charlotte Wareing,UK,,90+,106,56,172.5,107.5,202.5,482.5,F,Masters 55-59,Wraps,SBD,,,,Yes
1,Christopher Easler,USA,SC,67.5,67.4,17,185,85,192.5,462.5,M,Juniors 15-19,Wraps,SBD,,,200,Yes
DQ,Daniel Lucas Dollopac,USA,NV,67.5,66.2,19,,110,237.5,,M,Juniors 15-19,Wraps,SBD,,,,Yes
1,Fardin Ahmed,USA,VA,67.5,66.7,20,195,117.5,232.5,545,M,Juniors 20-23,Wraps,SBD,,,,Yes
2,Ispandiyar Kairzhan,Kazakhstan,,67.5,61.6,21,185,125,210,520,M,Juniors 20-23,Wraps,SBD,,,220,Yes
DQ,Taylor Ball #1,USA,OK,67.5,63.5,21,185,,,,M,Juniors 20-23,Wraps,SBD,,,,Yes
1,Jesse Davis,USA,VA,75,74.7,22,230,160,242.5,632.5,M,Juniors 20-23,Wraps,SBD,,,,Yes
2,Jason Kirschenmann,USA,CA,75,73.2,23,230,117.5,220,567.5,M,Juniors 20-23,Wraps,SBD,,,,Yes
1,Matthew Rodwell,Australia,,82.5,80.6,20,220,152.5,245,617.5,M,Juniors 20-23,Wraps,SBD,,,252.5,Yes
2,Eric D'Angelo,USA,SC,82.5,79.9,22,195,117.5,242.5,555,M,Juniors 20-23,Wraps,SBD,,,,Yes
3,Jordan Patterson #2,UK,,82.5,79.6,23,145,125,195,465,M,Juniors 20-23,Wraps,SBD,,,,Yes
1,Jeremy Tyson,USA,GA,90,89.4,22,235,175,245,655,M,Juniors 20-23,Wraps,SBD,,,,Yes
1,Anthony Sosa,USA,CA,100,97.6,19,217.5,175,260,652.5,M,Juniors 15-19,Wraps,SBD,,,,Yes
1,Harry Clancy,Australia,,100,99.3,21,225,142.5,240.5,608,M,Juniors 20-23,Wraps,SBD,,,,Yes
1,Gunter LaPrad,USA,GA,110,102.9,20,252.5,165,275,692.5,M,Juniors 20-23,Wraps,SBD,,,,Yes
2,Tom Anthony,USA,FL,110,107.4,23,247.5,157.5,237.5,642.5,M,Juniors 20-23,Wraps,SBD,,,,Yes
1,Anthony Garcia,USA,CA,125,119.4,21,278,173,287.5,738.5,M,Juniors 20-23,Wraps,SBD,,,,Yes
1,Brady Steiner,USA,ND,140,127.8,18,267.5,152.5,225,645,M,Juniors 15-19,Wraps,SBD,,,,Yes
1,Norman Black Jr,USA,CA,140,129.5,22,295,182.5,267.5,745,M,Juniors 20-23,Wraps,SBD,,,,Yes
1,Seyonn Chin,USA,CA,60,58.7,25,205,127.5,222.5,555,M,Open,Wraps,SBD,,,,Yes
1,Sean Fagan,USA,NY,67.5,67.1,34,195,137.5,247.5,580,M,Open,Wraps,SBD,,,,Yes
2,Seth Baldwin,USA,CO,67.5,66.5,35,182.5,115,182.5,480,M,Open,Wraps,SBD,,,,Yes
1,Nathan Walton,USA,GA,75,74.6,42,242.5,167.5,295,705,M,Open,Wraps,SBD,,,,Yes
2,Jamaal Grimes,USA,VA,75,73.5,37,232.5,127.5,305,665,M,Open,Wraps,SBD,,,,Yes
3,Jesse Davis,USA,VA,75,74.7,22,230,160,242.5,632.5,M,Open,Wraps,SBD,,,,Yes
4,Jason Kirschenmann,USA,CA,75,73.2,23,230,117.5,220,567.5,M,Open,Wraps,SBD,,,,Yes
1,Levi Perez,USA,TX,82.5,81.4,26,252.5,167.5,287.5,707.5,M,Open,Wraps,SBD,,,,Yes
2,Armando Perez,USA,FL,82.5,81.3,27,237.5,165,287.5,690,M,Open,Wraps,SBD,,,,Yes
3,Jeffrey Houska,USA,MO,82.5,82,35,257.5,157.5,267.5,682.5,M,Open,Wraps,SBD,,,,Yes
4,Nacim Ighalloune,Algeria,,82.5,82.5,25,220,145,220,585,M,Open,Wraps,SBD,,,,Yes
1,Ronnell Leftwich,USA,GA,100,97.7,29,295,182.5,318,795.5,M,Open,Wraps,SBD,,,325,Yes
2,Richard Loza,USA,CA,100,99.2,34,200,147.5,260,607.5,M,Open,Wraps,SBD,,,,Yes
1,Logan Leverett,USA,IL,110,106.9,25,347.5,192.5,335,875,M,Open,Wraps,SBD,,,,Yes
2,Boris Terry,USA,CA,110,108.2,34,322.5,215,332.5,870,M,Open,Wraps,SBD,,,,Yes
3,Jared Robinson,USA,CA,110,109.5,40,255,192.5,290,737.5,M,Open,Wraps,SBD,,,,Yes
4,Gunter LaPrad,USA,GA,110,102.9,20,252.5,165,275,692.5,M,Open,Wraps,SBD,,,,Yes
5,Jermaine Jackson,USA,CA,110,108.2,34,227.5,182.5,275,685,M,Open,Wraps,SBD,,,,Yes
6,Dameon Hardy,USA,TX,110,107.3,42,262.5,165,250,677.5,M,Open,Wraps,SBD,,,,Yes
1,Josh Spaeth,USA,WA,125,124.5,36,402.5,212.5,345,960,M,Open,Wraps,SBD,,,,Yes
2,David Cortes,USA,FL,125,113.5,24,245,147.5,245,637.5,M,Open,Wraps,SBD,,,,Yes
3,Robert Huizar,USA,CA,125,123.7,57,225,175,225,625,M,Open,Wraps,SBD,,,,Yes
DQ,Jesse Horne,USA,NC,125,117.1,24,310,,,,M,Open,Wraps,SBD,,,,Yes
1,Tyler Parlier,USA,NC,140,136.9,30,290,210,290,790,M,Open,Wraps,SBD,,,,Yes
2,Norman Black Jr,USA,CA,140,129.5,22,295,182.5,267.5,745,M,Open,Wraps,SBD,,,,Yes
3,Dennis Alegre,USA,CA,140,127.7,53,235,147.5,277.5,660,M,Open,Wraps,SBD,,,,Yes
1,Pete Pele,USA,NV,140+,141.8,30,272.5,177.5,320,770,M,Open,Wraps,SBD,,,,Yes
1,Leonard Rosenbloom,USA,UT,67.5,65.2,88,57.5,50,72.5,180,M,Masters 80+,Wraps,SBD,,,77.5,Yes
1,Nathan Walton,USA,GA,75,74.6,42,242.5,167.5,295,705,M,Masters 40-44,Wraps,SBD,,,,Yes
DQ,David Robinson,USA,CO,82.5,80.9,77,,82.5,115,,M,Masters 75-79,Wraps,SBD,,,,Yes
1,Robert Morrow,USA,CA,90,89.2,47,232.5,140,240,612.5,M,Masters 45-49,Wraps,SBD,,,,Yes
1,Gary Loyd,USA,CA,90,86.2,50,192.5,140.5,215,548,M,Masters 50-54,Wraps,SBD,,,,Yes
1,John Hare,USA,TX,90,88.8,57,230,175.5,255,660.5,M,Masters 55-59,Wraps,SBD,,,,Yes
1,Bob Kinsey,USA,CA,90,85.3,76,102.5,70,143,315.5,M,Masters 75-79,Wraps,SBD,,,147.5,Yes
1,Adam Trejo,USA,IN,100,99.3,41,266,177.5,273,716.5,M,Masters 40-44,Wraps,SBD,,,,Yes
DQ,Dain Pankratz,USA,CA,100,98.6,40,222.5,,260,,M,Masters 40-44,Wraps,SBD,,,,Yes
1,Rudy Kadlub,USA,OR,100,97.5,69,200,137.5,235,572.5,M,Masters 65-69,Wraps,SBD,205,,,Yes
1,Jared Robinson,USA,CA,110,109.5,40,255,192.5,290,737.5,M,Masters 40-44,Wraps,SBD,,,,Yes
2,Dameon Hardy,USA,TX,110,107.3,42,262.5,165,250,677.5,M,Masters 40-44,Wraps,SBD,,,,Yes
3,Dave Murphy #2,USA,CA,110,107.8,44,252.5,167.5,232.5,652.5,M,Masters 40-44,Wraps,SBD,,,,Yes
1,Duane Butterfield,USA,MI,125,121.4,42,240,172.5,250,662.5,M,Masters 40-44,Wraps,SBD,,,,Yes
1,Robert Huizar,USA,CA,125,123.7,57,225,175,225,625,M,Masters 55-59,Wraps,SBD,,,,Yes
1,Joe Dentice,USA,NV,125,121.1,60,182.5,152.5,222.5,557.5,M,Masters 60-64,Wraps,SBD,,,,Yes
1,Dennis Alegre,USA,CA,140,127.7,53,235,147.5,277.5,660,M,Masters 50-54,Wraps,SBD,,,,Yes
1,Dwon Johnson,USA,GA,140+,175.8,41,352.5,182.5,272.5,807.5,M,Masters 40-44,Wraps,SBD,,,,Yes
1,Aaliyah Garcia,USA,TX,48,46.8,17,125,60,125,310,F,Juniors 15-19,Single-ply,SBD,,,,Yes
1,Amanda Lynne Lopez,USA,TX,52,51.1,22,150,82.5,145,377.5,F,Juniors 20-23,Single-ply,SBD,,,,Yes
1,Bethanie Rodriguez,USA,TX,90+,104,16,160,102.5,145,407.5,F,Juniors 15-19,Single-ply,SBD,,,,Yes
1,April Hamon,USA,TX,52,51.1,35,130,60,142.5,332.5,F,Open,Single-ply,SBD,,,,Yes
1,Betsy Spann,USA,CA,67.5,66.8,61,105,75,147.5,327.5,F,Masters 60-64,Single-ply,SBD,,,,Yes
1,Stanislav Pryakhin,Russia,,90,85,43,205,180,270.5,655.5,M,Open,Single-ply,SBD,,,,Yes
DQ,Stefan Green,USA,WA,100,91.4,24,,,,,M,Open,Single-ply,SBD,,,,Yes
1,Joe Walden,USA,KS,82.5,80.2,62,175,90,192.5,457.5,M,Masters 60-64,Single-ply,SBD,,,,Yes
1,Stanislav Pryakhin,Russia,,90,85,43,205,180,270.5,655.5,M,Masters 40-44,Single-ply,SBD,,,,Yes
1,Joseph Holzschuh,USA,CA,110,105.2,51,240,217.5,270,727.5,M,Masters 50-54,Single-ply,SBD,,,,Yes
1,Ishbel Graham,Australia,,56,55.3,17,,55,,55,F,Juniors 15-19,Raw,B,,,,Yes
1,Queene Resngit,USA,CA,56,54.2,22,,52.5,,52.5,F,Juniors 20-23,Raw,B,,,,Yes
1,Ginger Burton,USA,IA,52,49.7,46,,87.5,,87.5,F,Open,Raw,B,,,,Yes
1,Kristen Archibeque,USA,CA,56,54.3,25,,67.5,,67.5,F,Open,Raw,B,,,,Yes
2,Elena Dias,USA,HI,56,55.3,36,,62.5,,62.5,F,Open,Raw,B,,,,Yes
1,Amanda Brady,USA,NM,60,57.5,31,,87.5,,87.5,F,Open,Raw,B,,,,Yes
1,Sarah Payne,USA,CA,67.5,66.2,33,,107.5,,107.5,F,Open,Raw,B,,,,Yes
2,Sicily Easley,USA,CA,67.5,65.9,45,,97.5,,97.5,F,Open,Raw,B,,,,Yes
3,Liz Thoman,USA,WY,67.5,66.6,27,,90,,90,F,Open,Raw,B,,,,Yes
4,Shannon Paulson,USA,CA,67.5,65.1,48,,80,,80,F,Open,Raw,B,,,,Yes
1,Crystal McCullough,USA,NC,75,73.1,42,,85.5,,85.5,F,Open,Raw,B,,,,Yes
1,Michelle Vandeburgh,USA,CA,82.5,78.1,35,,105,,105,F,Open,Raw,B,,,,Yes
1,Brandi Inez Sneed,USA,IN,90+,104,37,,117.5,,117.5,F,Open,Raw,B,,,,Yes
2,Jene Railsback,USA,CA,90+,158.9,28,,107.5,,107.5,F,Open,Raw,B,,,,Yes
3,Bridget Gardy,USA,NY,90+,117.5,36,,105,,105,F,Open,Raw,B,,,,Yes
4,Alexandra Green,USA,CA,90+,125.8,24,,72.5,,72.5,F,Open,Raw,B,,,,Yes
1,Imelda Fowler,USA,CA,44,39.9,58,,47.5,,47.5,F,Masters 55-59,Raw,B,,,,Yes
1,Ginger Burton,USA,IA,52,49.7,46,,87.5,,87.5,F,Masters 45-49,Raw,B,,,,Yes
1,Shanda Guard,USA,TX,56,54.6,61,,65,,65,F,Masters 60-64,Raw,B,,,,Yes
1,Gail Perry,UK,,60,58.8,48,,37.5,,37.5,F,Masters 45-49,Raw,B,,,,Yes
1,Sicily Easley,USA,CA,67.5,65.9,45,,97.5,,97.5,F,Masters 45-49,Raw,B,,,,Yes
2,Laura Williams #2,USA,TX,67.5,62.1,48,,85,,85,F,Masters 45-49,Raw,B,,,,Yes
3,Shannon Paulson,USA,CA,67.5,65.1,48,,80,,80,F,Masters 45-49,Raw,B,,,,Yes
1,Sally Goldman,USA,CA,67.5,66.3,55,,75,,75,F,Masters 55-59,Raw,B,,,,Yes
1,Crystal McCullough,USA,NC,75,73.1,42,,85.5,,85.5,F,Masters 40-44,Raw,B,,,,Yes
1,Charlie Cheryl Ritchie,USA,OR,75,74.2,47,,95,,95,F,Masters 45-49,Raw,B,,,,Yes
1,Kris Kobza,USA,AZ,75,72.4,51,,92.5,,92.5,F,Masters 50-54,Raw,B,,,,Yes
1,Suzanne Johnson,USA,NY,75,69.8,55,,55,,55,F,Masters 55-59,Raw,B,,,,Yes
1,Julia Sweet,USA,IN,90,88.1,48,,85,,85,F,Masters 45-49,Raw,B,,,,Yes
1,Marie Metcalf,USA,KY,90,85.9,70,,47.5,,47.5,F,Masters 70-74,Raw,B,,,,Yes
1,Judy Metcalf,USA,TX,90+,115.2,47,,77.5,,77.5,F,Masters 45-49,Raw,B,,,,Yes
1,Charlotte Wareing,UK,,90+,106,56,,107.5,,107.5,F,Masters 55-59,Raw,B,,,,Yes
2,Tanye Lacombe,USA,TX,90+,121.5,58,,72.5,,72.5,F,Masters 55-59,Raw,B,,,,Yes
1,Brian Adams,USA,NC,75,73.3,22,,130,,130,M,Juniors 20-23,Raw,B,,,,Yes
1,Kenneth Zimmerman,USA,OH,110,103.8,23,,190,,190,M,Juniors 20-23,Raw,B,,,,Yes
1,Clifford Fortune,USA,VA,125,123.6,23,,182.5,,182.5,M,Juniors 20-23,Raw,B,,,,Yes
1,Melvin Caballero,USA,CA,67.5,67.5,25,,137.5,,137.5,M,Open,Raw,B,,,,Yes
2,Michael Knapp,USA,GA,67.5,65.4,37,,100,,100,M,Open,Raw,B,,,,Yes
1,Brian Adams,USA,NC,75,73.3,22,,130,,130,M,Open,Raw,B,,,,Yes
1,Nacim Ighalloune,Algeria,,82.5,82.5,25,,145,,145,M,Open,Raw,B,,,,Yes
2,David Patterson #1,USA,LA,82.5,81.8,57,,132.5,,132.5,M,Open,Raw,B,,,,Yes
1,Marsalis Beckford,Canada,,90,88.5,32,,175,,175,M,Open,Raw,B,,,,Yes
2,Charles Stevenson,USA,CA,90,89.4,50,,165,,165,M,Open,Raw,B,,,,Yes
1,David Stensland,USA,ND,100,98.8,34,,162.5,,162.5,M,Open,Raw,B,,,,Yes
2,Kevin Nguyen #6,USA,WA,100,97.5,30,,160,,160,M,Open,Raw,B,,,,Yes
1,Boris Terry,USA,CA,110,108.2,34,,215,,215,M,Open,Raw,B,,,,Yes
2,Kenneth Zimmerman,USA,OH,110,103.8,23,,190,,190,M,Open,Raw,B,,,,Yes
1,Eric Banks #1,USA,CA,140,135.6,44,,220,,220,M,Open,Raw,B,,,,Yes
2,Andrew Lewis #2,USA,AL,140,135,35,,182.5,,182.5,M,Open,Raw,B,,,,Yes
1,Thad Tillison,USA,OH,140+,150.2,38,,237.5,,237.5,M,Open,Raw,B,,,,Yes
2,Jack Gardy,USA,NY,140+,155.3,35,,215,,215,M,Open,Raw,B,,,,Yes
3,Jason Schrauth,USA,OR,140+,158.2,32,,212.5,,212.5,M,Open,Raw,B,,,,Yes
1,Gordon Santee,USA,CA,67.5,62.1,72,,75,,75,M,Masters 70-74,Raw,B,,,,Yes
1,Rob Engelman,USA,NC,75,72,46,,120,,120,M,Masters 45-49,Raw,B,,,,Yes
1,Jeff McConnell,USA,OR,75,74.1,58,,122.5,,122.5,M,Masters 55-59,Raw,B,,,,Yes
2,Mark Laurel,USA,CA,75,74,57,,110,,110,M,Masters 55-59,Raw,B,,,,Yes
1,Gerald Lindas,USA,WI,75,70.8,82,,95,,95,M,Masters 80+,Raw,B,,,,Yes
1,Ryan Thiessen,Canada,,82.5,81.5,46,,135,,135,M,Masters 45-49,Raw,B,,,,Yes
2,Jason Roberts #2,USA,HI,82.5,81.4,49,,130,,130,M,Masters 45-49,Raw,B,,,,Yes
1,David Patterson #1,USA,LA,82.5,81.8,57,,132.5,,132.5,M,Masters 55-59,Raw,B,,,,Yes
1,Charles Stevenson,USA,CA,90,89.4,50,,165,,165,M,Masters 50-54,Raw,B,,,,Yes
2,Bryan Hartman,USA,CA,90,88.4,52,,130,,130,M,Masters 50-54,Raw,B,,,,Yes
1,Mitchell Crowe,USA,WA,90,89.3,56,,157.5,,157.5,M,Masters 55-59,Raw,B,,,,Yes
1,Adam Trejo,USA,IN,100,99.3,41,,177.5,,177.5,M,Masters 40-44,Raw,B,,,,Yes
1,David Nix,USA,TX,100,98.4,50,,147.5,,147.5,M,Masters 50-54,Raw,B,,,,Yes
1,Mitch Alderman,USA,FL,100,92.7,69,,107.5,,107.5,M,Masters 65-69,Raw,B,,,,Yes
1,Jim McKenna,USA,PA,100,95.6,70,,138,,138,M,Masters 70-74,Raw,B,,,,Yes
1,Paul McCarty,USA,LA,110,106.5,50,,195,,195,M,Masters 50-54,Raw,B,,,,Yes
2,Robert Cook,USA,TX,110,104.2,50,,182.5,,182.5,M,Masters 50-54,Raw,B,,,,Yes
DQ,Daniel Lieberman,USA,GA,110,106.8,54,,,,,M,Masters 50-54,Raw,B,,,,Yes
1,James Walker #1,USA,FL,110,102.4,60,,177.5,,177.5,M,Masters 60-64,Raw,B,,,,Yes
1,Peter Martin,USA,OR,125,119.1,49,,145,,145,M,Masters 45-49,Raw,B,,,,Yes
1,Chris Dodson,USA,CA,125,121.6,53,,185,,185,M,Masters 50-54,Raw,B,,,,Yes
1,Ted Lindberg,USA,MN,125,114.4,87,,100,,100,M,Masters 80+,Raw,B,,,,Yes
1,Eric Banks #1,USA,CA,140,135.6,44,,220,,220,M,Masters 40-44,Raw,B,,,,Yes
1,Larry Padgett,USA,CO,140,138.2,53,,190,,190,M,Masters 50-54,Raw,B,,192.5,,Yes
1,Gabriel Alderette,USA,AZ,140+,148.5,49,,187.5,,187.5,M,Masters 45-49,Raw,B,,,,Yes
1,Sam Pecktol,USA,OR,140+,153.1,64,,152.5,,152.5,M,Masters 60-64,Raw,B,,157.5,,Yes
1,Betsy Spann,USA,CA,67.5,66.8,61,,75,,75,F,Masters 60-64,Single-ply,B,,,,Yes
1,Jonathan Janbakhsh,USA,CA,67.5,66.9,29,,150,,150,M,Open,Single-ply,B,,,,Yes
1,Fernando Flores,USA,CA,90,83.9,28,,185,,185,M,Open,Single-ply,B,,,,Yes
1,Joe Walden,USA,KS,82.5,80.2,62,,90,,90,M,Masters 60-64,Single-ply,B,,,,Yes
1,Steven Phillips,USA,GA,110,104.3,68,,145,,145,M,Masters 65-69,Single-ply,B,,,,Yes
1,Howard Blackmon,USA,CO,110,104,72,,152.5,,152.5,M,Masters 70-74,Single-ply,B,,,,Yes
1,Kevin Johnson #1,USA,NY,125,121.8,64,,200,,200,M,Masters 60-64,Single-ply,B,,,,Yes
1,George Cano,USA,CA,140,126.7,49,,202.5,,202.5,M,Masters 45-49,Single-ply,B,,,,Yes
1,Wayne Jandoc,USA,CA,110,108.3,61,,182.5,,182.5,M,Masters 60-64,Multi-ply,B,,,,Yes
1,Ishbel Graham,Australia,,56,55.3,17,,,125,125,F,Juniors 15-19,Raw,D,,,,Yes
1,Queene Resngit,USA,CA,56,54.2,22,,,135,135,F,Juniors 20-23,Raw,D,,,,Yes
1,Natalie Suazo,USA,UT,52,49.5,33,,,125,125,F,Open,Raw,D,,,,Yes
1,Lisa Nguyen Johnson,USA,CA,56,53.5,45,,,162.5,162.5,F,Open,Raw,D,,,,Yes
2,Amelia Manlutac,USA,CA,56,55.1,37,,,132.5,132.5,F,Open,Raw,D,,,,Yes
3,Elena Dias,USA,HI,56,55.3,36,,,120,120,F,Open,Raw,D,,,,Yes
1,Sarah Payne,USA,CA,67.5,66.2,33,,,182.5,182.5,F,Open,Raw,D,,,,Yes
2,Liz Thoman,USA,WY,67.5,66.6,27,,,177.5,177.5,F,Open,Raw,D,,,,Yes
3,Sicily Easley,USA,CA,67.5,65.9,45,,,170,170,F,Open,Raw,D,,,,Yes
4,Paige Miller,USA,CA,67.5,66.8,27,,,165,165,F,Open,Raw,D,,,,Yes
5,Charlie Mendez,USA,TX,67.5,66.2,24,,,157.5,157.5,F,Open,Raw,D,,,,Yes
6,Carla Green,USA,IL,67.5,66.9,36,,,150,150,F,Open,Raw,D,,,,Yes
7,Jacquelyne Stieber,USA,CA,67.5,64.5,26,,,140,140,F,Open,Raw,D,,,,Yes
DQ,Keandra McGarr,USA,CO,67.5,64.7,27,,,,,F,Open,Raw,D,,,,Yes
1,Crystal McCullough,USA,NC,75,73.1,42,,,172.5,172.5,F,Open,Raw,D,,,,Yes
1,Nichole Holzum,USA,MO,90,86.5,31,,,195,195,F,Open,Raw,D,,,,Yes
1,Kimberly Einstein #1,USA,NY,90+,126.1,34,,,190,190,F,Open,Raw,D,,,,Yes
2,Jene Railsback,USA,CA,90+,158.9,28,,,185,185,F,Open,Raw,D,,,,Yes
3,Megan Teser,USA,CA,90+,99.4,33,,,182.5,182.5,F,Open,Raw,D,,,183,Yes
4,Kaitlin Bedekovich,USA,WV,90+,104.6,33,,,175,175,F,Open,Raw,D,,,,Yes
5,Alexandra Green,USA,CA,90+,125.8,24,,,160,160,F,Open,Raw,D,,,,Yes
DQ,Imelda Fowler,USA,CA,44,39.9,58,,,,,F,Masters 55-59,Raw,D,,,,Yes
1,Shanda Guard,USA,TX,56,54.6,61,,,140,140,F,Masters 60-64,Raw,D,,,,Yes
1,Gail Perry,UK,,60,58.8,48,,,122.5,122.5,F,Masters 45-49,Raw,D,,,,Yes
1,Lori Christ,USA,NM,60,58.4,61,,,97.5,97.5,F,Masters 60-64,Raw,D,,,,Yes
1,Sicily Easley,USA,CA,67.5,65.9,45,,,170,170,F,Masters 45-49,Raw,D,,,,Yes
2,Shannon Paulson,USA,CA,67.5,65.1,48,,,132.5,132.5,F,Masters 45-49,Raw,D,,,,Yes
1,Sally Goldman,USA,CA,67.5,66.3,55,,,150,150,F,Masters 55-59,Raw,D,,,,Yes
1,Teresa DeLao,USA,CA,67.5,67.5,81,,,65,65,F,Masters 80+,Raw,D,,,,Yes
1,Michelle Lawing,USA,CA,75,72,43,,,150,150,F,Masters 40-44,Raw,D,,,,Yes
1,Charlie Cheryl Ritchie,USA,OR,75,74.2,47,,,165,165,F,Masters 45-49,Raw,D,,,170,Yes
2,Steevie Bereiter,USA,CA,75,69.7,48,,,157.5,157.5,F,Masters 45-49,Raw,D,,,,Yes
1,Kris Kobza,USA,AZ,75,72.4,51,,,187.5,187.5,F,Masters 50-54,Raw,D,,,,Yes
2,Gayle Lujan,USA,CO,75,74.5,52,,,165,165,F,Masters 50-54,Raw,D,,,,Yes
1,Kelly Melendez,USA,FL,75,72.3,59,,,132.5,132.5,F,Masters 55-59,Raw,D,,,,Yes
1,Kim Kidd,USA,IN,82.5,78.3,44,,,192.5,192.5,F,Masters 40-44,Raw,D,,,,Yes
1,Christy James-Moser,USA,ID,90,87.3,42,,,172.5,172.5,F,Masters 40-44,Raw,D,,,,Yes
1,Julia Sweet,USA,IN,90,88.1,48,,,137.5,137.5,F,Masters 45-49,Raw,D,,,,Yes
1,Marie Metcalf,USA,KY,90,85.9,70,,,90,90,F,Masters 70-74,Raw,D,,,,Yes
1,Judy Metcalf,USA,TX,90+,115.2,47,,,160,160,F,Masters 45-49,Raw,D,,,,Yes
1,Charlotte Wareing,UK,,90+,106,56,,,202.5,202.5,F,Masters 55-59,Raw,D,,,,Yes
2,Tanye Lacombe,USA,TX,90+,121.5,58,,,137.5,137.5,F,Masters 55-59,Raw,D,,,142.5,Yes
3,Michelle Zimmerman,USA,CA,90+,108.5,55,,,122.5,122.5,F,Masters 55-59,Raw,D,,,,Yes
1,Ricardo Rangel,USA,NY,67.5,66,17,,,250,250,M,Juniors 15-19,Raw,D,,,,Yes
1,Ispandiyar Kairzhan,Kazakhstan,,67.5,61.6,21,,,210,210,M,Juniors 20-23,Raw,D,,,220,Yes
1,Brian Adams,USA,NC,75,73.3,22,,,242.5,242.5,M,Juniors 20-23,Raw,D,,,,Yes
1,Jackson Williams,USA,GA,90,88,17,,,205,205,M,Juniors 15-19,Raw,D,,,,Yes
1,Alan Le,USA,IL,56,55.4,26,,,187.5,187.5,M,Open,Raw,D,,,,Yes
1,Melvin Caballero,USA,CA,67.5,67.5,25,,,217.5,217.5,M,Open,Raw,D,,,,Yes
2,Michael Knapp,USA,GA,67.5,65.4,37,,,165,165,M,Open,Raw,D,,,,Yes
1,Timothy Dumancas,USA,CA,75,74.8,27,,,245,245,M,Open,Raw,D,,,,Yes
2,Brian Adams,USA,NC,75,73.3,22,,,242.5,242.5,M,Open,Raw,D,,,,Yes
1,Abner Nazario,USA,NJ,82.5,81.6,25,,,297.5,297.5,M,Open,Raw,D,,,,Yes
2,Colton Heckart,USA,TX,82.5,79.8,31,,,265,265,M,Open,Raw,D,,,,Yes
3,Brian Lahr,USA,IL,82.5,80.5,42,,,242.5,242.5,M,Open,Raw,D,,,,Yes
4,Nacim Ighalloune,Algeria,,82.5,82.5,25,,,220,220,M,Open,Raw,D,,,,Yes
1,Cardell Oliver,USA,GA,100,99.5,40,,,327.5,327.5,M,Open,Raw,D,,,337.5,Yes
2,David Stensland,USA,ND,100,98.8,34,,,287.5,287.5,M,Open,Raw,D,,,,Yes
1,Jamil Spears,USA,AZ,110,108.6,29,,,350,350,M,Open,Raw,D,,,,Yes
2,Vincent Jackson,USA,AR,110,103.9,30,,,347.5,347.5,M,Open,Raw,D,,,,Yes
3,Hugo Quinteiro,Brazil,,110,109.7,35,,,340,340,M,Open,Raw,D,,,,Yes
4,Boris Terry,USA,CA,110,108.2,34,,,332.5,332.5,M,Open,Raw,D,,,,Yes
1,Siarhei Murauyou,Belarus,,125,113.4,42,,,300,300,M,Open,Raw,D,,,,Yes
1,Dennis Alegre,USA,CA,140,127.7,53,,,277.5,277.5,M,Open,Raw,D,,,,Yes
1,Jason Schrauth,USA,OR,140+,158.2,32,,,325,325,M,Open,Raw,D,,,,Yes
2,Pete Pele,USA,NV,140+,141.8,30,,,320,320,M,Open,Raw,D,,,,Yes
3,Thad Tillison,USA,OH,140+,150.2,38,,,300,300,M,Open,Raw,D,,,,Yes
4,Clay Edgin,USA,CA,140+,154.2,38,,,282.5,282.5,M,Open,Raw,D,,,,Yes
1,Gordon Santee,USA,CA,67.5,62.1,72,,,150,150,M,Masters 70-74,Raw,D,,,155,Yes
1,Rob Engelman,USA,NC,75,72,46,,,195,195,M,Masters 45-49,Raw,D,,,,Yes
1,Jeff McConnell,USA,OR,75,74.1,58,,,182.5,182.5,M,Masters 55-59,Raw,D,,,,Yes
1,Dean Kaneshiro,USA,HI,75,70.6,63,,,210,210,M,Masters 60-64,Raw,D,,,,Yes
1,Brian Lahr,USA,IL,82.5,80.5,42,,,242.5,242.5,M,Masters 40-44,Raw,D,,,,Yes
1,Ryan Thiessen,Canada,,82.5,81.5,46,,,240,240,M,Masters 45-49,Raw,D,,,,Yes
2,Jason Roberts #2,USA,HI,82.5,81.4,49,,,210,210,M,Masters 45-49,Raw,D,,,,Yes
1,Peter McGrath,Australia,,82.5,81.6,57,,,227.5,227.5,M,Masters 55-59,Raw,D,,,232.5,Yes
2,Michael Morgan,USA,KY,82.5,79.3,57,,,175,175,M,Masters 55-59,Raw,D,,,,Yes
3,Gerald Tomooka,USA,HI,82.5,80.5,56,,,175,175,M,Masters 55-59,Raw,D,,,,Yes
1,Joel Ruzich,USA,WA,90,83.8,61,,,160,160,M,Masters 60-64,Raw,D,,,,Yes
1,Bob Kinsey,USA,CA,90,85.3,76,,,143,143,M,Masters 75-79,Raw,D,,,147.5,Yes
1,Adam Trejo,USA,IN,100,99.3,41,,,273,273,M,Masters 40-44,Raw,D,,,,Yes
1,David Nix,USA,TX,100,98.4,50,,,220,220,M,Masters 50-54,Raw,D,,,,Yes
1,Barry Charles,USA,NM,100,96.2,56,,,245,245,M,Masters 55-59,Raw,D,,,,Yes
1,Anand Pai,USA,CA,110,107.7,58,,,232.5,232.5,M,Masters 55-59,Raw,D,,,,Yes
1,Siarhei Murauyou,Belarus,,125,113.4,42,,,300,300,M,Masters 40-44,Raw,D,,,,Yes
1,Peter Martin,USA,OR,125,119.1,49,,,243,243,M,Masters 45-49,Raw,D,,,,Yes
1,Chris Dodson,USA,CA,125,121.6,53,,,250,250,M,Masters 50-54,Raw,D,,,,Yes
1,Dennis Alegre,USA,CA,140,127.7,53,,,277.5,277.5,M,Masters 50-54,Raw,D,,,,Yes
1,Gabriel Alderette,USA,AZ,140+,148.5,49,,,250.5,250.5,M,Masters 45-49,Raw,D,,,257.5,Yes
1,Sam Pecktol,USA,OR,140+,153.1,64,,,215,215,M,Masters 60-64,Raw,D,,,,Yes
1,Betsy Spann,USA,CA,67.5,66.8,61,,,147.5,147.5,F,Masters 60-64,Single-ply,D,,,,Yes
1,Stanislav Pryakhin,Russia,,90,85,43,,,270.5,270.5,M,Open,Single-ply,D,,,,Yes
1,Michael Martin,USA,WA,75,70.9,57,,,175,175,M,Masters 55-59,Single-ply,D,,,185,Yes
1,Ron Scott,USA,CA,75,69.1,72,,,192.5,192.5,M,Masters 70-74,Single-ply,D,,,,Yes
1,Joe Walden,USA,KS,82.5,80.2,62,,,192.5,192.5,M,Masters 60-64,Single-ply,D,,,,Yes
1,Stanislav Pryakhin,Russia,,90,85,43,,,270.5,270.5,M,Masters 40-44,Single-ply,D,,,,Yes
1,Miguel Chain Junior,Brazil,,100,95.9,39,,,230,230,M,Open,Multi-ply,D,,,,Yes
DD,Joshua Earnest,USA,CA,125,,,,,,,M,Open,Raw,SBD,,,,
