Division,WeightClassKg,Place,Name,Team,BodyweightKg,Best3SquatKg,Best3BenchKg,Best3DeadliftKg,TotalKg,Equipment,Event,Sex
Boys,51.71,1,Tucker Craig,Midland,50.8,120.2,61.23,124.74,306.17,Single-ply,SBD,M
Boys,51.71,2,Damian Delacruz,Abilene Cooper,49.8,92.99,61.23,106.59,260.82,Single-ply,SBD,M
Boys,51.71,3,Fox Talamantes,Abilene,48.22,92.99,52.16,102.06,247.21,Single-ply,SBD,M
Boys,51.71,4,Matthew Gray #3,Tuscola Jim Ned,51.26,74.84,45.36,111.13,231.33,Single-ply,SBD,M
Boys,51.71,5,OJ Cano,Merkel,49.9,74.84,43.09,90.72,208.65,Single-ply,SBD,M
Boys,55.79,6,Zach Lambert,Abilene Cooper,51.94,65.77,56.7,83.91,206.38,Single-ply,SBD,M
Boys,51.71,7,Ryan Lail,Tuscola Jim Ned,42.64,61.23,38.56,74.84,174.63,Single-ply,SBD,M
Boys,55.79,1,Axel Marcenaro,Merkel,54.88,124.74,68.04,124.74,317.51,Single-ply,SBD,M
Boys,55.79,2,Gilbert Borrego,Merkel,55.79,104.33,77.11,136.08,317.51,Single-ply,SBD,M
Boys,55.79,3,Andrew Craft,Clyde,53.52,115.67,74.84,117.93,308.44,Single-ply,SBD,M
Boys,55.79,4,Austin Perkins,Abilene Cooper,53.98,117.93,65.77,124.74,308.44,Single-ply,SBD,M
Boys,59.87,1,Tanner Turner,Merkel,56.7,170.1,95.25,181.44,446.79,Single-ply,SBD,M
Boys,59.87,2,Christian Alexander,Tuscola Jim Ned,58.06,142.88,90.72,140.61,374.21,Single-ply,SBD,M
Boys,59.87,3,Ben Lantrip,Tuscola Jim Ned,57.15,113.4,65.77,149.69,328.85,Single-ply,SBD,M
Boys,59.87,4,Dylan Logan,Abilene Cooper,58.24,124.74,61.23,129.27,315.25,Single-ply,SBD,M
Boys,59.87,5,Isaac Ortega,Abilene,59.28,120.2,74.84,120.2,315.25,Single-ply,SBD,M
Boys,59.87,6,Nathan Browning,Clyde,58.51,117.93,72.57,120.2,310.71,Single-ply,SBD,M
Boys,67.13,7,Elijah Torres,Abilene Cooper,60.01,106.59,61.23,133.81,301.64,Single-ply,SBD,M
Boys,59.87,8,Bryce Munoz,Anson,56.7,115.67,63.5,120.2,299.37,Single-ply,SBD,M
Boys,67.13,9,Kasey Dean,Abilene,59.92,113.4,63.5,120.2,297.1,Single-ply,SBD,M
Boys,59.87,10,Joel Lozano,Anson,59.42,102.06,65.77,120.2,288.03,Single-ply,SBD,M
Boys,59.87,11,Eric Sowell,Anson,59.87,97.52,52.16,117.93,267.62,Single-ply,SBD,M
Boys,67.13,DQ,Dante Hall,Abilene Cooper,60.1,,,,,Single-ply,SBD,M
Boys,59.87,DQ,Austin Eubanks,Clyde,59.87,124.74,,,,Single-ply,SBD,M
Boys,67.13,1,Chase Rheilander,Midland,64.41,149.69,99.79,163.29,412.77,Single-ply,SBD,M
Boys,67.13,2,Tyler Crawford,Clyde,65.86,129.27,86.18,142.88,358.34,Single-ply,SBD,M
Boys,67.13,3,Robert Tecerio,Abilene,65.41,133.81,74.84,142.88,351.53,Single-ply,SBD,M
Boys,67.13,4,Payton Lopez,Clyde,67.13,138.35,68.04,142.88,349.27,Single-ply,SBD,M
Boys,67.13,5,Damen Hersey,Anson,65.32,122.47,72.57,140.61,335.66,Single-ply,SBD,M
Boys,67.13,6,Maurice Johnson,Abilene Cooper,63.14,115.67,77.11,129.27,322.05,Single-ply,SBD,M
Boys,67.13,7,Jacob Cantu,Abilene Cooper,62.05,102.06,81.65,124.74,308.44,Single-ply,SBD,M
Boys,67.13,8,Austin Chambers,Clyde,63.96,97.52,65.77,124.74,288.03,Single-ply,SBD,M
Boys,67.13,9,Aaron Graham,Clyde,63.05,102.06,70.31,102.06,274.42,Single-ply,SBD,M
Boys,74.84,DQ,Jamar Porter,Abilene Cooper,67.31,,,,,Single-ply,SBD,M
Boys,67.13,DQ,Zac Burt,Hawley,67.13,,,,,Single-ply,SBD,M
Boys,67.13,DQ,Jacob Greenwood,Sweetwater,62.6,106.59,,,,Single-ply,SBD,M
Boys,74.84,1,Bray Amos,Sweetwater,72.57,197.31,124.74,188.24,510.29,Single-ply,SBD,M
Boys,74.84,2,Matthew Fisher,Tuscola Jim Ned,70.31,158.76,108.86,190.51,458.13,Single-ply,SBD,M
Boys,74.84,3,Kaleb Moore,Clyde,73.03,154.22,108.86,158.76,421.84,Single-ply,SBD,M
Boys,74.84,4,Joseph Rees,Tuscola Jim Ned,73.94,145.15,83.91,188.24,417.3,Single-ply,SBD,M
Boys,74.84,5,Mason Friske,Merkel,73.48,145.15,102.06,142.88,390.09,Single-ply,SBD,M
Boys,74.84,6,Blake Proctor,Abilene,72.39,142.88,74.84,154.22,371.95,Single-ply,SBD,M
Boys,74.84,7,Branson Guelker,Sweetwater,74.84,136.08,90.72,145.15,371.95,Single-ply,SBD,M
Boys,74.84,8,Colton Brown,Anson,72.12,104.33,63.5,129.27,297.1,Single-ply,SBD,M
Boys,74.84,DQ,Devin Johnson,Abilene Cooper,69.76,,,,,Single-ply,SBD,M
Boys,74.84,DQ,Adrian Vizzera,Sweetwater,74.84,,,,,Single-ply,SBD,M
Boys,74.84,DQ,Malcolm Thompson,Merkel,74.84,,,,,Single-ply,SBD,M
Boys,74.84,DQ,Hunter Mobley,Sweetwater,74.84,,,,,Single-ply,SBD,M
Boys,82.1,1,Nicky Hoang,Midland,81.65,192.78,127.01,226.8,546.58,Single-ply,SBD,M
Boys,82.1,2,Matt Holmes,Merkel,78.93,165.56,129.27,181.44,476.27,Single-ply,SBD,M
Boys,82.1,3,Robert Natividad,Midland,80.74,183.7,111.13,170.1,464.93,Single-ply,SBD,M
Boys,82.1,4,Jacob Sauer,Clyde,80.29,174.63,102.06,170.1,446.79,Single-ply,SBD,M
Boys,82.1,5,Jaime Hernandez #3,Abilene,78.29,158.76,102.06,176.9,437.72,Single-ply,SBD,M
Boys,82.1,6,Nate Smith,Merkel,82.1,156.49,90.72,190.51,437.72,Single-ply,SBD,M
Boys,82.1,7,Joseph Montgomery,Anson,76.2,161.03,97.52,165.56,424.11,Single-ply,SBD,M
Boys,82.1,8,Leroy Santana,Abilene,81.28,136.08,102.06,183.7,421.84,Single-ply,SBD,M
Boys,82.1,9,Devin Romero,Abilene,77.02,142.88,90.72,181.44,415.04,Single-ply,SBD,M
Boys,82.1,10,Houston Hance,Abilene Cooper,78.56,147.42,92.99,165.56,405.97,Single-ply,SBD,M
Boys,82.1,11,Chris Jones #21,Anson,77.11,151.95,90.72,161.03,403.7,Single-ply,SBD,M
Boys,82.1,12,Bradon Kesler,Tuscola Jim Ned,81.65,136.08,77.11,190.51,403.7,Single-ply,SBD,M
Boys,82.1,13,Dawson Faynan,Clyde,77.56,138.35,115.67,136.08,390.09,Single-ply,SBD,M
Boys,82.1,14,Eduardo Marin,Anson,78.02,142.88,83.91,149.69,376.48,Single-ply,SBD,M
Boys,89.81,1,Dayton Mora,Abilene Cooper,85.09,165.56,90.72,188.24,444.52,Single-ply,SBD,M
Boys,89.81,2,Slayton Hanson,Anson,88.9,151.95,99.79,183.7,435.45,Single-ply,SBD,M
Boys,89.81,3,Chandler Smith,Tuscola Jim Ned,84.82,142.88,104.33,156.49,403.7,Single-ply,SBD,M
Boys,89.81,4,Ethan Hough,Clyde,88.45,154.22,90.72,156.49,401.43,Single-ply,SBD,M
Boys,89.81,5,Michael Martinez,Abilene,88.68,149.69,83.91,154.22,387.82,Single-ply,SBD,M
Boys,89.81,6,Alex Ryan,Abilene,84.59,131.54,92.99,142.88,367.41,Single-ply,SBD,M
Boys,89.81,7,Shane Thomas,Clyde,89.36,124.74,77.11,124.74,326.59,Single-ply,SBD,M
Boys,89.81,DQ,Activus Lowrey,Abilene Cooper,84.01,,,,,Single-ply,SBD,M
Boys,89.81,DQ,Zach Garcia,Sweetwater,89.81,,,,,Single-ply,SBD,M
Boys,99.79,1,Coleton Whitlock,Midland,97.52,260.82,165.56,249.48,675.85,Single-ply,SBD,M
Boys,99.79,2,Dillon Springer,Midland,98.88,204.12,147.42,226.8,578.33,Single-ply,SBD,M
Boys,99.79,3,Turner Phillips,Midland,92.08,188.24,124.74,192.78,505.76,Single-ply,SBD,M
Boys,99.79,4,Blake Parker,Abilene Cooper,94.44,183.7,120.2,170.1,474,Single-ply,SBD,M
Boys,99.79,5,Dylan Jimenez,Sweetwater,99.79,188.24,104.33,181.44,474,Single-ply,SBD,M
Boys,99.79,6,Jonathan Castaneda,Abilene Cooper,96.62,172.37,106.59,188.24,467.2,Single-ply,SBD,M
Boys,99.79,7,Gabriel Craig,Abilene Cooper,96.25,176.9,102.06,165.56,444.52,Single-ply,SBD,M
Boys,99.79,8,Michael Pullen,Abilene Cooper,91.17,147.42,102.06,174.63,424.11,Single-ply,SBD,M
Boys,99.79,9,Jax Pimentel,Clyde,91.63,165.56,102.06,149.69,417.3,Single-ply,SBD,M
Boys,99.79,10,Tye Landeros,Tuscola Jim Ned,95.25,158.76,90.72,140.61,390.09,Single-ply,SBD,M
Boys,99.79,11,Logan Bross,Abilene,99.79,142.88,83.91,142.88,369.68,Single-ply,SBD,M
Boys,99.79,12,Kheland Smith,Clyde,94.8,145.15,83.91,136.08,365.14,Single-ply,SBD,M
Boys,99.79,13,Zack Thompson,Abilene,91.4,142.88,72.57,117.93,333.39,Single-ply,SBD,M
Boys,99.79,DQ,Raymond Delgado,Sweetwater,94.8,156.49,120.2,,,Single-ply,SBD,M
Boys,109.77,1,Haddan Stokes,Clyde,109.13,288.03,170.1,210.92,669.05,Single-ply,SBD,M
Boys,109.77,2,Javier Valdes,Midland,105.23,235.87,161.03,229.06,625.96,Single-ply,SBD,M
Boys,109.77,3,Ronnell Wilson,Abilene,109.18,226.8,136.08,219.99,582.87,Single-ply,SBD,M
Boys,109.77,4,Paxton Heiting,Midland,108.41,190.51,142.88,238.14,571.53,Single-ply,SBD,M
Boys,109.77,5,David Brown #14,Abilene,103.1,195.04,149.69,210.92,555.65,Single-ply,SBD,M
Boys,109.77,6,Damian Guevara,Abilene,106,195.04,147.42,181.44,523.9,Single-ply,SBD,M
Boys,109.77,7,Traver Vliem,Midland,106.59,190.51,120.2,201.85,512.56,Single-ply,SBD,M
Boys,109.77,8,Walker Akers,Abilene Cooper,109.13,195.04,106.59,183.7,485.34,Single-ply,SBD,M
Boys,109.77,9,Robert Bellman,Abilene Cooper,104.87,183.7,111.13,183.7,478.54,Single-ply,SBD,M
Boys,109.77,10,Martin Prieto,Merkel,109.77,158.76,92.99,167.83,419.57,Single-ply,SBD,M
Boys,109.77,11,Matthew Trevinio,Abilene,100.52,154.22,108.86,133.81,396.89,Single-ply,SBD,M
Boys,109.77,12,Justin Johnson,Sweetwater,102.06,113.4,77.11,145.15,335.66,Single-ply,SBD,M
Boys,124.74,13,Luis Barrientes,Abilene,109.81,111.13,79.38,145.15,335.66,Single-ply,SBD,M
Boys,109.77,14,Miguel Valdez,Clyde,106.14,120.2,77.11,129.27,326.59,Single-ply,SBD,M
Boys,109.77,15,Cade Schwandner,Clyde,102.06,115.67,77.11,124.74,317.51,Single-ply,SBD,M
Boys,109.77,DQ,Jon Mathews,Tuscola Jim Ned,109.77,,,,,Single-ply,SBD,M
Boys,109.77,DQ,Lane Pickett,Hawley,102.97,249.48,,,,Single-ply,SBD,M
Boys,109.77,DQ,Michael Taylor #3,Merkel,109.77,176.9,,,,Single-ply,SBD,M
Boys,124.74,1,Jacob Granado,Midland,124.74,310.71,158.76,258.55,728.02,Single-ply,SBD,M
Boys,124.74,2,Devon Miller,Midland,115.67,272.16,174.63,265.35,712.14,Single-ply,SBD,M
Boys,124.74,3,Slayde Anderson,Abilene,120.7,204.12,115.67,195.04,514.83,Single-ply,SBD,M
Boys,124.74,4,Daniel Wilchie,Abilene,112.04,176.9,131.54,188.24,496.68,Single-ply,SBD,M
Boys,124.74,5,Noah Perez,Abilene,114.8,192.78,129.27,167.83,489.88,Single-ply,SBD,M
Boys,124.74,6,John Adkins #2,Clyde,113.76,183.7,106.59,151.95,442.25,Single-ply,SBD,M
Boys,124.74,7,Chris Norwood,Merkel,111.13,161.03,108.86,158.76,428.64,Single-ply,SBD,M
Boys,124.74,8,Jayton Voss,Abilene,118.89,172.37,92.99,142.88,408.23,Single-ply,SBD,M
Boys,124.74,9,Anthony Arrellano,Abilene Cooper,112.4,158.76,102.06,142.88,403.7,Single-ply,SBD,M
Boys,124.74,DQ,Chalo Garcia,Anson,120.2,,,,,Single-ply,SBD,M
Boys,124.74,DQ,Israel Vera,Sweetwater,124.74,,,,,Single-ply,SBD,M
Boys,124.74,DQ,Braxton Gardner,Midland,121.56,201.85,,,,Single-ply,SBD,M
Boys,124.74+,1,Jesus Verastegui,Abilene,156.04,283.5,154.22,215.46,653.17,Single-ply,SBD,M
Boys,124.74+,2,Cj Carillo,Midland,136.08,210.92,172.37,229.06,612.35,Single-ply,SBD,M
Boys,124.74+,3,Evan Tate,Tuscola Jim Ned,144.7,215.46,136.08,213.19,564.72,Single-ply,SBD,M
Boys,124.74+,4,Ruben Leija,Abilene,129.68,192.78,111.13,195.04,498.95,Single-ply,SBD,M
Boys,124.74+,5,Marquise Lyons,Abilene,127.69,163.29,102.06,136.08,401.43,Single-ply,SBD,M
Boys,124.74+,DQ,Cody Carr,Abilene Cooper,126.46,,,,,Single-ply,SBD,M
Boys,124.74+,DQ,Cesar Juarez,Midland,130.18,210.92,115.67,,,Single-ply,SBD,M
