Division,WeightClassKg,Place,Name,Team,BodyweightKg,Best3SquatKg,Best3BenchKg,Best3DeadliftKg,TotalKg,Equipment,Event,Sex,BirthDate
Boys,51.71,1,Alexis Ramos,Perryton,51.26,104.33,52.16,108.86,265.35,Single-ply,SBD,M,
Boys,51.71,2,Loius Fulton,Lefors,51.17,92.99,47.63,120.2,260.82,Single-ply,SBD,M,
Boys,51.71,3,Jose Zamora,Dumas,50.53,86.18,52.16,111.13,249.48,Single-ply,SBD,M,
Boys,51.71,4,Benjamin Perez,Amarillo Highland Park,47.76,77.11,49.9,108.86,235.87,Single-ply,SBD,M,
Boys,51.71,5,Cooper Talley,Quanah,42.55,90.72,34.02,102.06,226.8,Single-ply,SBD,M,
Boys,51.71,DQ,Braden Amaya,Amarillo Highland Park,51.71,,,,,Single-ply,SBD,M,
Boys,51.71,DQ,Nathan Puga,Lubbock,49.9,68.04,,,,Single-ply,SBD,M,
Boys,55.79,1,Bryan Ordaz,Dumas,55.43,158.76,95.25,170.1,424.11,Single-ply,SBD,M,
Boys,55.79,2,Nathan Flores,Friona,52.89,136.08,63.5,147.42,347,Single-ply,SBD,M,
Boys,55.79,3,Britto Willey,Lubbock,54.61,90.72,47.63,97.52,235.87,Single-ply,SBD,M,
Boys,55.79,DQ,Gio Ponce,Friona,55.79,,,,,Single-ply,SBD,M,
Boys,59.87,1,Dio Ponce,Friona,57.97,145.15,92.99,158.76,396.89,Single-ply,SBD,M,
Boys,59.87,2,Uriel Ibanez,Dumas,58.79,122.47,92.99,170.1,385.55,Single-ply,SBD,M,
Boys,59.87,3,Emmanuel Ibanez,Dumas,59.6,140.61,86.18,147.42,374.21,Single-ply,SBD,M,
Boys,59.87,4,Takoah Urquidez,Lubbock Monterey,59.15,124.74,77.11,158.76,360.61,Single-ply,SBD,M,
Boys,59.87,5,Adam Hope,Quanah,59.51,122.47,77.11,136.08,335.66,Single-ply,SBD,M,
Boys,59.87,6,Jorge Hernandez,Dimmitt,57.88,102.06,61.23,122.47,285.76,Single-ply,SBD,M,
Boys,59.87,DQ,Johnson Phan,Amarillo Highland Park,59.24,136.08,,,,Single-ply,SBD,M,
Boys,59.87,DQ,Jose Herrera,Amarillo Highland Park,59.6,,,,,Single-ply,SBD,M,
Boys,67.13,1,Damian Mendoza,Dumas,65.5,174.63,104.33,199.58,478.54,Single-ply,SBD,M,
Boys,67.13,2,Kenny Ramirez #2,Perryton,67.04,174.63,115.67,188.24,478.54,Single-ply,SBD,M,
Boys,67.13,3,Christian Laja,Perryton,64.68,181.44,88.45,183.7,453.59,Single-ply,SBD,M,
Boys,67.13,4,Jose Chavira,Dumas,66.95,174.63,108.86,170.1,453.59,Single-ply,SBD,M,
Boys,67.13,5,Nolan Carabajal,Lubbock Monterey,64.86,147.42,113.4,163.29,424.11,Single-ply,SBD,M,
Boys,67.13,6,Bradley Franks,Dumas,66.86,163.29,99.79,151.95,415.04,Single-ply,SBD,M,
Boys,67.13,7,Juan Palomo,Lubbock,64.59,140.61,88.45,176.9,405.97,Single-ply,SBD,M,
Boys,67.13,8,Nathan Meraz,Canyon Randall,63.23,142.88,102.06,156.49,401.43,Single-ply,SBD,M,
Boys,67.13,9,Tanner Eade,Lubbock,64.59,142.88,90.72,158.76,392.36,Single-ply,SBD,M,
Boys,67.13,10,Derian Williams,Amarillo Highland Park,66.22,129.27,74.84,136.08,340.19,Single-ply,SBD,M,
Boys,67.13,DQ,Owen Lovelace,Quanah,60.6,,,,,Single-ply,SBD,M,
Boys,67.13,DQ,Jason Kaufmann,Quanah,60.24,,,,,Single-ply,SBD,M,
Boys,74.84,1,Brady Tiemann,Vega,70.31,192.78,108.86,217.72,519.36,Single-ply,SBD,M,
Boys,74.84,2,Riley Tiemann,Vega,71.49,199.58,102.06,210.92,512.56,Single-ply,SBD,M,
Boys,74.84,3,James Bednorz,Dumas,72.48,176.9,131.54,197.31,505.76,Single-ply,SBD,M,
Boys,74.84,4,Hector Borunda,Dumas,71.49,183.7,122.47,190.51,496.68,Single-ply,SBD,M,
Boys,74.84,5,Stewart Skiles,Vega,70.85,192.78,97.52,204.12,494.42,Single-ply,SBD,M,
Boys,74.84,6,Roger Palacios,Friona,74.84,204.12,106.59,181.44,492.15,Single-ply,SBD,M,
Boys,74.84,7,William Wall,Dimmitt,71.94,158.76,113.4,199.58,471.74,Single-ply,SBD,M,
Boys,74.84,8,Jake Wirt,Canyon,72.67,172.37,99.79,192.78,464.93,Single-ply,SBD,M,
Boys,74.84,9,Troy Conner,Quanah,74.75,176.9,102.06,185.97,464.93,Single-ply,SBD,M,
Boys,74.84,10,Preston Mullins,Canyon Randall,71.67,172.37,92.99,183.7,449.06,Single-ply,SBD,M,
Boys,74.84,11,Jacob Lewis,Canyon Randall,74.12,154.22,108.86,183.7,446.79,Single-ply,SBD,M,
Boys,74.84,12,Donavan Cardenas,Amarillo Highland Park,74.39,154.22,102.06,142.88,399.16,Single-ply,SBD,M,
Boys,74.84,13,Damion Serna,Amarillo Highland Park,74.84,147.42,83.91,167.83,399.16,Single-ply,SBD,M,
Boys,74.84,14,Israel Gabriel,Perryton,70.03,147.42,74.84,163.29,385.55,Single-ply,SBD,M,
Boys,74.84,15,Andrew Guevara,Bovina,74.3,129.27,90.72,158.76,378.75,Single-ply,SBD,M,
Boys,74.84,16,Fernando Martinez #5,Bovina,68.95,129.27,72.57,163.29,365.14,Single-ply,SBD,M,
Boys,74.84,17,Ethan Coto,Quanah,67.31,129.27,68.04,145.15,342.46,Single-ply,SBD,M,
Boys,74.84,18,Tyler Farley,Amarillo Highland Park,70.85,102.06,74.84,156.49,333.39,Single-ply,SBD,M,
Boys,74.84,19,Braxton Lee-Jones,Lefors,70.94,111.13,52.16,145.15,308.44,Single-ply,SBD,M,
Boys,82.1,1,Alex Clements,Borger,81.47,210.92,102.06,233.6,546.58,Single-ply,SBD,M,
Boys,82.1,2,Junior Torres,Perryton,79.38,206.38,115.67,201.85,523.9,Single-ply,SBD,M,
Boys,82.1,3,Braydon Garcia,Quanah,77.29,192.78,120.2,206.38,519.36,Single-ply,SBD,M,
Boys,82.1,4,Cannon Speck,Dumas,79.47,190.51,117.93,185.97,494.42,Single-ply,SBD,M,
Boys,82.1,5,Kristian Najara,Lubbock,82.1,183.7,106.59,181.44,471.74,Single-ply,SBD,M,
Boys,82.1,6,Jaden Rodriguez,Perryton,80.83,199.58,111.13,154.22,464.93,Single-ply,SBD,M,
Boys,82.1,7,Jagger Puga,Dalhart,79.56,158.76,124.74,161.03,444.52,Single-ply,SBD,M,
Boys,82.1,8,Kason Matthews,Quanah,79.92,170.1,83.91,158.76,412.77,Single-ply,SBD,M,
Boys,89.81,1,Anthony Aguilera,Dalhart,86.18,204.12,136.08,217.72,557.92,Single-ply,SBD,M,
Boys,89.81,2,Mark Hernandez #2,Dumas,89.81,190.51,133.81,185.97,510.29,Single-ply,SBD,M,
Boys,89.81,3,Jose Ibarra,Perryton,88,204.12,104.33,195.04,503.49,Single-ply,SBD,M,
Boys,89.81,4,Carson Ward #3,Borger,86.18,165.56,113.4,190.51,469.47,Single-ply,SBD,M,
Boys,89.81,5,Adryan Rodriguez,Amarillo Highland Park,85,183.7,97.52,185.97,467.2,Single-ply,SBD,M,
Boys,89.81,6,Nash Stewart,Perryton,89.45,161.03,115.67,172.37,449.06,Single-ply,SBD,M,
Boys,89.81,7,Bryan Chacon,Perryton,87.18,172.37,83.91,185.97,442.25,Single-ply,SBD,M,
Boys,89.81,8,Jose Castenada,Canyon Randall,83.46,147.42,88.45,183.7,419.57,Single-ply,SBD,M,
Boys,89.81,9,Todd Fry,Lefors,86.27,161.03,95.25,154.22,410.5,Single-ply,SBD,M,
Boys,89.81,10,Omar Jurado,Perryton,88.27,131.54,79.38,129.27,340.19,Single-ply,SBD,M,
Boys,99.79,1,Karlo Sanchez,Dumas,98.97,258.55,154.22,231.33,644.1,Single-ply,SBD,M,
Boys,99.79,2,Devlin Offut,Lubbock Monterey,96.98,226.8,167.83,226.8,621.42,Single-ply,SBD,M,
Boys,99.79,3,Gael Davila,Dumas,96.25,215.46,145.15,217.72,578.33,Single-ply,SBD,M,
Boys,99.79,4,Cash Page,Canyon,97.25,195.04,111.13,238.14,544.31,Single-ply,SBD,M,
Boys,99.79,5,Cade Hood,Vega,98.16,215.46,113.4,195.04,523.9,Single-ply,SBD,M,
Boys,99.79,6,Dustin Bledsoe,Canyon,95.16,206.38,111.13,192.78,510.29,Single-ply,SBD,M,
Boys,99.79,7,Gerado Gonzalez,Dimmitt,97.52,183.7,97.52,226.8,508.02,Single-ply,SBD,M,
Boys,99.79,8,Xavier Gonzalez,Dalhart,92.08,197.31,106.59,181.44,485.34,Single-ply,SBD,M,
Boys,99.79,9,Trevor Haro,Lubbock Monterey,96.16,183.7,106.59,192.78,483.08,Single-ply,SBD,M,
Boys,99.79,10,Jeremiah Bustos,Vega,94.89,176.9,92.99,192.78,462.66,Single-ply,SBD,M,
Boys,99.79,11,Isaac Borunda,Perryton,94.26,179.17,97.52,145.15,421.84,Single-ply,SBD,M,
Boys,99.79,12,Abraham Loeza,Dimmitt,96.98,117.93,95.25,151.95,365.14,Single-ply,SBD,M,
Boys,109.77,1,Chris Delatorre,Dumas,104.78,260.82,158.76,238.14,657.71,Single-ply,SBD,M,
Boys,109.77,2,Abel Gonzalez,Perryton,108.86,244.94,145.15,229.06,619.15,Single-ply,SBD,M,
Boys,109.77,3,Ivan Perez,Amarillo Highland Park,109.77,233.6,142.88,240.4,616.89,Single-ply,SBD,M,
Boys,109.77,4,Micheal Adamson,Lefors,106.96,249.48,129.27,213.19,591.94,Single-ply,SBD,M,
Boys,109.77,5,Jake Padilla,Friona,106.5,240.4,117.93,213.19,571.53,Single-ply,SBD,M,
Boys,109.77,6,Abner Garcia,Borger,105.51,201.85,97.52,204.12,503.49,Single-ply,SBD,M,
Boys,109.77,7,Jacob Hernandez,Vega,108.32,204.12,90.72,188.24,483.08,Single-ply,SBD,M,
Boys,124.74,1,Omar Hernandez #1,Dumas,121.38,285.76,190.51,238.14,714.41,Single-ply,SBD,M,
Boys,124.74,2,Cody Mays,Vega,123.29,272.16,163.29,267.62,703.07,Single-ply,SBD,M,
Boys,124.74,3,Jacen Rodriquez,Lubbock,124.01,233.6,163.29,231.33,628.23,Single-ply,SBD,M,
Boys,124.74,4,Yostin Villagomez,Dalhart,110.86,226.8,170.1,215.46,612.35,Single-ply,SBD,M,
Boys,124.74,5,Daniel Alvidrez,Perryton,110.04,217.72,104.33,215.46,537.51,Single-ply,SBD,M,
Boys,124.74,6,Kyler Carlson,Canyon Randall,119.39,188.24,117.93,208.65,514.83,Single-ply,SBD,M,
Boys,124.74+,1,Jaden Massey,Dalhart,154.67,290.3,215.46,226.8,732.55,Single-ply,SBD,M,
Boys,124.74+,2,Marc Herrera,Lubbock,137.08,219.99,145.15,224.53,589.67,Single-ply,SBD,M,
Boys,124.74+,3,Kevon Jackson,Lubbock Monterey,144.42,244.94,124.74,217.72,587.4,Single-ply,SBD,M,
Boys,124.74+,4,Lucas Martinez,Dumas,126.82,213.19,133.81,226.8,573.79,Single-ply,SBD,M,
Boys,124.74+,5,Brayan Olvera,Lubbock Monterey,140.25,249.48,117.93,204.12,571.53,Single-ply,SBD,M,
Boys,124.74+,6,Jovani Olivares,Lubbock,135.71,208.65,136.08,192.78,537.51,Single-ply,SBD,M,
Boys,124.74+,7,Cristian Salinas,Dalhart,128.91,190.51,133.81,151.95,476.27,Single-ply,SBD,M,
Boys,124.74+,8,Luis Cisneros,Lefors,125.92,176.9,92.99,142.88,412.77,Single-ply,SBD,M,
