Division,WeightClassKg,Place,Name,Team,BodyweightKg,Best3SquatKg,Best3BenchKg,Best3DeadliftKg,TotalKg,Equipment,Event,Sex
Freshmen,55.79,1,Raul Garcia,Cotulla,51.89,111.13,70.31,124.74,306.17,Single-ply,SBD,M
Freshmen,51.71,2,Pablo Vez,Laredo Cigarroa,51.07,92.99,68.04,129.27,290.3,Single-ply,SBD,M
Freshmen,55.79,3,Juan Martinez,Laredo United South,51.89,90.72,47.63,102.06,240.4,Single-ply,SBD,M
Freshmen,51.71,4,Hector Lozano,Laredo United South,50.44,77.11,49.9,111.13,238.14,Single-ply,SBD,M
Freshmen,51.71,5,Nelson Carmona,Laredo Martin,42.37,65.77,47.63,92.99,206.38,Single-ply,SBD,M
Freshmen,59.87,1,Angel Covarrubias,Laredo Nixon,59.24,120.2,68.04,158.76,347,Single-ply,SBD,M
Freshmen,59.87,2,Gregorio Abundis,Laredo United South,59.87,92.99,68.04,149.69,310.71,Single-ply,SBD,M
Freshmen,67.13,3,Pablo Osorio,Laredo United,60.1,61.23,52.16,104.33,217.72,Single-ply,SBD,M
Freshmen,59.87,DQ,Justin Delgadillo,Laredo Martin,57.33,83.91,,,,Single-ply,SBD,M
Freshmen,67.13,1,Andre Garza,Cotulla,64.86,149.69,74.84,142.88,367.41,Single-ply,SBD,M
Freshmen,67.13,2,Rene Calrera,Laredo Cigarroa,62.6,104.33,58.97,122.47,285.76,Single-ply,SBD,M
Freshmen,67.13,3,Alexis Villanueva,Laredo United,61.33,90.72,70.31,120.2,281.23,Single-ply,SBD,M
Freshmen,67.13,4,Erasto Trevino,Laredo Nixon,63.96,102.06,56.7,120.2,278.96,Single-ply,SBD,M
Freshmen,67.13,5,Antonio Torres,Laredo Nixon,60.78,86.18,68.04,106.59,260.82,Single-ply,SBD,M
Freshmen,67.13,6,Luis Hernandez,Laredo United South,61.05,72.57,61.23,102.06,235.87,Single-ply,SBD,M
Freshmen,67.13,DQ,Raul Solis,Laredo Cigarroa,66.5,72.57,,,,Single-ply,SBD,M
Freshmen,74.84,1,Eddie McCoy,Laredo Nixon,73.39,102.06,68.04,133.81,303.91,Single-ply,SBD,M
Freshmen,74.84,2,Jordan Perez,Laredo United South,71.03,104.33,63.5,131.54,299.37,Single-ply,SBD,M
Freshmen,74.84,3,Eddie Alarcon,Laredo Nixon,70.85,90.72,56.7,117.93,265.35,Single-ply,SBD,M
Freshmen,74.84,4,David Garza,Laredo Nixon,71.94,83.91,54.43,113.4,251.74,Single-ply,SBD,M
Freshmen,74.84,5,David Martinez #13,Laredo United South,70.22,83.91,58.97,102.06,244.94,Single-ply,SBD,M
Freshmen,74.84,6,Calvin Pena,Laredo Nixon,70.31,70.31,47.63,104.33,222.26,Single-ply,SBD,M
Freshmen,74.84,DQ,Jose Rios,Roma,73.39,154.22,,,,Single-ply,SBD,M
Freshmen,82.1,1,Jonathan Rodriguez #10,Laredo Nixon,80.74,138.35,79.38,174.63,392.36,Single-ply,SBD,M
Freshmen,82.1,2,Mathew Guzman,Laredo Nixon,78.74,120.2,77.11,147.42,344.73,Single-ply,SBD,M
Freshmen,82.1,3,Luis Hernandez,Laredo Nixon,79.92,102.06,74.84,165.56,342.46,Single-ply,SBD,M
Freshmen,82.1,4,Andres Gutierrez,Laredo Johnson,76.38,106.59,79.38,140.61,326.59,Single-ply,SBD,M
Freshmen,82.1,5,David De Luna,Laredo United South,75.75,106.59,63.5,124.74,294.84,Single-ply,SBD,M
Freshmen,82.1,6,Gilbert Meza,Laredo United,77.84,102.06,70.31,117.93,290.3,Single-ply,SBD,M
Freshmen,82.1,7,Gilbert Arredondo,Laredo United South,81.1,88.45,74.84,127.01,290.3,Single-ply,SBD,M
Freshmen,82.1,8,Elmer Garza,Laredo United,77.02,97.52,52.16,97.52,247.21,Single-ply,SBD,M
Freshmen,89.81,1,Eloy Soto,Laredo Cigarroa,85.09,142.88,102.06,147.42,392.36,Single-ply,SBD,M
Freshmen,89.81,2,Juan Cisneros,Laredo Johnson,82.92,127.01,79.38,142.88,349.27,Single-ply,SBD,M
Freshmen,89.81,3,Mario Fuentes,Laredo Martin,83.19,113.4,83.91,142.88,340.19,Single-ply,SBD,M
Freshmen,89.81,DQ,Hugo Zamora,Laredo Cigarroa,87,,,,,Single-ply,SBD,M
Freshmen,99.79,1,David Montelongo,Laredo Martin,98.16,117.93,79.38,181.44,378.75,Single-ply,SBD,M
Freshmen,99.79,2,David Luna,Laredo Johnson,94.89,122.47,86.18,147.42,356.07,Single-ply,SBD,M
Freshmen,99.79,3,Eduardo Dominguez,Laredo United,94.98,124.74,74.84,142.88,342.46,Single-ply,SBD,M
Freshmen,99.79,4,Joel Garza,Laredo Johnson,97.34,127.01,72.57,140.61,340.19,Single-ply,SBD,M
Freshmen,99.79,5,Christian Narvaez,Laredo Cigarroa,94.71,104.33,68.04,129.27,301.64,Single-ply,SBD,M
Freshmen,99.79,6,Juan Palomo,Laredo United,94.89,68.04,61.23,124.74,254.01,Single-ply,SBD,M
Freshmen,109.77,1,Jose Beltran,Laredo Martin,101.6,120.2,83.91,142.88,347,Single-ply,SBD,M
Freshmen,109.77,2,Jonathan Lopez,Laredo Cigarroa,107.23,120.2,65.77,142.88,328.85,Single-ply,SBD,M
Freshmen,124.74,1,Carlos Sanchez,Laredo United South,115.3,163.29,90.72,172.37,426.38,Single-ply,SBD,M
Freshmen,124.74,2,Jacob Reyna,Laredo Cigarroa,120.2,115.67,120.2,167.83,403.7,Single-ply,SBD,M
Freshmen,124.74,3,David Alejandres,Laredo United South,114.67,145.15,95.25,158.76,399.16,Single-ply,SBD,M
Freshmen,124.74,4,Lupe Gonzalez #2,Laredo Martin,110.95,129.27,74.84,161.03,365.14,Single-ply,SBD,M
Freshmen,124.74,5,Fernando Guevara,Laredo Johnson,111.49,136.08,68.04,161.03,365.14,Single-ply,SBD,M
Freshmen,124.74+,1,Sergio Rodriguez #5,Laredo United,143.24,163.29,88.45,140.61,392.36,Single-ply,SBD,M
Freshmen,124.74+,2,Jesus Lopez,Laredo United,126.1,120.2,79.38,147.42,347,Single-ply,SBD,M
Freshmen,124.74+,3,Isaac Paredes,Laredo United South,152.04,145.15,65.77,113.4,324.32,Single-ply,SBD,M
Varsity,51.71,1,Hector Villegas,Roma,51.71,147.42,77.11,147.42,371.95,Single-ply,SBD,M
Varsity,55.79,1,Roger Lozano,Roma,55.16,138.35,83.91,158.76,381.02,Single-ply,SBD,M
Varsity,55.79,2,Cesar Esquivel,Laredo Cigarroa,55.25,136.08,68.04,156.49,360.61,Single-ply,SBD,M
Varsity,59.87,3,Alexis Cordova,Roma,55.97,120.2,61.23,113.4,294.84,Single-ply,SBD,M
Varsity,59.87,1,Jerry Alaniz,Laredo Alexander,58.97,226.8,133.81,201.85,562.45,Single-ply,SBD,M
Varsity,59.87,2,Christian Sanchez,Cotulla,58.69,158.76,97.52,192.78,449.06,Single-ply,SBD,M
Varsity,59.87,3,Eric Oliva,Laredo United South,58.24,174.63,92.99,179.17,446.79,Single-ply,SBD,M
Varsity,59.87,4,Jairo Morales,Laredo Cigarroa,59.6,158.76,88.45,183.7,430.91,Single-ply,SBD,M
Varsity,59.87,5,Jonathan Pena,Laredo United South,59.24,147.42,92.99,170.1,410.5,Single-ply,SBD,M
Varsity,59.87,6,Luis Garza,Laredo Nixon,56.52,86.18,63.5,124.74,274.42,Single-ply,SBD,M
Varsity,67.13,1,Cesar Alfaro,Laredo United South,67.13,185.97,147.42,217.72,551.11,Single-ply,SBD,M
Varsity,67.13,2,David Lopez,Laredo United South,63.96,183.7,133.81,204.12,521.63,Single-ply,SBD,M
Varsity,74.84,3,Ricky Ayala,Cotulla,67.31,181.44,97.52,183.7,462.66,Single-ply,SBD,M
Varsity,67.13,4,Jose A Gomez,Roma,66.86,170.1,102.06,183.7,455.86,Single-ply,SBD,M
Varsity,67.13,5,Peter Cavazos,Laredo Nixon,64.86,149.69,74.84,172.37,396.89,Single-ply,SBD,M
Varsity,67.13,6,Albert Estrada,Laredo Martin,63.32,129.27,113.4,142.88,385.55,Single-ply,SBD,M
Varsity,67.13,7,Danny Hernandez,Laredo Nixon,64.95,133.81,83.91,167.83,385.55,Single-ply,SBD,M
Varsity,67.13,8,Isaac Castillo,Laredo Cigarroa,60.78,138.35,77.11,161.03,376.48,Single-ply,SBD,M
Varsity,67.13,9,Juan Gonzalez,Laredo Martin,64.41,142.88,74.84,142.88,360.61,Single-ply,SBD,M
Varsity,67.13,10,Juan Carmona,Laredo Nixon,61.33,124.74,74.84,140.61,340.19,Single-ply,SBD,M
Varsity,67.13,11,Rudy Ramos,Laredo Nixon,61.23,115.67,68.04,133.81,317.51,Single-ply,SBD,M
Varsity,67.13,12,Jose Rodriguez #1,Laredo Nixon,61.6,113.4,68.04,111.13,292.57,Single-ply,SBD,M
Varsity,67.13,DQ,Leroy Sustaita,Laredo Martin,65.14,145.15,,,,Single-ply,SBD,M
Varsity,74.84,1,Edgar Trejo,Laredo United South,74.75,183.7,120.2,201.85,505.76,Single-ply,SBD,M
Varsity,82.1,2,Felipe Ramirez,Laredo Johnson,75.07,170.1,102.06,183.7,455.86,Single-ply,SBD,M
Varsity,74.84,3,Xavione Skaggs,Laredo Alexander,71.49,165.56,106.59,170.1,442.25,Single-ply,SBD,M
Varsity,74.84,4,Eric Estrada,Roma,72.21,151.95,111.13,176.9,439.98,Single-ply,SBD,M
Varsity,74.84,5,Adrian Garcia,Roma,70.67,172.37,88.45,163.29,424.11,Single-ply,SBD,M
Varsity,74.84,6,Jose Fuentes,Laredo United,74.39,145.15,90.72,163.29,399.16,Single-ply,SBD,M
Varsity,74.84,7,Mark Molina,Laredo Cigarroa,72.12,147.42,72.57,172.37,392.36,Single-ply,SBD,M
Varsity,74.84,8,Raul Cabrera,Laredo Cigarroa,73.57,138.35,86.18,151.95,376.48,Single-ply,SBD,M
Varsity,74.84,9,Danny Sanchez,Laredo Alexander,70.03,142.88,81.65,145.15,369.68,Single-ply,SBD,M
Varsity,74.84,10,Marc Cerda,Laredo United,68.13,120.2,68.04,145.15,333.39,Single-ply,SBD,M
Varsity,74.84,11,Danny DeLeon,Laredo Nixon,67.68,113.4,72.57,136.08,322.05,Single-ply,SBD,M
Varsity,82.1,1,Felipe Hernández #4,Laredo United,80.29,208.65,129.27,192.78,530.7,Single-ply,SBD,M
Varsity,82.1,2,Marco DeLuna,Laredo United South,82.1,188.24,129.27,192.78,510.29,Single-ply,SBD,M
Varsity,82.1,3,Daniel Briones,Laredo United South,82.1,188.24,117.93,201.85,508.02,Single-ply,SBD,M
Varsity,82.1,4,Frank Garcia,Laredo Martin,81.37,204.12,102.06,192.78,498.95,Single-ply,SBD,M
Varsity,82.1,5,Mark Ruiz,Cotulla,75.66,181.44,102.06,192.78,476.27,Single-ply,SBD,M
Varsity,82.1,6,Jose Mosqueda,Laredo Cigarroa,78.38,145.15,92.99,192.78,430.91,Single-ply,SBD,M
Varsity,82.1,7,Pedro Diaz,Laredo Alexander,80.56,151.95,106.59,170.1,428.64,Single-ply,SBD,M
Varsity,82.1,8,Randal Hinojosa,Laredo Alexander,79.02,163.29,99.79,161.03,424.11,Single-ply,SBD,M
Varsity,82.1,9,Federico Villareal,Laredo Martin,79.56,147.42,79.38,170.1,396.89,Single-ply,SBD,M
Varsity,82.1,10,Randy Aguilar,Laredo Johnson,80.92,147.42,83.91,149.69,381.02,Single-ply,SBD,M
Varsity,82.1,11,Javier Botello,Laredo Nixon,81.65,124.74,90.72,165.56,381.02,Single-ply,SBD,M
Varsity,82.1,12,Robert De La Vega,Laredo United,76.84,113.4,77.11,163.29,353.8,Single-ply,SBD,M
Varsity,82.1,13,Jesus Orozco Jr,Laredo Johnson,82.1,113.4,70.31,151.95,335.66,Single-ply,SBD,M
Varsity,82.1,14,Norman Madrigal,Laredo Johnson,75.93,108.86,68.04,147.42,324.32,Single-ply,SBD,M
Varsity,82.1,DQ,Alfredo Trejo,Laredo Johnson,75.21,108.86,,,,Single-ply,SBD,M
Varsity,89.81,1,Jordan Garcia #6,Cotulla,89.09,244.94,142.88,256.28,644.1,Single-ply,SBD,M
Varsity,89.81,2,David Garza,Cotulla,88.18,229.06,142.88,244.94,616.89,Single-ply,SBD,M
Varsity,89.81,3,Victor Ramos,Laredo United South,84.64,217.72,124.74,215.46,557.92,Single-ply,SBD,M
Varsity,89.81,4,Jonathan Vela,Roma,89.54,208.65,127.01,195.04,530.7,Single-ply,SBD,M
Varsity,89.81,5,Eugenio Perez,Laredo Alexander,87.63,174.63,111.13,181.44,467.2,Single-ply,SBD,M
Varsity,89.81,6,Benito Orozco,Laredo Martin,84.1,174.63,124.74,158.76,458.13,Single-ply,SBD,M
Varsity,99.79,1,Mark Duron,Laredo Martin,97.52,254.01,154.22,226.8,635.03,Single-ply,SBD,M
Varsity,99.79,2,Marco Banda,Laredo Nixon,95.98,222.26,129.27,213.19,564.72,Single-ply,SBD,M
Varsity,99.79,3,Max Flores,Laredo Alexander,98.52,204.12,131.54,217.72,553.38,Single-ply,SBD,M
Varsity,99.79,4,Paul Gonzalez,Laredo United South,99.25,192.78,147.42,206.38,546.58,Single-ply,SBD,M
Varsity,99.79,5,Isael Claudio,Laredo Cigarroa,98.16,190.51,122.47,210.92,523.9,Single-ply,SBD,M
Varsity,99.79,6,Joseph Guerra,Laredo Alexander,97.34,185.97,138.35,185.97,510.29,Single-ply,SBD,M
Varsity,99.79,7,Jose Anaya,Laredo United South,91.35,190.51,102.06,192.78,485.34,Single-ply,SBD,M
Varsity,99.79,8,Danny Cordona,Laredo United,97.16,158.76,97.52,195.04,451.32,Single-ply,SBD,M
Varsity,99.79,9,Apolonio Andrade,Roma,99.61,161.03,97.52,158.76,417.3,Single-ply,SBD,M
Varsity,99.79,10,Jordy Velazquez,Laredo Johnson,97.07,147.42,83.91,163.29,394.63,Single-ply,SBD,M
Varsity,99.79,DQ,George Martinez,Laredo United,94.62,,,,,Single-ply,SBD,M
Varsity,109.77,1,Santos Alvarado,Laredo United,107.59,231.33,142.88,219.99,594.21,Single-ply,SBD,M
Varsity,109.77,2,Elhim Hernandez,Laredo United,108.41,206.38,142.88,213.19,562.45,Single-ply,SBD,M
Varsity,109.77,3,Christian Rosas,Laredo Alexander,107.59,199.58,133.81,215.46,548.85,Single-ply,SBD,M
Varsity,109.77,4,John Arguijo,Laredo Martin,100.24,215.46,108.86,215.46,539.77,Single-ply,SBD,M
Varsity,109.77,5,Victor Nenque,Laredo Nixon,106.32,197.31,113.4,188.24,498.95,Single-ply,SBD,M
Varsity,109.77,6,Agustine Lara,Laredo United South,103.06,158.76,120.2,204.12,483.08,Single-ply,SBD,M
Varsity,109.77,7,Jose Barbarena,Laredo Nixon,102.15,158.76,92.99,158.76,410.5,Single-ply,SBD,M
Varsity,109.77,8,Mario Torres,Laredo Johnson,107.59,158.76,70.31,181.44,410.5,Single-ply,SBD,M
Varsity,109.77,DQ,RJ Garza,Laredo Martin,102.87,215.46,,,,Single-ply,SBD,M
Varsity,124.74,1,Jerry Gonzalez,Laredo Nixon,124.1,201.85,124.74,204.12,530.7,Single-ply,SBD,M
Varsity,124.74,2,Justin Hernandez,Laredo Nixon,122.92,204.12,113.4,208.65,526.17,Single-ply,SBD,M
Varsity,124.74,3,Edgar Chavez,Cotulla,114.21,185.97,120.2,199.58,505.76,Single-ply,SBD,M
Varsity,124.74,4,Enrique Rojas,Laredo United,124.74,179.17,106.59,181.44,467.2,Single-ply,SBD,M
Varsity,124.74,5,Alvaro Ramos,Laredo Johnson,112.67,161.03,72.57,158.76,392.36,Single-ply,SBD,M
Varsity,124.74+,1,Jose Flores #2,Laredo Cigarroa,130.45,254.01,158.76,244.94,657.71,Single-ply,SBD,M
Varsity,124.74+,2,Rudy Flores,Laredo United South,138.89,249.48,158.76,226.8,635.03,Single-ply,SBD,M
Varsity,124.74+,3,Ruben Hinojosa,Roma,131.18,244.94,124.74,204.12,573.79,Single-ply,SBD,M
Varsity,124.74+,4,Noe Obregon,Cotulla,139.8,158.76,122.47,183.7,464.93,Single-ply,SBD,M
Varsity,124.74+,5,Hector Velasquez,Laredo Johnson,143.34,158.76,92.99,183.7,435.45,Single-ply,SBD,M
Varsity,124.74+,6,Omar Santos,Laredo Johnson,134.08,145.15,97.52,158.76,401.43,Single-ply,SBD,M
