Division,WeightClassKg,Place,Name,Team,BodyweightKg,Best3SquatKg,Best3BenchKg,Best3DeadliftKg,TotalKg,Equipment,Event,Sex,BirthDate
Boys,51.71,1,Hunter Maples,Justin Northwest,44.45,36.29,29.48,49.9,115.67,Single-ply,SBD,M,
Boys,55.79,1,Jeremiah Parks-Banda,Justin Northwest,54.88,156.49,77.11,165.56,399.16,Single-ply,SBD,M,
Boys,55.79,2,Blake Zubritski,Justin Northwest,54.88,83.91,56.7,104.33,244.94,Single-ply,SBD,M,
Boys,59.87,DQ,Anton Clark,Northwest Eaton,57.61,,,,,Single-ply,SBD,M,
Boys,67.13,1,Nate Hankins,Northwest Eaton,62.14,161.03,102.06,174.63,437.72,Single-ply,SBD,M,
Boys,67.13,2,Chris Villareal,Northwest Eaton,66.68,151.95,113.4,142.88,408.23,Single-ply,SBD,M,
Boys,67.13,3,Adrian Dixon,Justin Northwest,62.6,138.35,95.25,131.54,365.14,Single-ply,SBD,M,
Boys,67.13,4,Ian Castillo,Justin Northwest,61.23,104.33,63.5,113.4,281.23,Single-ply,SBD,M,
Boys,74.84,1,Kaden Chase,Northwest Eaton,73.48,165.56,115.67,176.9,458.13,Single-ply,SBD,M,
Boys,74.84,2,Hayden Hunter,Northwest Nelson,72.12,154.22,92.99,192.78,439.98,Single-ply,SBD,M,
Boys,74.84,3,Aaron Darden,Northwest Nelson,69.4,142.88,92.99,158.76,394.63,Single-ply,SBD,M,
Boys,74.84,4,Nathan Boe,Northwest Nelson,73.03,120.2,77.11,145.15,342.46,Single-ply,SBD,M,
Boys,82.1,1,Seth Leflore,Northwest Eaton,81.65,188.24,131.54,215.46,535.24,Single-ply,SBD,M,
Boys,82.1,2,Preston Scrivner,Justin Northwest,81.19,204.12,122.47,206.38,532.97,Single-ply,SBD,M,
Boys,82.1,3,Cade Youngs,Northwest Nelson,80.74,190.51,102.06,204.12,496.68,Single-ply,SBD,M,
Boys,82.1,4,Michael Giordano,Northwest Nelson,76.66,163.29,104.33,172.37,439.98,Single-ply,SBD,M,
Boys,89.81,1,Kaleth Polanco-Pinto,Northwest Eaton,89.81,204.12,154.22,204.12,562.45,Single-ply,SBD,M,
Boys,89.81,2,Ben Roberts,Northwest Eaton,89.58,183.7,120.2,210.92,514.83,Single-ply,SBD,M,
Boys,89.81,3,Jason Laster,Justin Northwest,82.55,163.29,97.52,192.78,453.59,Single-ply,SBD,M,
Boys,89.81,4,Landon Johnson,Northwest Nelson,85.73,151.95,92.99,199.58,444.52,Single-ply,SBD,M,
Boys,89.81,5,Eric Maidhoff,Northwest Nelson,84.82,154.22,106.59,170.1,430.91,Single-ply,SBD,M,
Boys,89.81,6,Ethan Caraway,Northwest Nelson,87.09,129.27,97.52,165.56,392.36,Single-ply,SBD,M,
Boys,99.79,1,Brock Hayward,Northwest Eaton,97.07,204.12,131.54,219.99,555.65,Single-ply,SBD,M,
Boys,99.79,2,Clinton Ngum,Justin Northwest,99.34,163.29,117.93,195.04,476.27,Single-ply,SBD,M,
Boys,99.79,3,Zach Boozer,Northwest Nelson,93.44,158.76,115.67,192.78,467.2,Single-ply,SBD,M,
Boys,109.77,1,Wyatt Baker,Justin Northwest,108.41,197.31,95.25,204.12,496.68,Single-ply,SBD,M,
Boys,109.77,2,Chris Natelli,Northwest Nelson,101.6,174.63,92.99,158.76,426.38,Single-ply,SBD,M,
Boys,124.74,1,Yonas Daniel,Northwest Eaton,121.11,210.92,145.15,219.99,576.06,Single-ply,SBD,M,
Boys,124.74,2,Blake Kennedy,Justin Northwest,116.12,163.29,131.54,199.58,494.42,Single-ply,SBD,M,
Boys,124.74,3,Adon Ruiz,Justin Northwest,112.49,195.04,122.47,172.37,489.88,Single-ply,SBD,M,
Boys,124.74,4,Josh Harris,Northwest Nelson,118.39,172.37,102.06,206.38,480.81,Single-ply,SBD,M,
Boys,124.74,5,Jaylan Harris,Northwest Nelson,119.75,174.63,104.33,192.78,471.74,Single-ply,SBD,M,
Boys,139.71,1,Caden Barnett,Justin Northwest,134.72,233.6,131.54,263.08,628.23,Single-ply,SBD,M,
Boys,139.71,2,Hunter Erb,Northwest Eaton,139.71,229.06,145.15,240.4,614.62,Single-ply,SBD,M,
Boys,139.71,3,Trystan Butler,Northwest Eaton,130.63,183.7,138.35,213.19,535.24,Single-ply,SBD,M,
Boys,139.71,4,Matthew Larsen,Justin Northwest,136.08,199.58,113.4,199.58,512.56,Single-ply,SBD,M,
Boys,139.71,5,Abrahim Sakiri,Northwest Nelson,132.45,176.9,124.74,170.1,471.74,Single-ply,SBD,M,
Boys,139.71+,1,Heston Edwards,Northwest Eaton,141.52,235.87,145.15,240.4,621.42,Single-ply,SBD,M,
Boys,139.71+,2,Micah Walters,Justin Northwest,145.6,197.31,129.27,222.26,548.85,Single-ply,SBD,M,
